Division,WeightClassKg,Place,Name,Team,BodyweightKg,Best3SquatKg,Best3BenchKg,Best3DeadliftKg,TotalKg,Equipment,Event,Sex
Boys,55.79,1,Miguel Flores,Weatherford,53.98,127.01,54.43,120.2,301.64,Single-ply,SBD,M
Boys,55.79,2,Sean Wolff,Saginaw,55.79,90.72,58.97,111.13,260.82,Single-ply,SBD,M
Boys,55.79,3,Giancarlo Gonzales,Saginaw,54.88,79.38,56.7,120.2,256.28,Single-ply,SBD,M
Boys,55.79,DQ,Ryan Kennedy,Saginaw,55.79,102.06,,104.33,,Single-ply,SBD,M
Boys,59.87,1,Josh Harris,Saginaw,59.42,104.33,70.31,129.27,303.91,Single-ply,SBD,M
Boys,67.13,1,Chris Smith,Azle,62.14,156.49,68.04,172.37,396.89,Single-ply,SBD,M
Boys,67.13,2,Hunter Livingston,Weatherford,64.41,156.49,92.99,129.27,378.75,Single-ply,SBD,M
Boys,67.13,3,Andrew Holland,Weatherford,60.33,122.47,83.91,145.15,351.53,Single-ply,SBD,M
Boys,67.13,4,Logan Little,Saginaw,67.13,117.93,81.65,136.08,335.66,Single-ply,SBD,M
Boys,67.13,5,Michael Kaufman,Azle,66.22,115.67,63.5,140.61,319.78,Single-ply,SBD,M
Boys,67.13,DQ,Christian Hughes,Azle,62.14,,,131.54,,Single-ply,SBD,M
Boys,74.84,1,William Kaufman,Azle,74.84,185.97,104.33,190.51,480.81,Single-ply,SBD,M
Boys,74.84,2,Chris Black,Saginaw,73.48,183.7,104.33,167.83,455.86,Single-ply,SBD,M
Boys,74.84,3,Dustin Donaldson,Weatherford,73.48,170.1,102.06,151.95,424.11,Single-ply,SBD,M
Boys,74.84,4,Aaron Vann,Saginaw,70.76,142.88,102.06,147.42,392.36,Single-ply,SBD,M
Boys,74.84,5,Raymundo Reyna,Saginaw,71.21,142.88,77.11,145.15,365.14,Single-ply,SBD,M
Boys,74.84,6,Juan Diaz,Saginaw,68.04,111.13,79.38,136.08,326.59,Single-ply,SBD,M
Boys,74.84,7,Cesar Lino,Azle,73.03,106.59,74.84,136.08,317.51,Single-ply,SBD,M
Boys,74.84,DQ,Jonathan Szabo,Saginaw,73.48,,,,,Single-ply,SBD,M
Boys,74.84,DQ,Kritsada Kijnitchee,Weatherford,73.48,,,,,Single-ply,SBD,M
Boys,82.1,1,Zach Butler,Weatherford,78.02,204.12,111.13,195.04,510.29,Single-ply,SBD,M
Boys,82.1,2,Zach Jones,Weatherford,75.75,174.63,117.93,199.58,492.15,Single-ply,SBD,M
Boys,82.1,3,Joel Portillo,Azle,80.74,158.76,113.4,183.7,455.86,Single-ply,SBD,M
Boys,82.1,4,Tyler Henderson,Weatherford,79.83,176.9,111.13,163.29,451.32,Single-ply,SBD,M
Boys,82.1,5,Jesse Orr,Weatherford,80.29,174.63,113.4,161.03,449.06,Single-ply,SBD,M
Boys,82.1,6,Dillon Perrin,Azle,80.74,158.76,88.45,176.9,424.11,Single-ply,SBD,M
Boys,82.1,7,Felipe Martinez,Azle,79.83,129.27,92.99,163.29,385.55,Single-ply,SBD,M
Boys,82.1,8,Tyler Jenkins,Weatherford,75.75,120.2,86.18,163.29,369.68,Single-ply,SBD,M
Boys,82.1,9,Garrett Stewart,Weatherford,77.56,108.86,70.31,108.86,288.03,Single-ply,SBD,M
Boys,82.1,DQ,Micheal Garner,Weatherford,78.47,151.95,,174.63,,Single-ply,SBD,M
Boys,89.81,1,Joe Vandegriff,Saginaw,89.36,192.78,133.81,204.12,530.7,Single-ply,SBD,M
Boys,89.81,2,Dakota Brooks,Azle,88.45,188.24,95.25,199.58,483.08,Single-ply,SBD,M
Boys,89.81,3,Manny Rodriguez,Saginaw,85.73,190.51,111.13,179.17,480.81,Single-ply,SBD,M
Boys,89.81,4,Russell Murphy,Saginaw,84.82,183.7,113.4,174.63,471.74,Single-ply,SBD,M
Boys,89.81,5,Tristan Berkley,Weatherford,84.82,179.17,104.33,176.9,460.4,Single-ply,SBD,M
Boys,89.81,6,Trenton Ferris,Saginaw,85.28,170.1,102.06,185.97,458.13,Single-ply,SBD,M
Boys,89.81,7,Phillip Cisnero,Weatherford,89.81,115.67,70.31,158.76,344.73,Single-ply,SBD,M
Boys,89.81,8,Dru Howeth,Azle,84.82,120.2,72.57,147.42,340.19,Single-ply,SBD,M
Boys,89.81,DQ,Blake Morton,Saginaw,87.54,,,,,Single-ply,SBD,M
Boys,89.81,DQ,Tyler Weaver,Weatherford,88.9,,,158.76,,Single-ply,SBD,M
Boys,99.79,1,Andrew Domingez,Weatherford,99.79,226.8,167.83,181.44,576.06,Single-ply,SBD,M
Boys,99.79,2,Joe Watson,Weatherford,98.43,226.8,122.47,181.44,530.7,Single-ply,SBD,M
Boys,99.79,3,Daniel Hoystradt,Saginaw,99.79,208.65,113.4,204.12,526.17,Single-ply,SBD,M
Boys,99.79,4,Justin Berry,Azle,92.99,197.31,115.67,192.78,505.76,Single-ply,SBD,M
Boys,99.79,5,Justin Casey,Azle,92.99,158.76,102.06,204.12,464.93,Single-ply,SBD,M
Boys,99.79,6,Dillion Knighton,Weatherford,92.53,181.44,90.72,181.44,453.59,Single-ply,SBD,M
Boys,109.77,1,Garrett Hornsby,Azle,109.32,204.12,92.99,185.97,483.08,Single-ply,SBD,M
Boys,109.77,2,John Tow,Weatherford,100.7,158.76,127.01,161.03,446.79,Single-ply,SBD,M
Boys,109.77,3,Luke Goff,Weatherford,108.86,163.29,95.25,167.83,426.38,Single-ply,SBD,M
Boys,109.77,4,Reese Richards,Azle,104.33,142.88,102.06,149.69,394.63,Single-ply,SBD,M
Boys,109.77,DQ,Ty Greenway,Weatherford,109.32,136.08,88.45,131.54,,Single-ply,SBD,M
Boys,124.74,1,Aj Gutierrez,Saginaw,122.92,240.4,142.88,208.65,591.94,Single-ply,SBD,M
Boys,124.74,2,Peter Lopez,Saginaw,112.04,233.6,133.81,215.46,582.87,Single-ply,SBD,M
Boys,124.74,3,Kayson Linehan,Weatherford,121.11,226.8,111.13,213.19,551.11,Single-ply,SBD,M
Boys,124.74,4,Micah McCartney,Azle,117.93,165.56,111.13,156.49,433.18,Single-ply,SBD,M
Boys,124.74,5,Alec Puente,Azle,119.29,142.88,70.31,151.95,365.14,Single-ply,SBD,M
Boys,124.74,DQ,Alex Lawyer,Weatherford,124.74,,,,,Single-ply,SBD,M
Boys,124.74+,1,Reid Robinson,Weatherford,125.19,272.16,136.08,190.51,598.74,Single-ply,SBD,M
Boys,124.74+,2,Skylar Broom,Azle,125.19,185.97,104.33,172.37,462.66,Single-ply,SBD,M
Boys,124.74+,3,Austin Brazell,Azle,126.1,172.37,104.33,183.7,460.4,Single-ply,SBD,M
Boys,124.74+,4,John McGheHee,Azle,125.19,158.76,113.4,181.44,453.59,Single-ply,SBD,M
