Division,WeightClassKg,Place,Name,Team,BodyweightKg,Best3SquatKg,Best3BenchKg,Best3DeadliftKg,TotalKg,Equipment,Event,Sex
Boys,51.71,1,Timothy Ortiz,Odessa,51.44,122.47,72.57,140.61,335.66,Single-ply,SBD,M
Boys,51.71,2,Callum Hurst,Coahoma,50.35,124.74,70.31,120.2,315.25,Single-ply,SBD,M
Boys,51.71,3,Brady Robbins,Midland Greenwood,49.44,115.67,68.04,106.59,290.3,Single-ply,SBD,M
Boys,51.71,4,Tucker Craig,Midland,48.08,108.86,61.23,97.52,267.62,Single-ply,SBD,M
Boys,51.71,5,Antonio Barron,San Angelo Lake View,49.9,83.91,36.29,95.25,215.46,Single-ply,SBD,M
Boys,55.79,1,Keele Valenzuela,Kermit,55.7,167.83,102.06,167.83,437.72,Single-ply,SBD,M
Boys,55.79,2,Clayton Kothmann,Midland Classical Academy,55.16,147.42,77.11,176.9,401.43,Single-ply,SBD,M
Boys,55.79,3,Daniel Sánchez,Midland Greenwood,55.79,142.88,86.18,145.15,374.21,Single-ply,SBD,M
Boys,55.79,4,Zachary Salazar,Lamesa,55.79,136.08,88.45,145.15,369.68,Single-ply,SBD,M
Boys,55.79,5,Diago Lara,Midland,54.43,127.01,83.91,136.08,347,Single-ply,SBD,M
Boys,55.79,6,JaQuanye Lyons,Midland Lee,54.88,127.01,65.77,136.08,328.85,Single-ply,SBD,M
Boys,55.79,7,Aaron Rivera,San Angelo Lake View,55.79,111.13,74.84,115.67,301.64,Single-ply,SBD,M
Boys,55.79,8,Devan Glover,Midland Lee,55.79,97.52,63.5,136.08,297.1,Single-ply,SBD,M
Boys,55.79,NS,Zach Evans,Midland Classical Academy,,,,,,Single-ply,SBD,M
Boys,67.13,1,Reid Clanton,Midland Greenwood,60.06,183.7,120.2,192.78,496.68,Single-ply,SBD,M
Boys,59.87,2,Trenton Crenshaw,Coahoma,58.51,149.69,97.52,165.56,412.77,Single-ply,SBD,M
Boys,59.87,3,Andrew Martinez,Coahoma,59.69,138.35,81.65,154.22,374.21,Single-ply,SBD,M
Boys,59.87,NS,Manny Villanueva,San Angelo Central,,,,,,Single-ply,SBD,M
Boys,59.87,DQ,Tristan Bollinger,Midland,59.42,142.88,,,,Single-ply,SBD,M
Boys,67.13,1,Ivan Arroyo,Odessa,65.32,199.58,136.08,210.92,546.58,Single-ply,SBD,M
Boys,67.13,2,Robert Sauceda,San Angelo Central,66.22,176.9,104.33,183.7,464.93,Single-ply,SBD,M
Boys,67.13,3,Josh Binder,Midland,63.96,163.29,108.86,183.7,455.86,Single-ply,SBD,M
Boys,67.13,4,Jose Hernandez,Midland Greenwood,66.68,163.29,92.99,188.24,444.52,Single-ply,SBD,M
Boys,67.13,5,Joseph Alcala,San Angelo Lake View,64.86,136.08,99.79,172.37,408.23,Single-ply,SBD,M
Boys,67.13,6,Josh Raies,Midland Classical Academy,63.87,149.69,72.57,167.83,390.09,Single-ply,SBD,M
Boys,67.13,7,Chase Rheilander,Midland,61.78,129.27,92.99,158.76,381.02,Single-ply,SBD,M
Boys,67.13,8,Carl Pabst,Odessa Permian,67.13,102.06,65.77,124.74,292.57,Single-ply,SBD,M
Boys,74.84,1,Holt Eads,Midland,73.75,204.12,131.54,217.72,553.38,Single-ply,SBD,M
Boys,74.84,2,Daniel Lockhart,Midland,73.94,181.44,108.86,215.46,505.76,Single-ply,SBD,M
Boys,74.84,3,Ramon Juarez,Seminole,74.84,176.9,99.79,197.31,474,Single-ply,SBD,M
Boys,74.84,4,Logan Gersbach,Seminole,71.58,163.29,120.2,176.9,460.4,Single-ply,SBD,M
Boys,74.84,5,Cameron Hurd,Midland,73.12,161.03,92.99,204.12,458.13,Single-ply,SBD,M
Boys,74.84,6,Herman Tena,Midland Greenwood,74.66,161.03,104.33,188.24,453.59,Single-ply,SBD,M
Boys,74.84,7,Jake Samaniego,Lamesa,70.76,167.83,106.59,172.37,446.79,Single-ply,SBD,M
Boys,74.84,8,Elias Zuniga,Odessa Permian,70.03,158.76,92.99,158.76,410.5,Single-ply,SBD,M
Boys,74.84,9,Nathan Garver,Midland Lee,70.03,147.42,99.79,158.76,405.97,Single-ply,SBD,M
Boys,74.84,10,Jack Lehman,Midland Classical Academy,73.48,147.42,86.18,170.1,403.7,Single-ply,SBD,M
Boys,74.84,11,John Trevino,San Angelo Central,70.67,142.88,90.72,161.03,394.63,Single-ply,SBD,M
Boys,74.84,12,Aaron Vasquez,Odessa Permian,70.76,142.88,83.91,156.49,383.29,Single-ply,SBD,M
Boys,74.84,13,Jesse Carbajal,Midland,68.22,136.08,90.72,151.95,378.75,Single-ply,SBD,M
Boys,74.84,14,Kolton Kissick,Seminole,69.49,142.88,90.72,138.35,371.95,Single-ply,SBD,M
Boys,74.84,15,Mitchell Garza,Odessa Permian,73.48,129.27,68.04,140.61,337.93,Single-ply,SBD,M
Boys,74.84,16,Jordan Weatherl,Midland Classical Academy,69.4,90.72,54.43,129.27,274.42,Single-ply,SBD,M
Boys,74.84,NS,Dylan Perdue,San Angelo Central,,,,,,Single-ply,SBD,M
Boys,82.1,1,Cristopher Stallings,Kermit,80.92,204.12,163.29,226.8,594.21,Single-ply,SBD,M
Boys,82.1,2,Joe Melendez,Coahoma,82.1,238.14,120.2,215.46,573.79,Single-ply,SBD,M
Boys,82.1,3,DruMarcus Austin,Midland Lee,80.92,190.51,120.2,219.99,530.7,Single-ply,SBD,M
Boys,82.1,4,Zach Denny,Kermit,79.47,185.97,111.13,217.72,514.83,Single-ply,SBD,M
Boys,82.1,5,Blake Osborn,Midland Greenwood,80.38,188.24,138.35,185.97,512.56,Single-ply,SBD,M
Boys,82.1,6,Nicky Hoang,Midland,77.38,185.97,102.06,219.99,508.02,Single-ply,SBD,M
Boys,82.1,7,Sal Salinas,Midland,79.2,183.7,115.67,204.12,503.49,Single-ply,SBD,M
Boys,82.1,8,Turner Phillips,Midland,80.2,174.63,115.67,183.7,474,Single-ply,SBD,M
Boys,82.1,9,Blake Narrell,Odessa Permian,79.2,167.83,111.13,181.44,460.4,Single-ply,SBD,M
Boys,82.1,10,Esteban Gonzales,Odessa,77.75,167.83,108.86,174.63,451.32,Single-ply,SBD,M
Boys,82.1,11,Steven Ramirez,Midland Lee,77.84,163.29,111.13,163.29,437.72,Single-ply,SBD,M
Boys,82.1,12,Jacob Horner,Midland,79.02,165.56,83.91,174.63,424.11,Single-ply,SBD,M
Boys,82.1,13,Jacob Martinez,Odessa,77.02,120.2,70.31,136.08,326.59,Single-ply,SBD,M
Boys,82.1,NS,Dj Landreth,Odessa Permian,,,,,,Single-ply,SBD,M
Boys,89.81,1,Coleton Whitlock,Midland,88.36,235.87,145.15,240.4,621.42,Single-ply,SBD,M
Boys,89.81,2,Dustin Rea,Midland Greenwood,85.28,229.06,142.88,219.99,591.94,Single-ply,SBD,M
Boys,89.81,3,Dayton Dennard,Odessa,85.73,215.46,136.08,226.8,578.33,Single-ply,SBD,M
Boys,89.81,4,Daniel Cooper,Kermit,89.63,215.46,122.47,204.12,542.04,Single-ply,SBD,M
Boys,89.81,5,Emilio Solis,Midland,87.09,195.04,145.15,188.24,528.44,Single-ply,SBD,M
Boys,89.81,6,Johnathan Barrow,Odessa,86.36,210.92,83.91,226.8,521.63,Single-ply,SBD,M
Boys,89.81,7,Blas Guerro,San Angelo Central,89.81,206.38,99.79,197.31,503.49,Single-ply,SBD,M
Boys,89.81,8,Jason Haddock,Midland Greenwood,85.37,188.24,120.2,183.7,492.15,Single-ply,SBD,M
Boys,89.81,9,Greg Garcia,Odessa,88.27,174.63,108.86,195.04,478.54,Single-ply,SBD,M
Boys,89.81,10,Arturo Hinojos,Midland,84.73,154.22,106.59,199.58,460.4,Single-ply,SBD,M
Boys,89.81,11,Joe Hernandez,Odessa Permian,84.73,147.42,102.06,181.44,430.91,Single-ply,SBD,M
Boys,89.81,12,David Luera,San Angelo Lake View,88.63,165.56,77.11,176.9,419.57,Single-ply,SBD,M
Boys,89.81,NS,Daniel Lopez,San Angelo Central,,,,,,Single-ply,SBD,M
Boys,89.81,NS,Ryan Dean,Midland Lee,,,,,,Single-ply,SBD,M
Boys,99.79,1,Dannyk Ramos,Midland,96.16,272.16,142.88,217.72,632.76,Single-ply,SBD,M
Boys,99.79,2,Aron Quezada,San Angelo Lake View,98.88,231.33,138.35,226.8,596.47,Single-ply,SBD,M
Boys,99.79,3,Javier Valdes,Midland,98.43,226.8,142.88,219.99,589.67,Single-ply,SBD,M
Boys,99.79,4,Gio Galindo,San Angelo Lake View,97.07,210.92,142.88,229.06,582.87,Single-ply,SBD,M
Boys,99.79,5,Alex Ayala,Lamesa,97.07,217.72,142.88,213.19,573.79,Single-ply,SBD,M
Boys,99.79,6,Damian Rodriguez,Kermit,97.98,206.38,124.74,222.26,553.38,Single-ply,SBD,M
Boys,99.79,7,Juan Valenzuela,Kermit,98.43,192.78,124.74,226.8,544.31,Single-ply,SBD,M
Boys,99.79,8,Dillon Springer,Midland,99.79,190.51,142.88,210.92,544.31,Single-ply,SBD,M
Boys,99.79,9,Michael Coy,Odessa Permian,96.16,226.8,120.2,190.51,537.51,Single-ply,SBD,M
Boys,99.79,10,Cooper Meurer,Midland,99.34,215.46,124.74,183.7,523.9,Single-ply,SBD,M
Boys,99.79,11,Sean Strickland,Midland Greenwood,92.99,183.7,127.01,210.92,521.63,Single-ply,SBD,M
Boys,99.79,12,Manuel Ramirez,Odessa,94.8,197.31,131.54,192.78,521.63,Single-ply,SBD,M
Boys,99.79,13,Noah Hernandez,Odessa,93.44,192.78,113.4,204.12,510.29,Single-ply,SBD,M
Boys,99.79,14,Aaron Galindo,Odessa,91.99,195.04,111.13,197.31,503.49,Single-ply,SBD,M
Boys,99.79,15,Tony Huynh,Midland Lee,91.63,174.63,113.4,197.31,485.34,Single-ply,SBD,M
Boys,99.79,16,Jeramyah Paniagua,Odessa,94.8,170.1,127.01,167.83,464.93,Single-ply,SBD,M
Boys,99.79,17,Daniel Griffin,Seminole,98.43,181.44,104.33,158.76,444.52,Single-ply,SBD,M
Boys,99.79,NS,David Gonzales,Odessa Permian,,,,,,Single-ply,SBD,M
Boys,99.79,NS,Zak Walton,Coahoma,,,,,,Single-ply,SBD,M
Boys,99.79,DQ,Anthony Williams,Big Spring,97.52,,,,,Single-ply,SBD,M
Boys,109.77,1,Zechariah Lerma,Odessa,104.78,254.01,154.22,222.26,630.49,Single-ply,SBD,M
Boys,109.77,2,Nate Newton,San Angelo Central,104.78,238.14,136.08,217.72,591.94,Single-ply,SBD,M
Boys,109.77,3,Rudy Brito,Coahoma,109.77,244.94,142.88,181.44,569.26,Single-ply,SBD,M
Boys,109.77,4,Tailor Hunt,San Angelo Central,103.87,233.6,108.86,210.92,553.38,Single-ply,SBD,M
Boys,109.77,5,Justin Sanchez,Midland,104.33,208.65,120.2,208.65,537.51,Single-ply,SBD,M
Boys,109.77,6,Edgar Contreras,Odessa,100.7,204.12,117.93,204.12,526.17,Single-ply,SBD,M
Boys,109.77,7,Paxton Heiting,Midland,100.24,172.37,133.81,208.65,514.83,Single-ply,SBD,M
Boys,109.77,NS,Conan Hernandez,Midland Lee,,,,,,Single-ply,SBD,M
Boys,109.77,NS,Byron Hutson,Odessa,,,,,,Single-ply,SBD,M
Boys,124.74,1,Jacob Granado,Midland,122.47,294.84,147.42,235.87,678.12,Single-ply,SBD,M
Boys,124.74,2,Eldon Niblett,Midland Greenwood,113.85,294.84,138.35,231.33,664.51,Single-ply,SBD,M
Boys,124.74,3,Daren Hernandez,San Angelo Central,117.48,238.14,138.35,224.53,601.01,Single-ply,SBD,M
Boys,124.74,4,Ruben Magallan,San Angelo Lake View,118.39,215.46,131.54,222.26,569.26,Single-ply,SBD,M
Boys,124.74,5,Phillip Bacon,Coahoma,123.38,226.8,122.47,199.58,548.85,Single-ply,SBD,M
Boys,124.74,6,Cayden White,Odessa Permian,117.03,201.85,124.74,199.58,526.17,Single-ply,SBD,M
Boys,124.74,7,McKenzie Lawson,Odessa Permian,120.66,204.12,106.59,192.78,503.49,Single-ply,SBD,M
Boys,124.74,8,Sergio Rivera,San Angelo Central,117.57,204.12,102.06,181.44,487.61,Single-ply,SBD,M
Boys,124.74,NS,Bryan Boyle,San Angelo Lake View,,,,,,Single-ply,SBD,M
Boys,124.74,NS,Fabian Botello,Odessa,,,,,,Single-ply,SBD,M
Boys,124.74,DQ,Jesus Adame,Odessa,112.49,217.72,113.4,204.12,,Single-ply,SBD,M
Boys,124.74,DQ,Jesus Olivares,Odessa Permian,120.66,263.08,136.08,,,Single-ply,SBD,M
Boys,124.74+,1,Pablo Gutierrez,Odessa,133.36,288.03,154.22,229.06,671.32,Single-ply,SBD,M
Boys,124.74+,2,O'Shay Scott,Midland,130.18,231.33,138.35,217.72,587.4,Single-ply,SBD,M
Boys,124.74+,3,Jesus Rodriguez,Midland Greenwood,128.37,256.28,136.08,192.78,585.13,Single-ply,SBD,M
Boys,124.74+,4,Aaron Leyva,Odessa,126.37,254.01,136.08,190.51,580.6,Single-ply,SBD,M
Boys,124.74+,5,CJ Carrillo,Midland,140.16,204.12,154.22,210.92,569.26,Single-ply,SBD,M
Boys,124.74+,6,Jacob Molina,Midland Lee,160.12,231.33,131.54,183.7,546.58,Single-ply,SBD,M
Boys,124.74+,7,Elijah Davis,San Angelo Lake View,144.7,204.12,104.33,190.51,498.95,Single-ply,SBD,M
Boys,124.74+,8,Jesse Hernandez,Lamesa,129.73,163.29,117.93,151.95,433.18,Single-ply,SBD,M
Boys,124.74+,9,Patrick Hernandez,Midland Lee,143.34,185.97,97.52,140.61,424.11,Single-ply,SBD,M
Boys,124.74+,NS,Joseph Brooks,San Angelo Central,,,,,,Single-ply,SBD,M
Boys,124.74+,DQ,David Mejia,Coahoma,146.51,231.33,131.54,,,Single-ply,SBD,M
Boys,,NS,Teejay Aguilar,Odessa,,,,,,Single-ply,SBD,M
