Division,WeightClassKg,Place,Name,Team,BodyweightKg,Best3SquatKg,Best3BenchKg,Best3DeadliftKg,TotalKg,Equipment,Event,Sex
Girls,44.23,1,Chloe Canales,San Antonio East Central,43.18,102.06,54.43,99.79,256.28,Single-ply,SBD,F
Girls,44.23,2,Celeste Correa,Carrizo Springs,43.18,104.33,34.02,108.86,247.21,Single-ply,SBD,F
Girls,44.23,3,Doralicia Patlan,Lytle,43.45,102.06,52.16,90.72,244.94,Single-ply,SBD,F
Girls,44.23,4,Jessica Gallegos,Laredo Johnson,44.09,83.91,45.36,92.99,222.26,Single-ply,SBD,F
Girls,44.23,5,Natalie Morgan,Bandera,40.82,65.77,34.02,79.38,179.17,Single-ply,SBD,F
Girls,44.23,6,Alize Ruvalcaba,Crystal City,37.65,47.63,24.95,72.57,145.15,Single-ply,SBD,F
Girls,47.85,1,Aaliyah Garcia,Crystal City,46.54,142.88,68.04,122.47,333.39,Single-ply,SBD,F
Girls,47.85,2,Mya Estrada,Beeville Jones,47.45,120.2,54.43,124.74,299.37,Single-ply,SBD,F
Girls,47.85,3,Caitlin Watson,Bandera,46.99,111.13,56.7,115.67,283.5,Single-ply,SBD,F
Girls,47.85,4,Jamie Nail,Beeville Jones,47.54,102.06,49.9,120.2,272.16,Single-ply,SBD,F
Girls,47.85,5,Isanelli Martinez,Crystal City,47.81,113.4,49.9,90.72,254.01,Single-ply,SBD,F
Girls,47.85,6,Angelina Aguirre,Uvalde,47.81,95.25,36.29,106.59,238.14,Single-ply,SBD,F
Girls,47.85,7,Michelle Peredes,Carrizo Springs,47.45,81.65,45.36,95.25,222.26,Single-ply,SBD,F
Girls,47.85,8,Zaylee Zimmerle,Devine,47.81,83.91,45.36,81.65,210.92,Single-ply,SBD,F
Girls,47.85,9,Trinity Garza,Devine,46.18,81.65,36.29,65.77,183.7,Single-ply,SBD,F
Girls,47.85,10,Hopie Aguirro,Carrizo Springs,47.26,36.29,24.95,68.04,129.27,Single-ply,SBD,F
Girls,51.94,1,Kaitlyn Pelitire,Beeville Jones,51.17,170.1,90.72,151.95,412.77,Single-ply,SBD,F
Girls,51.94,2,Kimberly Salinas,Bandera,51.89,133.81,47.63,124.74,306.17,Single-ply,SBD,F
Girls,51.94,3,Brea Eguia,Crystal City,50.17,122.47,65.77,108.86,297.1,Single-ply,SBD,F
Girls,51.94,4,Gabby Moncada,Crystal City,50.71,108.86,61.23,117.93,288.03,Single-ply,SBD,F
Girls,51.94,5,Monique Covarrubias,Lytle,49.35,108.86,43.09,131.54,283.5,Single-ply,SBD,F
Girls,51.94,6,Alisha Flores,Beeville Jones,50.53,108.86,52.16,102.06,263.08,Single-ply,SBD,F
Girls,51.94,7,Irene Maldonado,Lytle,51.89,83.91,49.9,92.99,226.8,Single-ply,SBD,F
Girls,51.94,8,Alexis Shook,Devine,48.81,86.18,40.82,83.91,210.92,Single-ply,SBD,F
Girls,51.94,9,Lauren Davila,Bandera,51.62,83.91,34.02,90.72,208.65,Single-ply,SBD,F
Girls,51.94,10,Jocelyn Rodriguez,San Antonio East Central,49.26,68.04,34.02,90.72,192.78,Single-ply,SBD,F
Girls,51.94,11,Laura De Leon,San Antonio Cole,50.44,83.91,29.48,79.38,192.78,Single-ply,SBD,F
Girls,51.94,12,Kahlia Rodriguez,San Antonio Memorial,48.99,79.38,34.02,77.11,190.51,Single-ply,SBD,F
Girls,51.94,13,Alexis Gonzalez,San Antonio East Central,51.8,68.04,27.22,90.72,185.97,Single-ply,SBD,F
Girls,56.02,1,Aly Urrabazo,Crystal City,55.61,163.29,86.18,151.95,401.43,Single-ply,SBD,F
Girls,56.02,2,Sadie Salazar,Beeville Jones,55.88,136.08,68.04,124.74,328.85,Single-ply,SBD,F
Girls,56.02,3,Destinie Small,San Antonio Cole,52.98,129.27,56.7,136.08,322.05,Single-ply,SBD,F
Girls,56.02,4,Gracelyn Snider,Castroville Medina Valley,55.52,115.67,47.63,122.47,285.76,Single-ply,SBD,F
Girls,56.02,5,Fiona Waid,Bandera,55.97,108.86,58.97,102.06,269.89,Single-ply,SBD,F
Girls,56.02,6,Journey Shoemake,Devine,53.89,102.06,56.7,104.33,263.08,Single-ply,SBD,F
Girls,56.02,7,Nimue Amaya,Pearsall,55.16,99.79,52.16,104.33,256.28,Single-ply,SBD,F
Girls,56.02,8,Elizabeth Martinez,Laredo United,53.34,92.99,36.29,108.86,238.14,Single-ply,SBD,F
Girls,56.02,9,Jahzlyn Oguinaga,Lytle,54.16,92.99,45.36,99.79,238.14,Single-ply,SBD,F
Girls,56.02,10,Aidde Chavarria,Laredo United,54.61,83.91,43.09,108.86,235.87,Single-ply,SBD,F
Girls,56.02,11,Rochelle Orosco,Carrizo Springs,54.88,90.72,43.09,97.52,231.33,Single-ply,SBD,F
Girls,56.02,12,Ariana Perez,Uvalde,55.25,99.79,36.29,95.25,231.33,Single-ply,SBD,F
Girls,56.02,13,Adalysa Rosales,San Antonio East Central,54.34,86.18,38.56,92.99,217.72,Single-ply,SBD,F
Girls,56.02,14,Penelope Cruz,Devine,55.79,83.91,43.09,90.72,217.72,Single-ply,SBD,F
Girls,56.02,15,Abbigail Velasquez,San Antonio Southwest Legacy,53.8,81.65,31.75,102.06,215.46,Single-ply,SBD,F
Girls,56.02,16,Kyra Keylich,Devine,54.25,72.57,36.29,83.91,192.78,Single-ply,SBD,F
Girls,56.02,17,Alexis Trevino,San Antonio Southwest Legacy,54.61,74.84,36.29,79.38,190.51,Single-ply,SBD,F
Girls,60.1,1,Joanna Arredondo,Crystal City,58.33,149.69,65.77,142.88,358.34,Single-ply,SBD,F
Girls,60.1,2,Pracilla Ramirez,Crystal City,58.6,136.08,83.91,122.47,342.46,Single-ply,SBD,F
Girls,60.1,3,Kelly Huerta,Carrizo Springs,59.69,136.08,70.31,124.74,331.12,Single-ply,SBD,F
Girls,60.1,4,Christi'ani Ybarra,Beeville Jones,59.78,131.54,61.23,124.74,317.51,Single-ply,SBD,F
Girls,60.1,5,Emma Baunol,Castroville Medina Valley,56.34,106.59,45.36,124.74,276.69,Single-ply,SBD,F
Girls,60.1,6,Marcella Johnson,Castroville Medina Valley,58.79,92.99,43.09,115.67,251.74,Single-ply,SBD,F
Girls,60.1,7,Abigail Ramos,San Antonio Southwest Legacy,59.24,99.79,45.36,106.59,251.74,Single-ply,SBD,F
Girls,60.1,8,Sierrah Luna,Uvalde,58.69,81.65,47.63,117.93,247.21,Single-ply,SBD,F
Girls,60.1,9,Kaylie Plate,San Antonio East Central,58.97,106.59,43.09,97.52,247.21,Single-ply,SBD,F
Girls,60.1,10,Clarissa Ybanez,Devine,58.51,88.45,45.36,102.06,235.87,Single-ply,SBD,F
Girls,60.1,11,Bianc Rodriguez,La Pryor,57.24,86.18,40.82,97.52,224.53,Single-ply,SBD,F
Girls,60.1,12,Miriam Garcia,San Antonio Southwest Legacy,58.97,83.91,43.09,83.91,210.92,Single-ply,SBD,F
Girls,60.1,13,Alexis Lara,Uvalde,57.42,77.11,31.75,95.25,204.12,Single-ply,SBD,F
Girls,60.1,DQ,Dlarissa Gonzalez,Laredo Johnson,59.69,,,,,Single-ply,SBD,F
Girls,60.1,DQ,Alyssa Sanchez,Laredo United,58.42,,,,,Single-ply,SBD,F
Girls,60.1,DQ,Lyzette Cruz,Castroville Medina Valley,59.96,102.06,43.09,,,Single-ply,SBD,F
Girls,67.36,1,Jessie Ramirez,Devine,66.5,131.54,52.16,136.08,319.78,Single-ply,SBD,F
Girls,67.36,2,Jennifer Montellano,Crystal City,66.04,136.08,61.23,115.67,312.98,Single-ply,SBD,F
Girls,67.36,3,Karlee Kindred,Castroville Medina Valley,66.59,113.4,54.43,124.74,292.57,Single-ply,SBD,F
Girls,67.36,4,Alyssa Lombrana,Crystal City,67.22,115.67,49.9,122.47,288.03,Single-ply,SBD,F
Girls,67.36,5,Tatianna Trevino,Bandera,66.59,111.13,56.7,113.4,281.23,Single-ply,SBD,F
Girls,67.36,6,Raeven Martinez,Pearsall,67.13,108.86,47.63,113.4,269.89,Single-ply,SBD,F
Girls,67.36,7,Estefani Ramirez,San Antonio Southwest Legacy,66.32,106.59,38.56,115.67,260.82,Single-ply,SBD,F
Girls,67.36,8,Ellysabeth Morales,San Antonio East Central,64.14,99.79,40.82,117.93,258.55,Single-ply,SBD,F
Girls,67.36,9,Laura Puente,Carrizo Springs,65.05,102.06,47.63,108.86,258.55,Single-ply,SBD,F
Girls,67.36,10,Kaylee Soto,Laredo United,61.05,106.59,45.36,102.06,254.01,Single-ply,SBD,F
Girls,67.36,11,Amira Van Leevan,Castroville Medina Valley,60.87,95.25,38.56,117.93,251.74,Single-ply,SBD,F
Girls,67.36,12,Patrisha Johnson,San Antonio Cole,66.59,104.33,47.63,97.52,249.48,Single-ply,SBD,F
Girls,67.36,13,Jacklyn Hernandez,Lytle,62.51,99.79,36.29,92.99,229.06,Single-ply,SBD,F
Girls,67.36,14,Alexandra Castro,La Pryor,64.41,81.65,47.63,97.52,226.8,Single-ply,SBD,F
Girls,67.36,15,Tavie Hernandez,Pearsall,61.87,88.45,36.29,88.45,213.19,Single-ply,SBD,F
Girls,67.36,16,Andrea Costilla,Carrizo Springs,63.59,65.77,40.82,99.79,206.38,Single-ply,SBD,F
Girls,67.36,DQ,Laurice Ortiz,San Antonio East Central,64.68,92.99,,,,Single-ply,SBD,F
Girls,67.36,DQ,Nolelia Segura,Laredo United,60.51,,,,,Single-ply,SBD,F
Girls,75.07,1,Jessica Stein,Castroville Medina Valley,71.94,181.44,90.72,158.76,430.91,Single-ply,SBD,F
Girls,75.07,2,Kianna Lara,Crystal City,73.66,172.37,102.06,142.88,417.3,Single-ply,SBD,F
Girls,75.07,3,Kayla Jimenez,Crystal City,69.58,170.1,68.04,145.15,383.29,Single-ply,SBD,F
Girls,75.07,4,Tori Contreras,Beeville Jones,71.49,147.42,61.23,165.56,374.21,Single-ply,SBD,F
Girls,75.07,5,Haylee Lasiter,Crystal City,73.03,158.76,61.23,138.35,358.34,Single-ply,SBD,F
Girls,75.07,6,Biana Jijon,Castroville Medina Valley,72.48,133.81,65.77,142.88,342.46,Single-ply,SBD,F
Girls,75.07,7,Ariana Camarillo,Carrizo Springs,73.21,133.81,61.23,142.88,337.93,Single-ply,SBD,F
Girls,75.07,8,Alizandra Berrelez,Pearsall,71.21,117.93,54.43,120.2,292.57,Single-ply,SBD,F
Girls,75.07,9,Briana Flores,San Antonio East Central,73.57,106.59,40.82,102.06,249.48,Single-ply,SBD,F
Girls,75.07,10,Hannah Goasching,San Antonio Southwest Legacy,75.02,56.7,43.09,97.52,197.31,Single-ply,SBD,F
Girls,75.07,DQ,Sally Tellez,Pearsall,75.02,127.01,,,,Single-ply,SBD,F
Girls,75.07,DQ,Avery Contreras,Uvalde,74.57,,,,,Single-ply,SBD,F
Girls,75.07,DQ,Cristal Altamirano,San Antonio Southwest Legacy,70.13,81.65,34.02,,,Single-ply,SBD,F
Girls,75.07,DQ,Mikayla Moore,Bandera,71.85,115.67,,,,Single-ply,SBD,F
Girls,75.07,DQ,Caitlin Casas,Devine,73.48,,,,,Single-ply,SBD,F
Girls,82.33,1,Lauryn Botello,Beeville Jones,82.28,190.51,102.06,142.88,435.45,Single-ply,SBD,F
Girls,82.33,2,Maria Rodriguez,Crystal City,77.66,172.37,79.38,158.76,410.5,Single-ply,SBD,F
Girls,82.33,3,Destiny Sepulveda,Crystal City,79.47,158.76,79.38,138.35,376.48,Single-ply,SBD,F
Girls,82.33,4,Paige Cote,Devine,80.83,142.88,92.99,138.35,374.21,Single-ply,SBD,F
Girls,82.33,5,Jocelyn Bustamante,Uvalde,81.65,147.42,54.43,124.74,326.59,Single-ply,SBD,F
Girls,82.33,6,Giana Rios,Crystal City,77.47,129.27,49.9,142.88,322.05,Single-ply,SBD,F
Girls,82.33,7,Jacklyn Carillo,La Pryor,80.38,111.13,56.7,120.2,288.03,Single-ply,SBD,F
Girls,82.33,8,Ariatha Gonzalez,Lytle,77.93,106.59,43.09,122.47,272.16,Single-ply,SBD,F
Girls,82.33,9,Leyla Martinez,Laredo United,81.37,97.52,38.56,127.01,263.08,Single-ply,SBD,F
Girls,82.33,10,Lisa Vigil,San Antonio Memorial,78.47,99.79,58.97,90.72,249.48,Single-ply,SBD,F
Girls,82.33,11,Angelica Rodriguez,San Antonio East Central,81.56,79.38,52.16,104.33,235.87,Single-ply,SBD,F
Girls,82.33,DQ,Kassandra Luna,San Antonio Memorial,81.74,151.95,65.77,,,Single-ply,SBD,F
Girls,82.33,DQ,Veronica Benavides,Laredo United,76.11,151.95,79.38,,,Single-ply,SBD,F
Girls,82.33,DQ,Susana Marquez,Crystal City,78.38,131.54,,,,Single-ply,SBD,F
Girls,90.04,1,Katelin Van Dong,Lytle,89.45,197.31,99.79,185.97,483.08,Single-ply,SBD,F
Girls,90.04,2,Gabriella Patino,Crystal City,86.36,195.04,86.18,154.22,435.45,Single-ply,SBD,F
Girls,90.04,3,Reva Salazar,Beeville Jones,88.36,185.97,88.45,158.76,433.18,Single-ply,SBD,F
Girls,90.04,4,Jazlynn Lewis,Bandera,86.82,147.42,77.11,147.42,371.95,Single-ply,SBD,F
Girls,90.04,5,Gretta Epperson,Pearsall,88.63,154.22,58.97,136.08,349.27,Single-ply,SBD,F
Girls,90.04,6,Kristin Center,Lytle,85.73,136.08,61.23,120.2,317.51,Single-ply,SBD,F
Girls,90.04,7,Andrea Venegas,La Pryor,88.99,122.47,54.43,111.13,288.03,Single-ply,SBD,F
Girls,90.04,8,Jackelyn Seiple,Carrizo Springs,89.36,127.01,54.43,102.06,283.5,Single-ply,SBD,F
Girls,90.04,9,Emili Oliver,Lytle,86,115.67,45.36,117.93,278.96,Single-ply,SBD,F
Girls,90.04,DQ,Valeria Rodriquez,Uvalde,88.36,133.81,,,,Single-ply,SBD,F
Girls,90.04,DQ,Alyssa Alva,Pearsall,86.73,199.58,81.65,,,Single-ply,SBD,F
Girls,90.04,DQ,Mariana Botello,Beeville Jones,89.18,210.92,99.79,,,Single-ply,SBD,F
Girls,90.04,DQ,Khali Key,Devine,83.91,,,,,Single-ply,SBD,F
Girls,100.02,1,Amber Ramirez,Beeville Jones,99.16,199.58,124.74,158.76,483.08,Single-ply,SBD,F
Girls,100.02,2,Bethanie Rodriguez,Crystal City,98.97,190.51,102.06,154.22,446.79,Single-ply,SBD,F
Girls,100.02,3,Yazmine Garcia,Pearsall,90.26,176.9,86.18,147.42,410.5,Single-ply,SBD,F
Girls,100.02,4,Shannon Aguilar,Crystal City,90.36,145.15,86.18,142.88,374.21,Single-ply,SBD,F
Girls,100.02,5,Juanita Torres,Carrizo Springs,92.17,151.95,70.31,127.01,349.27,Single-ply,SBD,F
Girls,100.02,6,Distiny Ramirez,Pearsall,99.97,147.42,70.31,129.27,347,Single-ply,SBD,F
Girls,100.02,7,Jaylen Felan,Castroville Medina Valley,95.53,140.61,61.23,136.08,337.93,Single-ply,SBD,F
Girls,100.02,8,Felicity Diaz,Devine,96.25,129.27,70.31,104.33,303.91,Single-ply,SBD,F
Girls,100.02,9,Kathryn Garcia,Laredo United,97.52,111.13,47.63,133.81,292.57,Single-ply,SBD,F
Girls,100.02,10,Monserrat Infante,Laredo United,91.44,113.4,49.9,127.01,290.3,Single-ply,SBD,F
Girls,100.02,11,Regina Alaniz,Castroville Medina Valley,94.89,99.79,54.43,102.06,256.28,Single-ply,SBD,F
Girls,100.02,12,Kristiana Ortiz,Devine,96.43,102.06,56.7,97.52,256.28,Single-ply,SBD,F
Girls,100.02,DQ,Damaris Saldivar,Laredo United,95.16,,,,,Single-ply,SBD,F
Girls,100.02,DQ,Aurora Medrano,San Antonio Memorial,95.89,106.59,,,,Single-ply,SBD,F
Girls,100.02,DQ,Jenna Brady,San Antonio Memorial,98.97,111.13,45.36,,,Single-ply,SBD,F
Girls,117.71,1,Analicia Ramirez,Beeville Jones,116.3,181.44,99.79,131.54,412.77,Single-ply,SBD,F
Girls,117.71,2,Victoria Gonzalez,Carrizo Springs,101.33,136.08,68.04,117.93,322.05,Single-ply,SBD,F
Girls,117.71,3,Anna Marie Rodriquez,San Antonio East Central,110.59,113.4,74.84,124.74,312.98,Single-ply,SBD,F
Girls,117.71,4,Sonya Sanchez,San Antonio Memorial,104.78,102.06,54.43,113.4,269.89,Single-ply,SBD,F
Girls,117.71+,1,Luz Garcia,Crystal City,117.75,204.12,81.65,122.47,408.23,Single-ply,SBD,F
Girls,117.71+,DQ,Ana Santos,San Antonio Memorial,129.36,,,,,Single-ply,SBD,F
Girls,117.71+,DQ,Clarissa Ramirez,Crystal City,117.93,,,,,Single-ply,SBD,F
