Division,WeightClassKg,Place,Name,Team,BodyweightKg,Best3SquatKg,Best3BenchKg,Best3DeadliftKg,TotalKg,Equipment,Event,Sex
Boys,51.71,1,Tyler Groce,Mansfield Legacy,51.53,124.74,61.23,131.54,317.51,Single-ply,SBD,M
Boys,51.71,2,Rodney Barnes,Everman,46.81,111.13,58.97,115.67,285.76,Single-ply,SBD,M
Boys,51.71,3,Jordan Bare,Kennedale,45.36,63.5,31.75,70.31,165.56,Single-ply,SBD,M
Boys,55.79,1,Kevin Huynh,Kennedale,55.52,158.76,83.91,158.76,401.43,Single-ply,SBD,M
Boys,59.87,2,Ashton Williams,Everman,56.02,138.35,83.91,156.49,378.75,Single-ply,SBD,M
Boys,55.79,3,Pete Rios,Waxahachie,52.98,149.69,77.11,136.08,362.87,Single-ply,SBD,M
Boys,59.87,4,Shafiq Asmati,Kennedale,56.02,138.35,72.57,136.08,347,Single-ply,SBD,M
Boys,59.87,5,Austin Blalock,Burleson Centennial,55.88,122.47,68.04,149.69,340.19,Single-ply,SBD,M
Boys,59.87,6,Preston Stripling,Midlothian,55.88,111.13,79.38,122.47,312.98,Single-ply,SBD,M
Boys,55.79,7,Brennan Morrell,Mansfield Legacy,55.16,115.67,68.04,124.74,308.44,Single-ply,SBD,M
Boys,55.79,8,Cubie Ward,Mansfield Legacy,55.61,120.2,79.38,108.86,308.44,Single-ply,SBD,M
Boys,55.79,DQ,Mason Mott,Midlothian,53.75,,,,,Single-ply,SBD,M
Boys,59.87,1,Alejandro Olmos,Everman,58.97,147.42,111.13,156.49,415.04,Single-ply,SBD,M
Boys,59.87,2,Chase Porter,Burleson,59.15,136.08,92.99,158.76,387.82,Single-ply,SBD,M
Boys,59.87,3,Jesus Vasquez,Red Oak,59.06,127.01,81.65,149.69,358.34,Single-ply,SBD,M
Boys,59.87,4,Trent Oliver,Cedar Hill,56.7,136.08,79.38,136.08,351.53,Single-ply,SBD,M
Boys,59.87,5,Tyler Walker,Red Oak,59.33,124.74,68.04,154.22,347,Single-ply,SBD,M
Boys,59.87,6,Joshi Brooker,Cedar Hill,56.79,131.54,68.04,145.15,344.73,Single-ply,SBD,M
Boys,59.87,7,Nick Morrow,Midlothian,57.06,106.59,56.7,102.06,265.35,Single-ply,SBD,M
Boys,74.84,1,Jared Clark,Burleson,67.36,192.78,113.4,201.85,508.02,Single-ply,SBD,M
Boys,67.13,2,Sean Guinyard,Kennedale,65.59,199.58,113.4,192.78,505.76,Single-ply,SBD,M
Boys,67.13,3,Kenneth Stafford,Everman,64.5,167.83,99.79,195.04,462.66,Single-ply,SBD,M
Boys,67.13,4,Brandon Marsh,Burleson Centennial,67.13,158.76,120.2,181.44,460.4,Single-ply,SBD,M
Boys,67.13,5,Ryley Paroulek,Kennedale,66.9,158.76,92.99,190.51,442.25,Single-ply,SBD,M
Boys,67.13,6,Dewayne Tony,Cedar Hill,64.14,163.29,95.25,163.29,421.84,Single-ply,SBD,M
Boys,67.13,7,Tyler Hunter,Kennedale,66.68,154.22,97.52,151.95,403.7,Single-ply,SBD,M
Boys,67.13,8,Ben Bush,Red Oak,64.95,131.54,102.06,158.76,392.36,Single-ply,SBD,M
Boys,67.13,9,Dorian Sims,Mansfield Legacy,65.59,145.15,95.25,145.15,385.55,Single-ply,SBD,M
Boys,67.13,10,Tommy Martinez,Midlothian,62.32,142.88,90.72,142.88,376.48,Single-ply,SBD,M
Boys,67.13,11,Dempsey Duprie,Midlothian,64.41,136.08,90.72,149.69,376.48,Single-ply,SBD,M
Boys,67.13,12,Caleb Waugh,Mansfield Legacy,65.41,138.35,92.99,140.61,371.95,Single-ply,SBD,M
Boys,67.13,13,Bodie Fry,Midlothian,67.13,124.74,72.57,163.29,360.61,Single-ply,SBD,M
Boys,67.13,14,Jacob Montes,Midlothian,66.41,129.27,88.45,140.61,358.34,Single-ply,SBD,M
Boys,67.13,15,Syldarien Brown,Cedar Hill,65.59,117.93,86.18,149.69,353.8,Single-ply,SBD,M
Boys,67.13,16,Tyron Henton,Everman,62.87,142.88,65.77,136.08,344.73,Single-ply,SBD,M
Boys,67.13,17,Bryant Malone,Midlothian,62.32,120.2,70.31,122.47,312.98,Single-ply,SBD,M
Boys,67.13,18,Jordan Key,Midlothian,65.05,102.06,65.77,136.08,303.91,Single-ply,SBD,M
Boys,74.84,19,Zack Stagner,Midlothian,67.22,92.99,74.84,92.99,260.82,Single-ply,SBD,M
Boys,74.84,1,Devin Walker,Everman,72.48,201.85,129.27,213.19,544.31,Single-ply,SBD,M
Boys,74.84,2,Essix Lightfoot,Everman,67.86,213.19,104.33,195.04,512.56,Single-ply,SBD,M
Boys,74.84,3,Ben Adams,Cedar Hill,73.3,170.1,113.4,195.04,478.54,Single-ply,SBD,M
Boys,74.84,4,Dakota Kundert,Burleson,71.4,170.1,122.47,183.7,476.27,Single-ply,SBD,M
Boys,74.84,5,DraShawn Frazier,Cedar Hill,73.12,176.9,86.18,195.04,458.13,Single-ply,SBD,M
Boys,74.84,6,Tre Burns,Burleson Centennial,70.99,170.1,99.79,185.97,455.86,Single-ply,SBD,M
Boys,74.84,7,Jalun Watkins,Kennedale,68.86,181.44,86.18,170.1,437.72,Single-ply,SBD,M
Boys,82.1,8,Cardae Cauley,Everman,75.02,142.88,83.91,158.76,385.55,Single-ply,SBD,M
Boys,74.84,9,Dylan Clary,Midlothian,71.21,138.35,83.91,158.76,381.02,Single-ply,SBD,M
Boys,74.84,10,Dean Strouth,Midlothian,71.67,136.08,90.72,154.22,381.02,Single-ply,SBD,M
Boys,74.84,11,Brian Hammer,Midlothian,72.39,127.01,77.11,158.76,362.87,Single-ply,SBD,M
Boys,74.84,12,Brandon Vineyard,Midlothian,74.48,131.54,68.04,154.22,353.8,Single-ply,SBD,M
Boys,74.84,13,Cody Kovar,Kennedale,71.21,142.88,68.04,136.08,347,Single-ply,SBD,M
Boys,74.84,14,Charles Badger,Everman,71.76,131.54,72.57,136.08,340.19,Single-ply,SBD,M
Boys,74.84,15,Brandon Dikes,Midlothian,69.76,117.93,72.57,142.88,333.39,Single-ply,SBD,M
Boys,74.84,16,Josh Duncan,Midlothian,74.57,120.2,65.77,136.08,322.05,Single-ply,SBD,M
Boys,74.84,17,Tyler Coody,Midlothian,69.22,113.4,68.04,129.27,310.71,Single-ply,SBD,M
Boys,82.1,1,Cameron Bausley,Red Oak,78.74,229.06,127.01,226.8,582.87,Single-ply,SBD,M
Boys,89.81,2,Jerry Burris,Cedar Hill,82.28,222.26,92.99,204.12,519.36,Single-ply,SBD,M
Boys,82.1,3,Blake Dunham,Burleson Centennial,79.56,190.51,104.33,199.58,494.42,Single-ply,SBD,M
Boys,82.1,4,Bryce Barrett,Waxahachie,81.01,181.44,115.67,181.44,478.54,Single-ply,SBD,M
Boys,82.1,5,Cameron Bundy,Kennedale,82.1,172.37,115.67,190.51,478.54,Single-ply,SBD,M
Boys,89.81,6,Najee Mustafaa,Midlothian,82.28,188.24,97.52,190.51,476.27,Single-ply,SBD,M
Boys,82.1,7,Khalandraye Brown,Cedar Hill,78.38,185.97,95.25,181.44,462.66,Single-ply,SBD,M
Boys,82.1,8,Yama Asmati,Kennedale,81.56,172.37,99.79,174.63,446.79,Single-ply,SBD,M
Boys,82.1,9,Patrick Eisner,Burleson Centennial,77.75,170.1,97.52,176.9,444.52,Single-ply,SBD,M
Boys,82.1,10,Dylan Eaker,Mansfield Legacy,80.83,165.56,111.13,161.03,437.72,Single-ply,SBD,M
Boys,82.1,11,Clay Barrientos,Midlothian,80.65,154.22,99.79,165.56,419.57,Single-ply,SBD,M
Boys,82.1,12,Eddie Killingsworth,Mansfield Legacy,77.84,149.69,106.59,151.95,408.23,Single-ply,SBD,M
Boys,82.1,13,Cody Samek,Midlothian,81.19,151.95,90.72,156.49,399.16,Single-ply,SBD,M
Boys,82.1,14,Glen Coburn,Duncanville,79.65,142.88,108.86,145.15,396.89,Single-ply,SBD,M
Boys,82.1,15,Tyler Kilberg,Everman,78.02,136.08,68.04,185.97,390.09,Single-ply,SBD,M
Boys,82.1,16,Aj Tulley,Midlothian,78.11,136.08,90.72,154.22,381.02,Single-ply,SBD,M
Boys,82.1,17,Micah Faulkner,Midlothian,80.47,136.08,79.38,113.4,328.85,Single-ply,SBD,M
Boys,82.1,18,Matt Mitchell,Midlothian,80.74,108.86,54.43,117.93,281.23,Single-ply,SBD,M
Boys,82.1,DQ,Kalob Warren,Everman,78.83,,,,,Single-ply,SBD,M
Boys,82.1,DQ,Cale Gilley,Kennedale,78.83,219.99,,,,Single-ply,SBD,M
Boys,82.1,DQ,Debrodrick Watis,Cedar Hill,80.01,158.76,,,,Single-ply,SBD,M
Boys,89.81,1,Craig Renfro,Waxahachie,86.36,242.67,136.08,238.14,616.89,Single-ply,SBD,M
Boys,89.81,2,Chris Carnes,Burleson,86.27,204.12,142.88,226.8,573.79,Single-ply,SBD,M
Boys,89.81,3,Marcus Stafford,Everman,86.09,226.8,124.74,215.46,566.99,Single-ply,SBD,M
Boys,89.81,4,Laurence Cisneros,Burleson Centennial,89.81,206.38,117.93,238.14,562.45,Single-ply,SBD,M
Boys,89.81,5,Doveon Dillard,Cedar Hill,83.28,208.65,122.47,215.46,546.58,Single-ply,SBD,M
Boys,99.79,6,Derrick Ndede,Mansfield Legacy,89.99,204.12,124.74,197.31,526.17,Single-ply,SBD,M
Boys,89.81,7,Trey McGahan,Kennedale,83.37,208.65,108.86,195.04,512.56,Single-ply,SBD,M
Boys,89.81,8,Caleb Shaw,Midlothian,88.36,190.51,124.74,190.51,505.76,Single-ply,SBD,M
Boys,89.81,9,Keavin Turner,Cedar Hill,89.54,219.99,104.33,181.44,505.76,Single-ply,SBD,M
Boys,89.81,10,Avion Fletcher,Everman,87,185.97,117.93,199.58,503.49,Single-ply,SBD,M
Boys,89.81,11,Zachary Fuscilar,Everman,85.91,197.31,106.59,181.44,485.34,Single-ply,SBD,M
Boys,89.81,12,Zack Worthington,Mansfield Legacy,84.73,188.24,115.67,176.9,480.81,Single-ply,SBD,M
Boys,89.81,13,Devin Jackson,Kennedale,87.27,185.97,104.33,181.44,471.74,Single-ply,SBD,M
Boys,89.81,14,Darrian Sumberlin,Everman,86,181.44,120.2,154.22,455.86,Single-ply,SBD,M
Boys,89.81,15,Warren Brightman,Red Oak,85,149.69,115.67,174.63,439.98,Single-ply,SBD,M
Boys,89.81,16,Leonardo Zavala,Waxahachie,88.63,172.37,86.18,181.44,439.98,Single-ply,SBD,M
Boys,89.81,17,John Walser,Midlothian,86.82,158.76,115.67,147.42,421.84,Single-ply,SBD,M
Boys,99.79,18,Austin Adams,Midlothian,90.04,154.22,104.33,154.22,412.77,Single-ply,SBD,M
Boys,89.81,19,Cameron McEnturff,Midlothian,86.09,140.61,95.25,151.95,387.82,Single-ply,SBD,M
Boys,89.81,20,Ja'Wan Denmark,Duncanville,84.46,142.88,86.18,136.08,365.14,Single-ply,SBD,M
Boys,89.81,21,Angus Pebworth,Midlothian,88.36,124.74,88.45,151.95,365.14,Single-ply,SBD,M
Boys,89.81,22,Juan Servin,Midlothian,83.28,124.74,77.11,136.08,337.93,Single-ply,SBD,M
Boys,99.79,1,Calan Johnson,Cedar Hill,95.16,272.16,151.95,233.6,657.71,Single-ply,SBD,M
Boys,99.79,2,Bryan Randall,Waxahachie,96.62,244.94,167.83,242.67,655.44,Single-ply,SBD,M
Boys,99.79,3,Rj Zavala,Waxahachie,98.43,235.87,149.69,231.33,616.89,Single-ply,SBD,M
Boys,99.79,4,Cameron Chamberlin,Burleson,95.25,249.48,149.69,215.46,614.62,Single-ply,SBD,M
Boys,99.79,DQ,Addison Parrish,Burleson,97.89,,,,,Single-ply,SBD,M
Boys,99.79,6,Ben Blakley,Red Oak,93.08,195.04,117.93,204.12,517.1,Single-ply,SBD,M
Boys,99.79,7,Montreal Jett,Mansfield Legacy,94.26,192.78,131.54,188.24,512.56,Single-ply,SBD,M
Boys,99.79,8,Jared King,Red Oak,92.62,192.78,117.93,197.31,508.02,Single-ply,SBD,M
Boys,99.79,9,Larry Hill,Cedar Hill,92.8,192.78,117.93,185.97,496.68,Single-ply,SBD,M
Boys,99.79,10,Tc Quintana,Burleson Centennial,98.16,192.78,99.79,195.04,487.61,Single-ply,SBD,M
Boys,99.79,11,Landon Jones,Everman,91.35,183.7,102.06,183.7,469.47,Single-ply,SBD,M
Boys,99.79,12,Jarred Connally,Cedar Hill,93.35,170.1,113.4,170.1,453.59,Single-ply,SBD,M
Boys,99.79,13,Daniel Ambriz,Everman,95.44,174.63,83.91,174.63,433.18,Single-ply,SBD,M
Boys,99.79,14,Lawton Anderson,Midlothian,97.07,158.76,102.06,163.29,424.11,Single-ply,SBD,M
Boys,99.79,15,Tristan Griffin,Midlothian,95.98,163.29,90.72,167.83,421.84,Single-ply,SBD,M
Boys,99.79,16,Caleb Dobson,Midlothian,96.98,149.69,102.06,161.03,412.77,Single-ply,SBD,M
Boys,99.79,17,Michael Pytel,Kennedale,96.98,140.61,88.45,149.69,378.75,Single-ply,SBD,M
Boys,109.77,1,Hunter Heins,Burleson,109.23,238.14,129.27,249.48,616.89,Single-ply,SBD,M
Boys,109.77,2,Thomas Marek,Red Oak,108.77,249.48,145.15,210.92,605.55,Single-ply,SBD,M
Boys,109.77,3,Andrew Abamu,Cedar Hill,102.87,238.14,117.93,240.4,596.47,Single-ply,SBD,M
Boys,109.77,4,Koltyn Davis,Kennedale,106.05,219.99,136.08,229.06,585.13,Single-ply,SBD,M
Boys,109.77,5,Felipe Aquiniga,Everman,107.23,226.8,142.88,195.04,564.72,Single-ply,SBD,M
Boys,109.77,6,Gabe Powell,Mansfield Legacy,104.69,215.46,124.74,183.7,523.9,Single-ply,SBD,M
Boys,109.77,7,Brandon Saens,Red Oak,105.51,204.12,120.2,197.31,521.63,Single-ply,SBD,M
Boys,109.77,8,Nathan Ward,Kennedale,107.14,208.65,117.93,183.7,510.29,Single-ply,SBD,M
Boys,109.77,9,Keanu Johnson,Cedar Hill,107.5,226.8,106.59,170.1,503.49,Single-ply,SBD,M
Boys,109.77,10,Christian Milliorn,Waxahachie,107.32,183.7,120.2,195.04,498.95,Single-ply,SBD,M
Boys,109.77,11,Adrian Zavala,Waxahachie,103.33,172.37,120.2,204.12,496.68,Single-ply,SBD,M
Boys,109.77,12,Ladeldriun Washington,Duncanville,105.87,190.51,117.93,174.63,483.08,Single-ply,SBD,M
Boys,109.77,13,Jessie Deckard,Everman,109.13,183.7,106.59,167.83,458.13,Single-ply,SBD,M
Boys,109.77,14,Ryan Laiton,Kennedale,100.88,122.47,65.77,127.01,315.25,Single-ply,SBD,M
Boys,124.74,1,Ivan Garciduenas,Burleson Centennial,121.83,254.01,151.95,226.8,632.76,Single-ply,SBD,M
Boys,124.74,2,Jaleil Davis,Cedar Hill,121.11,240.4,147.42,192.78,580.6,Single-ply,SBD,M
Boys,124.74,3,Geno Whitt,Burleson Centennial,124.01,238.14,122.47,217.72,578.33,Single-ply,SBD,M
Boys,124.74,4,Ethan Jones,Burleson,116.48,226.8,131.54,197.31,555.65,Single-ply,SBD,M
Boys,124.74,5,Marvin Bookman,Cedar Hill,110.95,213.19,124.74,206.38,544.31,Single-ply,SBD,M
Boys,124.74,6,Colton Hostetler,Burleson Centennial,112.31,210.92,117.93,192.78,521.63,Single-ply,SBD,M
Boys,124.74,7,Michael Sottilotto,Kennedale,122.56,183.7,106.59,174.63,464.93,Single-ply,SBD,M
Boys,124.74,8,Austin Crawford,Burleson,116.03,183.7,113.4,163.29,460.4,Single-ply,SBD,M
Boys,124.74,9,Walker Priddy,Burleson,110.77,165.56,111.13,181.44,458.13,Single-ply,SBD,M
Boys,124.74,10,Terik Rabb,Kennedale,119.93,154.22,104.33,181.44,439.98,Single-ply,SBD,M
Boys,124.74,11,Hunter Childress,Duncanville,118.75,170.1,90.72,165.56,426.38,Single-ply,SBD,M
Boys,124.74,12,Jeremy Moore,Duncanville,114.94,151.95,104.33,136.08,392.36,Single-ply,SBD,M
Boys,124.74,13,Kyle Harper,Duncanville,115.03,145.15,99.79,136.08,381.02,Single-ply,SBD,M
Boys,124.74,DQ,Darius Thompson,Cedar Hill,119.66,254.01,,,,Single-ply,SBD,M
Boys,124.74+,1,Nate Brown,Kennedale,138.98,263.08,145.15,251.74,659.98,Single-ply,SBD,M
Boys,124.74+,2,Reggie Williams,Burleson Centennial,126.28,249.48,131.54,242.67,623.69,Single-ply,SBD,M
Boys,124.74+,3,D Baldeschwiler,Burleson,128.19,231.33,170.1,197.31,598.74,Single-ply,SBD,M
Boys,124.74+,4,Anthony Zapata,Everman,126.64,235.87,113.4,217.72,566.99,Single-ply,SBD,M
Boys,124.74+,5,Steven Patton,Red Oak,140.98,233.6,136.08,195.04,564.72,Single-ply,SBD,M
Boys,124.74+,6,Ty Davis,Waxahachie,137.44,195.04,124.74,217.72,537.51,Single-ply,SBD,M
Boys,124.74+,7,Chris Hinton,Midlothian,132.81,181.44,115.67,181.44,478.54,Single-ply,SBD,M
Boys,124.74+,8,Aaren Jenkins,Duncanville,127.37,161.03,117.93,147.42,426.38,Single-ply,SBD,M
Boys,124.74+,9,Joey Stephens,Everman,134.35,188.24,86.18,142.88,417.3,Single-ply,SBD,M
Boys,124.74+,DQ,Rhias Wilcots,Duncanville,135.99,122.47,,,,Single-ply,SBD,M
Boys,,NS,Sammy Overton,Waxahachie,,,,,,Single-ply,SBD,M
Boys,,NS,Cole Stembridge,Waxahachie,,,,,,Single-ply,SBD,M
