Division,WeightClassKg,Place,Name,Team,BodyweightKg,Best3SquatKg,Best3BenchKg,Best3DeadliftKg,TotalKg,Equipment,Event,Sex
Boys,51.71,1,Cody Villa,Crawford,51.26,136.08,88.45,174.63,399.16,Single-ply,SBD,M
Boys,51.71,2,Jake Robertson,Clifton,51.62,154.22,86.18,149.69,390.09,Single-ply,SBD,M
Boys,51.71,3,Randy Salinas,Bangs,51.53,145.15,74.84,154.22,374.21,Single-ply,SBD,M
Boys,51.71,4,Seth Solis,Troy,47.72,129.27,72.57,129.27,331.12,Single-ply,SBD,M
Boys,55.79,5,David Hernandez,Hearne,51.94,102.06,74.84,142.88,319.78,Single-ply,SBD,M
Boys,51.71,6,Terrance Barnes,Valley Mills,50.89,120.2,70.31,115.67,306.17,Single-ply,SBD,M
Boys,51.71,7,Gabriel Spikes,Lago Vista,50.44,108.86,70.31,124.74,303.91,Single-ply,SBD,M
Boys,55.79,8,Derrick McBee,Brady,51.94,115.67,61.23,127.01,303.91,Single-ply,SBD,M
Boys,55.79,DQ,Raymond Sifuentes,Hearne,51.94,104.33,79.38,,,Single-ply,SBD,M
Boys,55.79,1,Trey Fuller,Jarrell,54.16,163.29,81.65,163.29,408.23,Single-ply,SBD,M
Boys,55.79,2,Jonathan Lira,Meridian,53.43,142.88,92.99,154.22,390.09,Single-ply,SBD,M
Boys,55.79,3,Nimo Vega,San Saba,54.52,145.15,81.65,163.29,390.09,Single-ply,SBD,M
Boys,59.87,4,Quenton Winborn,Early,55.88,158.76,74.84,142.88,376.48,Single-ply,SBD,M
Boys,59.87,5,Alex Hart,Clifton,55.97,140.61,68.04,142.88,351.53,Single-ply,SBD,M
Boys,55.79,6,Nike Garcia,Early,54.88,142.88,61.23,138.35,342.46,Single-ply,SBD,M
Boys,55.79,7,Jeremy Alaniz,Riesel,53.8,124.74,77.11,133.81,335.66,Single-ply,SBD,M
Boys,55.79,8,Preston Garcia,Early,54.98,129.27,70.31,122.47,322.05,Single-ply,SBD,M
Boys,55.79,DQ,Philip Alvarado,Blanco,54.7,151.95,95.25,,,Single-ply,SBD,M
Boys,59.87,1,Jose Morantes,Dublin,59.06,197.31,111.13,204.12,512.56,Single-ply,SBD,M
Boys,59.87,2,Luis Juarez,Bosqueville,58.97,183.7,113.4,204.12,501.22,Single-ply,SBD,M
Boys,67.13,3,Sean Gibson,Whitney,60.06,181.44,104.33,213.19,498.95,Single-ply,SBD,M
Boys,67.13,4,Corey Crowell,Bangs,60.1,174.63,104.33,176.9,455.86,Single-ply,SBD,M
Boys,59.87,5,Eduardo Jaimes,Riesel,59.78,179.17,86.18,145.15,410.5,Single-ply,SBD,M
Boys,59.87,6,Dorian Jimenez,Brady,59.87,154.22,74.84,167.83,396.89,Single-ply,SBD,M
Boys,59.87,7,Brandon Simpson,Hubbard,58.06,149.69,97.52,145.15,392.36,Single-ply,SBD,M
Boys,67.13,8,Freddy Hernandez,Hearne,59.96,142.88,77.11,170.1,390.09,Single-ply,SBD,M
Boys,59.87,9,Devin Keese,Brady,59.78,154.22,81.65,151.95,387.82,Single-ply,SBD,M
Boys,59.87,DQ,Alex Palomo,Luling,57.15,,,,,Single-ply,SBD,M
Boys,67.13,1,Dylan Haralson,Axtell,66.68,226.8,92.99,213.19,532.97,Single-ply,SBD,M
Boys,67.13,2,Alex Kyner,Thrall,66.41,197.31,127.01,206.38,530.7,Single-ply,SBD,M
Boys,67.13,3,Harley Garcia,Florence,65.23,206.38,124.74,197.31,528.44,Single-ply,SBD,M
Boys,67.13,4,Walker Shelton,Tolar,65.68,201.85,111.13,206.38,519.36,Single-ply,SBD,M
Boys,67.13,5,Dakota Murray,Brady,65.41,215.46,92.99,201.85,510.29,Single-ply,SBD,M
Boys,67.13,6,Noah Contella,Waco Reicher Catholic,66.86,195.04,106.59,183.7,485.34,Single-ply,SBD,M
Boys,67.13,7,Dakotta Thomas,Clifton,66.5,172.37,104.33,204.12,480.81,Single-ply,SBD,M
Boys,74.84,8,Gabe Cobos,Riesel,67.22,181.44,86.18,197.31,464.93,Single-ply,SBD,M
Boys,67.13,DQ,Roy Ward,Waco Reicher Catholic,64.59,172.37,,,,Single-ply,SBD,M
Boys,74.84,1,Michael Fitzhugh,Waco Reicher Catholic,71.76,219.99,122.47,217.72,560.19,Single-ply,SBD,M
Boys,74.84,2,Chris Zavodny,Rogers,73.57,197.31,113.4,238.14,548.85,Single-ply,SBD,M
Boys,74.84,3,Brett Boles,McGregor,74.3,208.65,129.27,208.65,546.58,Single-ply,SBD,M
Boys,74.84,4,Da'Mario Victorian,Little River Academy,74.48,181.44,136.08,222.26,539.77,Single-ply,SBD,M
Boys,74.84,5,Marco Castro,Waco Reicher Catholic,73.12,213.19,108.86,204.12,526.17,Single-ply,SBD,M
Boys,74.84,6,Tristan Dudley,Rogers,74.39,197.31,129.27,195.04,521.63,Single-ply,SBD,M
Boys,82.1,7,Zachary Riola,Cameron Yoe,74.93,181.44,138.35,192.78,512.56,Single-ply,SBD,M
Boys,74.84,8,Jake Gravell,Bangs,74.84,199.58,127.01,183.7,510.29,Single-ply,SBD,M
Boys,74.84,DQ,Hector Martinez,Rogers,74.57,183.7,,,,Single-ply,SBD,M
Boys,74.84,DQ,Josh Robinson,Salado,74.12,195.04,140.61,,,Single-ply,SBD,M
Boys,82.1,1,Damian Kozak,Bremond,81.56,258.55,172.37,244.94,675.85,Single-ply,SBD,M
Boys,82.1,2,Marcos Cardenas,Jarrell,80.92,258.55,170.1,235.87,664.51,Single-ply,SBD,M
Boys,82.1,3,Tom Lawless,Rogers,79.83,240.4,140.61,231.33,612.35,Single-ply,SBD,M
Boys,82.1,4,John Lawless,Rogers,80.29,240.4,136.08,235.87,612.35,Single-ply,SBD,M
Boys,82.1,5,Alex O'Neill,Waco Reicher Catholic,82.01,226.8,154.22,231.33,612.35,Single-ply,SBD,M
Boys,82.1,6,Saul Lopez,Comanche,81.01,215.46,129.27,208.65,553.38,Single-ply,SBD,M
Boys,82.1,7,Brendon Cubit,Luling,80.1,197.31,120.2,204.12,521.63,Single-ply,SBD,M
Boys,89.81,8,Marco Vasquez,Riesel,82.28,195.04,131.54,195.04,521.63,Single-ply,SBD,M
Boys,82.1,9,Dylan Rosales,San Saba,81.92,192.78,117.93,195.04,505.76,Single-ply,SBD,M
Boys,82.1,DQ,David Cortes,Jarrell,81.74,,,,,Single-ply,SBD,M
Boys,82.1,DQ,Salvador Marquez,Comanche,81.37,204.12,127.01,,,Single-ply,SBD,M
Boys,89.81,1,Brody Jones,Crawford,86.18,267.62,154.22,229.06,650.91,Single-ply,SBD,M
Boys,89.81,2,Omar Cardoso,Waco Reicher Catholic,87.45,254.01,129.27,251.74,635.03,Single-ply,SBD,M
Boys,89.81,3,Josh Beckwith,Bangs,88.36,238.14,151.95,229.06,619.15,Single-ply,SBD,M
Boys,89.81,4,MarcJavion McGrew,Hearne,87.18,231.33,129.27,242.67,603.28,Single-ply,SBD,M
Boys,89.81,5,John Beebe,Lago Vista,89.27,206.38,120.2,254.01,580.6,Single-ply,SBD,M
Boys,89.81,6,Victor Mendoza,Hearne,87.63,208.65,127.01,208.65,544.31,Single-ply,SBD,M
Boys,89.81,7,Rudy Rodriguez,Dublin,84.64,201.85,124.74,201.85,528.44,Single-ply,SBD,M
Boys,89.81,8,Luis Villafranco,Salado,89.09,204.12,113.4,204.12,521.63,Single-ply,SBD,M
Boys,89.81,9,Isaiah Gardea,Clifton,88.99,195.04,129.27,190.51,514.83,Single-ply,SBD,M
Boys,89.81,10,Tanner Coone,Axtell,87.09,183.7,124.74,192.78,501.22,Single-ply,SBD,M
Boys,99.79,1,Jeff Stark,Troy,90.72,231.33,174.63,233.6,639.57,Single-ply,SBD,M
Boys,99.79,2,Josef Fowler,Rogers,96.43,235.87,163.29,235.87,635.03,Single-ply,SBD,M
Boys,99.79,3,Josh Freeman,Hubbard,96.43,249.48,156.49,219.99,625.96,Single-ply,SBD,M
Boys,99.79,4,Zyane Gumler,Tolar,93.8,242.67,117.93,260.82,621.42,Single-ply,SBD,M
Boys,99.79,5,Tyler Martinez,Axtell,90.36,235.87,133.81,238.14,607.81,Single-ply,SBD,M
Boys,99.79,6,Mason LeBlanc,Blanco,95.16,231.33,145.15,222.26,598.74,Single-ply,SBD,M
Boys,99.79,7,Brian Rogers,San Saba,99.61,201.85,147.42,226.8,576.06,Single-ply,SBD,M
Boys,99.79,8,Aaron Werlein,Luling,90.08,219.99,131.54,222.26,573.79,Single-ply,SBD,M
Boys,99.79,9,Aaron Platt,Tolar,94.71,215.46,140.61,195.04,551.11,Single-ply,SBD,M
Boys,99.79,10,Joseph Huffman,Rogers,96.07,192.78,122.47,226.8,542.04,Single-ply,SBD,M
Boys,109.77,1,Ej Waggy,Rogers,104.78,272.16,181.44,226.8,680.39,Single-ply,SBD,M
Boys,109.77,2,Shane Sibila,Clifton,108.05,274.42,147.42,247.21,669.05,Single-ply,SBD,M
Boys,109.77,3,Cutter Shaw,Waco Reicher Catholic,108.86,251.74,165.56,208.65,625.96,Single-ply,SBD,M
Boys,109.77,4,Jack Richison,Comfort,109.13,226.8,158.76,231.33,616.89,Single-ply,SBD,M
Boys,109.77,5,Michael McKinnerney,San Saba,105.6,219.99,136.08,244.94,601.01,Single-ply,SBD,M
Boys,109.77,6,Peyton Womack,Salado,104.78,254.01,120.2,219.99,594.21,Single-ply,SBD,M
Boys,124.74,7,Marc Hubbard,Comfort,109.86,213.19,124.74,235.87,573.79,Single-ply,SBD,M
Boys,109.77,8,Ace Rurak,Grandview,103.51,231.33,120.2,192.78,544.31,Single-ply,SBD,M
Boys,109.77,DQ,Collin McMillan,Little River Academy,106.78,244.94,156.49,,,Single-ply,SBD,M
Boys,109.77,DQ,Cameron Mueck,Cameron Yoe,106.14,181.44,127.01,,,Single-ply,SBD,M
Boys,124.74,1,Billy Golding,Salado,113.13,319.78,183.7,244.94,748.43,Single-ply,SBD,M
Boys,124.74,2,Trent Andrews,Bosqueville,124.38,283.5,145.15,263.08,691.73,Single-ply,SBD,M
Boys,124.74,3,Garrett Evans,Clifton,121.2,260.82,154.22,226.8,641.83,Single-ply,SBD,M
Boys,124.74,4,John Pineda,Troy,120.56,240.4,131.54,238.14,610.08,Single-ply,SBD,M
Boys,124.74,5,Carlton Hollister,Riesel,121.74,226.8,167.83,213.19,607.81,Single-ply,SBD,M
Boys,124.74,6,William Willis,Grandview,122.38,217.72,145.15,204.12,566.99,Single-ply,SBD,M
Boys,124.74,7,Art Kelley,Whitney,113.13,219.99,120.2,224.53,564.72,Single-ply,SBD,M
Boys,124.74,8,Jody Hodges,Salado,113.49,244.94,131.54,185.97,562.45,Single-ply,SBD,M
Boys,124.74,9,Hunter Goodman,Blanco,123.29,249.48,113.4,199.58,562.45,Single-ply,SBD,M
Boys,124.74,DQ,Michael Williams,Dublin,122.65,,,,,Single-ply,SBD,M
Boys,124.74+,1,Diego Montoya,San Saba,133.9,312.98,185.97,317.51,816.47,Single-ply,SBD,M
Boys,124.74+,2,Brian Cain,Thrall,164.84,340.19,201.85,274.42,816.47,Single-ply,SBD,M
Boys,124.74+,3,Jessie Wilson,Whitney,144.88,290.3,192.78,272.16,755.23,Single-ply,SBD,M
Boys,124.74+,4,Dontae Green,Luling,156.22,219.99,129.27,226.8,576.06,Single-ply,SBD,M
Boys,124.74+,5,Jordan Allen,Clifton,136.71,233.6,136.08,188.24,557.92,Single-ply,SBD,M
Boys,124.74+,6,Weldon Edwards,Early,147.51,233.6,111.13,204.12,548.85,Single-ply,SBD,M
Boys,124.74+,7,Brice Otto,Luling,130.09,226.8,129.27,174.63,530.7,Single-ply,SBD,M
Boys,124.74+,8,Brian Swift,Luling,125.65,210.92,117.93,190.51,519.36,Single-ply,SBD,M
Boys,124.74+,9,Zach Moore,Comfort,135.81,213.19,90.72,181.44,485.34,Single-ply,SBD,M
Boys,124.74+,10,Bucky McDaniel,Early,128.82,204.12,92.99,181.44,478.54,Single-ply,SBD,M
Boys,124.74+,DQ,Grayson Eaton,Little River Academy,162.2,,,,,Single-ply,SBD,M
