Division,WeightClassKg,Place,Name,Team,BodyweightKg,Best3SquatKg,Best3BenchKg,Best3DeadliftKg,TotalKg,Equipment,Event,Sex
Boys,55.79,1,Raul Rodriguez,Diboll,54.88,138.35,72.57,113.4,324.32,Single-ply,SBD,M
Boys,59.87,1,Eric Valdez,Diboll,59.87,140.61,72.57,108.86,322.05,Single-ply,SBD,M
Boys,67.13,1,Hunter Mayes,Huntington,66.22,149.69,92.99,167.83,410.5,Single-ply,SBD,M
Boys,67.13,2,Jakrihyon Whitaker,Nacogdoches,62.14,138.35,79.38,149.69,367.41,Single-ply,SBD,M
Boys,67.13,3,Daniel White,Huntington,66.68,124.74,90.72,147.42,362.87,Single-ply,SBD,M
Boys,67.13,4,Akira Montgomery,Diboll,65.32,142.88,70.31,127.01,340.19,Single-ply,SBD,M
Boys,67.13,5,Pedro Bahena,San Augustine,67.13,129.27,68.04,127.01,324.32,Single-ply,SBD,M
Boys,67.13,6,Braydon Williams,Chireno,62.6,92.99,61.23,156.49,310.71,Single-ply,SBD,M
Boys,67.13,7,Blake Brown,Huntington,63.5,,65.77,127.01,192.78,Single-ply,BD,M
Boys,74.84,1,Oscar Molina,Chireno,70.31,183.7,106.59,224.53,514.83,Single-ply,SBD,M
Boys,74.84,2,Victor Ayala,Diboll,74.84,181.44,102.06,174.63,458.13,Single-ply,SBD,M
Boys,74.84,3,Chase Tamez,Diboll,72.57,158.76,104.33,170.1,433.18,Single-ply,SBD,M
Boys,74.84,4,Julian Acevaedo,Diboll,74.39,151.95,99.79,163.29,415.04,Single-ply,SBD,M
Boys,74.84,5,Andrew Quick,Huntington,73.94,122.47,77.11,167.83,367.41,Single-ply,SBD,M
Boys,74.84,6,Hugo Cepeda,Diboll,74.84,145.15,,142.88,288.03,Single-ply,SD,M
Boys,82.1,1,Brady Jordan,Diboll,81.65,210.92,120.2,217.72,548.85,Single-ply,SBD,M
Boys,82.1,2,Tyveon Williams,Diboll,78.47,183.7,95.25,179.17,458.13,Single-ply,SBD,M
Boys,82.1,3,Glenn Young,Nacogdoches,81.19,176.9,83.91,188.24,449.06,Single-ply,SBD,M
Boys,82.1,4,Isaac Concha,Diboll,81.65,165.56,97.52,167.83,430.91,Single-ply,SBD,M
Boys,82.1,5,Keshawn Holmes,Nacogdoches,78.47,142.88,77.11,183.7,403.7,Single-ply,SBD,M
Boys,82.1,6,Peyton Goodwin,Chireno,79.83,138.35,102.06,158.76,399.16,Single-ply,SBD,M
Boys,82.1,7,Jackson Warden,Lufkin,80.74,136.08,81.65,163.29,381.02,Single-ply,SBD,M
Boys,89.81,1,Cole Seaman,Diboll,86.18,215.46,131.54,195.04,542.04,Single-ply,SBD,M
Boys,89.81,2,Christian Arthur,Lufkin,85.28,195.04,117.93,222.26,535.24,Single-ply,SBD,M
Boys,89.81,3,Keshawn Clark,Lufkin,87.09,199.58,99.79,217.72,517.1,Single-ply,SBD,M
Boys,89.81,4,Jamarcus Ingram,Lufkin,88.9,185.97,92.99,215.46,494.42,Single-ply,SBD,M
Boys,89.81,5,John Dee Johnson,Huntington,82.55,176.9,74.84,170.1,421.84,Single-ply,SBD,M
Boys,89.81,6,Carlos Acosta,San Augustine,89.81,147.42,97.52,170.1,415.04,Single-ply,SBD,M
Boys,89.81,7,Trenton Hamilton,Diboll,86.64,136.08,102.06,142.88,381.02,Single-ply,SBD,M
Boys,89.81,8,Ugur Ensahin,Huntington,88.9,90.72,56.7,120.2,267.62,Single-ply,SBD,M
Boys,99.79,1,Justin Patton,Lufkin,99.34,233.6,124.74,226.8,585.13,Single-ply,SBD,M
Boys,99.79,2,Quay Burleigh,Nacogdoches,99.34,222.26,129.27,217.72,569.26,Single-ply,SBD,M
Boys,99.79,3,Hayden McLeroy,Diboll,96.16,222.26,124.74,217.72,564.72,Single-ply,SBD,M
Boys,99.79,4,Kayson Elijah,Lufkin,99.79,176.9,131.54,210.92,519.36,Single-ply,SBD,M
Boys,99.79,5,Noah Ross,Huntington,99.79,185.97,92.99,208.65,487.61,Single-ply,SBD,M
Boys,99.79,6,Wilburn Smallwood,Lufkin,99.79,158.76,97.52,201.85,458.13,Single-ply,SBD,M
Boys,99.79,7,Aiden Henson,Huntington,96.16,138.35,102.06,163.29,403.7,Single-ply,SBD,M
Boys,99.79,8,Trevor Adams,Huntington,92.08,158.76,72.57,138.35,369.68,Single-ply,SBD,M
Boys,99.79,9,Adron Capps,Huntington,98.88,124.74,79.38,163.29,367.41,Single-ply,SBD,M
Boys,109.77,1,Hezekiah Freeman,Diboll,106.59,183.7,142.88,192.78,519.36,Single-ply,SBD,M
Boys,109.77,2,Devin Luker,Huntington,100.7,188.24,102.06,192.78,483.08,Single-ply,SBD,M
Boys,109.77,3,Billy Leverett,Diboll,109.77,185.97,106.59,183.7,476.27,Single-ply,SBD,M
Boys,124.74,1,Zykee Allen,Lufkin,121.56,226.8,151.95,260.82,639.57,Single-ply,SBD,M
Boys,124.74,2,Mike Jones,Nacogdoches,113.4,229.06,129.27,192.78,551.11,Single-ply,SBD,M
Boys,124.74,3,Ricardo Harrison,Diboll,124.74,188.24,117.93,195.04,501.22,Single-ply,SBD,M
Boys,124.74,4,Dan'o Garcia,Nacogdoches,114.76,197.31,106.59,192.78,496.68,Single-ply,SBD,M
Boys,124.74,4,Jacob Henson,Nacogdoches,122.47,181.44,115.67,208.65,505.76,Single-ply,SBD,M
Boys,124.74,5,Zhadestian Griffin,Lufkin,119.75,181.44,104.33,204.12,489.88,Single-ply,SBD,M
Boys,124.74,6,Nash Jones,Nacogdoches,117.93,185.97,111.13,190.51,487.61,Single-ply,SBD,M
Boys,124.74,7,Desmond Watts,San Augustine,122.02,183.7,104.33,188.24,476.27,Single-ply,SBD,M
Boys,124.74,8,Kristian Mireles,Diboll,113.4,181.44,104.33,179.17,464.93,Single-ply,SBD,M
Boys,124.74,9,Kaleb Douglass,Nacogdoches,120.66,176.9,86.18,174.63,437.72,Single-ply,SBD,M
Boys,124.74,10,Josiah Smith,Nacogdoches,119.29,174.63,102.06,158.76,435.45,Single-ply,SBD,M
Boys,124.74,11,Hayden Sampley,Huntington,121.56,151.95,70.31,163.29,385.55,Single-ply,SBD,M
Boys,124.74+,1,Carl Williams,Lufkin,160.57,272.16,174.63,294.84,741.62,Single-ply,SBD,M
Boys,124.74+,2,Jordan Payne,Huntington,147.42,249.48,115.67,213.19,578.33,Single-ply,SBD,M
Boys,124.74+,3,Seth Stephens,San Augustine,154.67,208.65,122.47,183.7,514.83,Single-ply,SBD,M
Boys,124.74+,5,Alex Pruitt,Lufkin,136.08,170.1,108.86,213.19,492.15,Single-ply,SBD,M
Boys,124.74+,6,Eulalio Carranza,San Augustine,126.1,192.78,88.45,192.78,474,Single-ply,SBD,M
Boys,,NS,David Hargrove,San Augustine,,,,,,Single-ply,SBD,M
Boys,,NS,Mikeal Garrett,Huntington,,,,,,Single-ply,SBD,M
Boys,,NS,Garrett Basey,Huntington,,,,,,Single-ply,SBD,M
