Division,WeightClassKg,Place,Name,Team,BodyweightKg,Best3SquatKg,Best3BenchKg,Best3DeadliftKg,TotalKg,Equipment,Event,Sex
Boys,59.87,1,Sawyer Yandell,NATALIA,55.97,167.83,74.84,158.76,401.43,Single-ply,SBD,M
Boys,55.79,2,Juan Chapa,San Antonio Southside,54.52,122.47,86.18,133.81,342.46,Single-ply,SBD,M
Boys,55.79,3,Mark Livesay,Floresville,54.34,129.27,65.77,138.35,333.39,Single-ply,SBD,M
Boys,55.79,4,Chaz Graham,Lytle,53.25,97.52,52.16,124.74,274.42,Single-ply,SBD,M
Boys,59.87,1,Mario Cano,Pleasanton,59.87,124.74,74.84,149.69,349.27,Single-ply,SBD,M
Boys,59.87,2,Jeffrey Johnson,Seguin,58.79,108.86,77.11,136.08,322.05,Single-ply,SBD,M
Boys,59.87,3,Nathan Medrano,Lytle,59.78,113.4,72.57,131.54,317.51,Single-ply,SBD,M
Boys,59.87,4,Miguel Rivera,Universal City Randolph,59.69,111.13,61.23,136.08,308.44,Single-ply,SBD,M
Boys,59.87,5,Joseph Soria,Lytle,59.42,113.4,65.77,120.2,299.37,Single-ply,SBD,M
Boys,59.87,6,Xavier Huerta,Lytle,56.06,92.99,47.63,97.52,238.14,Single-ply,SBD,M
Boys,59.87,DQ,Nathan Pringle,Lytle,58.42,,,,,Single-ply,SBD,M
Boys,67.13,1,Taylor Carrillo,Lytle,66.04,129.27,88.45,172.37,390.09,Single-ply,SBD,M
Boys,67.13,2,Adrian Valdez,Lytle,63.23,117.93,95.25,140.61,353.8,Single-ply,SBD,M
Boys,67.13,3,Tyler Gould,Pleasanton,62.69,136.08,70.31,138.35,344.73,Single-ply,SBD,M
Boys,67.13,4,Jacob Jones,Universal City Randolph,65.05,113.4,70.31,117.93,301.64,Single-ply,SBD,M
Boys,67.13,5,Patrick Couvillion,Universal City Randolph,63.05,113.4,61.23,111.13,285.76,Single-ply,SBD,M
Boys,67.13,DQ,Jj Aguinaga,Lytle,67.13,,,,,Single-ply,SBD,M
Boys,74.84,1,Travis Morales,Floresville,71.85,206.38,106.59,197.31,510.29,Single-ply,SBD,M
Boys,74.84,2,Luis Sanchez,Seguin,73.84,181.44,111.13,206.38,498.95,Single-ply,SBD,M
Boys,74.84,3,Gilbert Perez,Floresville,74.75,195.04,104.33,199.58,498.95,Single-ply,SBD,M
Boys,74.84,4,Austin Gonzales,San Antonio Southside,72.21,170.1,111.13,174.63,455.86,Single-ply,SBD,M
Boys,74.84,5,Dylan Aguinaga,Lytle,74.12,142.88,86.18,176.9,405.97,Single-ply,SBD,M
Boys,74.84,6,Miguel Cano,Pleasanton,73.66,149.69,90.72,158.76,399.16,Single-ply,SBD,M
Boys,74.84,7,Kevin Avila,Lytle,69.4,145.15,74.84,163.29,383.29,Single-ply,SBD,M
Boys,74.84,8,Alonzo Barclift,Universal City Randolph,70.31,129.27,86.18,149.69,365.14,Single-ply,SBD,M
Boys,74.84,DQ,Orlando Medrano,Lytle,74.75,140.61,,,,Single-ply,SBD,M
Boys,74.84,DQ,Terrance Salazar,Pleasanton,74.84,,,,,Single-ply,SBD,M
Boys,82.1,1,Daniel Lee-Heneke,San Antonio Southside,81.28,226.8,138.35,210.92,576.06,Single-ply,SBD,M
Boys,82.1,2,Rueben Hinojosa,Lytle,78.83,206.38,122.47,226.8,555.65,Single-ply,SBD,M
Boys,82.1,3,Javier Garcia,Seguin,82.01,181.44,113.4,208.65,503.49,Single-ply,SBD,M
Boys,82.1,4,John Hernandez,San Antonio Southside,78.93,183.7,102.06,204.12,489.88,Single-ply,SBD,M
Boys,82.1,5,Carlos Zepeda,Seguin,79.11,174.63,120.2,183.7,478.54,Single-ply,SBD,M
Boys,82.1,6,Jake Martinez,Lytle,78.93,161.03,102.06,195.04,458.13,Single-ply,SBD,M
Boys,82.1,7,Brennan Poole,Universal City Randolph,81.01,136.08,70.31,149.69,356.07,Single-ply,SBD,M
Boys,82.1,8,Brian Gutierrez Gutierrez,Lytle,81.74,113.4,63.5,145.15,322.05,Single-ply,SBD,M
Boys,89.81,1,Richard Pena,San Antonio Southside,88.72,242.67,181.44,215.46,639.57,Single-ply,SBD,M
Boys,89.81,2,Carlos Carrillo,Lytle,87.36,208.65,131.54,215.46,555.65,Single-ply,SBD,M
Boys,89.81,3,Jacob Almaguer,Seguin,89.72,208.65,120.2,204.12,532.97,Single-ply,SBD,M
Boys,89.81,4,Adolph Lopez,San Antonio Southside,88.18,179.17,117.93,188.24,485.34,Single-ply,SBD,M
Boys,89.81,5,Thomas Trevino,Pleasanton,83.46,181.44,92.99,170.1,444.52,Single-ply,SBD,M
Boys,89.81,6,Micah Jones,Universal City Randolph,88.99,149.69,97.52,181.44,428.64,Single-ply,SBD,M
Boys,89.81,7,Lance Huerta,NATALIA,86.91,133.81,77.11,147.42,358.34,Single-ply,SBD,M
Boys,89.81,DQ,Ryan Farrell,Universal City Randolph,83.28,158.76,102.06,,,Single-ply,SBD,M
Boys,99.79,1,Nick Ringler,Universal City Randolph,97.7,174.63,108.86,181.44,464.93,Single-ply,SBD,M
Boys,99.79,2,Sam Jones,Universal City Randolph,91.17,170.1,74.84,190.51,435.45,Single-ply,SBD,M
Boys,99.79,3,Joshua Macat,Lytle,99.7,133.81,77.11,154.22,365.14,Single-ply,SBD,M
Boys,99.79,DQ,William Riechel,Lytle,99.79,,,,,Single-ply,SBD,M
Boys,99.79,DQ,Rene Martinez,San Antonio Southside,99.79,,,,,Single-ply,SBD,M
Boys,99.79,DQ,Jason Van Epps,Pleasanton,99.61,185.97,90.72,,,Single-ply,SBD,M
Boys,109.77,1,Pj Hall,Seguin,108.86,254.01,149.69,251.74,655.44,Single-ply,SBD,M
Boys,109.77,2,Alexander Trevino,Floresville,107.86,215.46,124.74,219.99,560.19,Single-ply,SBD,M
Boys,109.77,3,Rivonte Chizer,Seguin,108.59,192.78,142.88,181.44,517.1,Single-ply,SBD,M
Boys,109.77,4,D'Antre Smith,Seguin,109.23,158.76,120.2,154.22,433.18,Single-ply,SBD,M
Boys,109.77,5,Jose Alaniz,NATALIA,109.13,149.69,79.38,161.03,390.09,Single-ply,SBD,M
Boys,109.77,6,Tyler Blanke,Universal City Randolph,100.52,102.06,52.16,99.79,254.01,Single-ply,SBD,M
Boys,109.77,DQ,Josh Vasquez,Floresville,109.77,,,,,Single-ply,SBD,M
Boys,124.74,1,Jon Macat,Lytle,111.77,210.92,124.74,215.46,551.11,Single-ply,SBD,M
Boys,124.74,2,Raul Loza,NATALIA,122.47,226.8,124.74,192.78,544.31,Single-ply,SBD,M
Boys,124.74,DQ,Brian Bowman,Northside OConnor,118.21,,,,,Single-ply,SBD,M
Boys,124.74,DQ,Benny Ximenez,Floresville,117.84,251.74,151.95,,,Single-ply,SBD,M
Boys,124.74,DQ,Hunter Ullrich,Seguin,112.04,215.46,,,,Single-ply,SBD,M
Boys,124.74+,1,Johnathan Saldana,Floresville,141.7,328.85,174.63,272.16,775.64,Single-ply,SBD,M
Boys,124.74+,2,Michael Reyes,Natalia,142.16,299.37,142.88,240.4,682.66,Single-ply,SBD,M
Boys,124.74+,3,Jesus Angel,Pleasanton,134.54,183.7,113.4,199.58,496.68,Single-ply,SBD,M
Boys,124.74+,DQ,Jesse Flores,Pleasanton,136.08,,,,,Single-ply,SBD,M
