﻿21.09.2018;GPC World Championship - EQ Deadlift-Kg Results;;;;;;;;;;;;;
Name;Age;Div;BWt (Kg);WtCls (Kg);Reshel;Deadlift 1;Deadlift 2;Deadlift 3;Deadlift 4;Best Deadlift;Coeff Score;Age  & Coeff;Pl-Div-WtCl;Team
MCNAMARA  Angela;45;FM2;80,7;82,5;1,4904;70;0;0;;70;104,328;110,06604;1-FM2-82,5;IRELAND
MANIAR Remana;43;FM1;67,4;67,5;1,6406;160;181;185;;185;303,511;312,919841;1-FM1-67,5;IRELAND
ONEIL Jennifer Joy;43;FM1;73,5;75;1,561;200;-205;-210;;200;312,2;321,8782;1-FM1-75;IRELAND
BAZSÓ Mónika;44;FM1;73,1;75;1,5658;185;195;-203;;195;305,331;318,460233;2-FM1-75;HUNGARY
SILVA Grazielle;36;FO;59,5;60;1,795;175;185;195;200;195;350,025;350,025;1-FO-60;BRASIL
TOBIN HOGAN Ellen;24;FO;60,9;67,5;1,7596;70;100;120;;120;211,152;211,152;1-FO-67,5;IRELAND
FICEKOVA Rebeka;17;FT2;71,3;75;1,5884;100;120;130;140;130;206,492;223,01136;1-FT2-75;SLOVAK Republic
RUBIN Grigori;82;MM9;76,1;82,5;1,1018;155;160;165;;165;181,797;372,68385;1-MM9-82,5;ISRAEL
TOMANEC Jaroslav;75;MM8;81,7;82,5;1,0366;145;150;155;;155;160,673;294,834955;1-MM8-82,5;CZECH Republic
KISS Ladislau;70;MM7;98,1;100;0,9226;240;262,5;275;280;275;253,715;417,361175;1-MM7-100;HUNGARY
STEFFEN Burkhard;68;MM6;70,4;75;1,1876;110;120;0;;120;142,512;224,598912;1-MM6-75;GERMANY
SCHULZE Lothar;68;MM6;81,8;82,5;1,0356;140;150;160;;160;165,696;261,136896;1-MM6-82,5;GERMANY
THOMAS David Rex;67;MM6;112,1;125;0,879;170;0;0;;170;149,43;230,57049;1-MM6-125;GREAT-BRITAIN
MIECZYSLAW Maczka;64;MM5;81,3;82,5;1,0406;110;125;0;;125;130,075;188,60875;1-MM5-82,5;GERMANY
MALINA Pavel;58;MM4;61,8;67,5;1,3696;160;175;0;;175;239,68;309,42688;1-MM4-67,5;CZECH Republic
BRECKA Karol;57;MM4;77,9;82,5;1,0792;200;-220;220;;220;237,424;301,053632;1-MM4-82,5;CZECH Republic
MARSHALL Lee;59;MM4;117;125;0,869;280;290;300;-330,5;300;260,7;342,8205;1-MM4-125;GREAT-BRITAIN
ROMANICHEV Alexander;54;MM3;55,8;56;1,6026;200;210;221;;221;354,1746;426,4262184;1-MM3-56;ISRAEL
MADEIRA André;52;MM3;80,3;82,5;1,0504;180;190;-195;;190;199,576;232,50604;1-MM3-82,5;BRASIL
SIMON Csaba;50;MM3;84,6;90;1,0098;-230;230;250;;250;252,45;285,2685;1-MM3-90;HUNGARY
PARDO Favio;50;MM3;94,9;100;0,9374;200;215;230;;230;215,602;243,63026;1-MM3-100;ARGENTINA
MANZERA Tibor;50;MM3;99,9;100;0,9154;150;180;-227,5;;180;164,772;186,19236;2-MM3-100;HUNGARY
TOMILOV Valery;53;MM3;102,1;110;0,9076;245;262,5;-275;;262,5;238,245;282,08208;1-MM3-110;ISRAEL
CAMPOS Carlos Gerardo;52;MM3;112,9;125;0,8774;180;200;0;;200;175,48;204,4342;1-MM3-125;ARGENTINA
BOULTON Gary;54;MM3;132,4;140;0,8484;305;-317,5;0;;305;258,762;311,549448;1-MM3-140;GREAT-BRITAIN
HART Brian;49;MM2;74,3;75;1,1272;160;180;190;200;190;214,168;238,368984;1-MM2-75;IRELAND
MILIJA Antic;48;MM2;89,9;90;0,9694;150;0;0;;150;145,41;159,51477;1-MM2-90;SERBIA
BENCHABANE Fabrice;47;MM2;95,7;100;0,9332;250;257,5;262,5;;262,5;244,965;265,05213;1-MM2-100;FRANCE
HAMPTON Steven;49;MM2;113,5;125;0,876;235;250;-260;;250;219;243,747;1-MM2-125;NEW-ZEALAND
BAR Eric;49;MM2;115,7;125;0,8712;-250;250;-255;;250;217,8;242,4114;2-MM2-125;FRANCE
MARCHANT Brian;42;MM1;89,8;90;0,9698;245;-255;-255;;245;237,601;242,35302;1-MM1-90;AUSTRALIA
ECK László;40;MM1;86,4;90;0,9948;230;240;-247,5;;240;238,752;238,752;2-MM1-90;HUNGARY
MARTINEZ Marcos;43;MM1;99;100;0,919;280;305;-326;;305;280,295;288,984145;1-MM1-100;ARGENTINA
MOLNÁR Tamás;43;MM1;102,7;110;0,9052;300;312,5;-322,5;;312,5;282,875;291,644125;1-MM1-110;HUNGARY
USTINOV Yuriy;43;MM1;104,4;110;0,8994;240;250;260;;260;233,844;241,093164;2-MM1-110;RUSSIA
HABLICSEK Norbert;44;MM1;110,7;125;0,883;280;300;320,5;-333;320,5;283,0015;295,1705645;1-MM1-125;HUNGARY
TRSTENSKY Lubomir;43;MM1;113,3;125;0,876;225;235;0;;235;205,86;212,24166;2-MM1-125;SLOVAK Republic
IHALAINEN Jani;43;MM1;125,2;140;0,8572;205;240;272,5;;272,5;233,587;240,828197;1-MM1-140;FINLAND
KANÁK Filip;25;MO;65,5;67,5;1,279;170;-190;190;;190;243,01;243,01;1-MO-67,5;CZECH Republic
KELLY Ben;38;MO;82,3;82,5;1,0306;255;267,5;272,5;-286;272,5;280,8385;280,8385;1-MO-82,5;IRELAND
NASKALI Ilkka;35;MO;89,6;90;0,9712;240;-265;-265;;240;233,088;233,088;1-MO-90;FINLAND
ECK Ernő ifj;24;MO;87,8;90;0,9846;220;230;-240;;230;226,458;226,458;2-MO-90;HUNGARY
ROZNOWSKI Edward;67;MO;89,2;90;0,9744;175;205;-240;;205;199,752;308,217336;3-MO-90;POLAND
KORPEINEN Mikko;38;MO;98,2;100;0,9222;300;320;-330;;320;295,104;295,104;1-MO-100;FINLAND
DARREN Bennett;34;MO;99,8;100;0,9158;280;-302,5;-302,5;;280;256,424;256,424;2-MO-100;IRELAND
ERDEI Mihály;24;MO;98,6;100;0,9206;240;252,5;0;;252,5;232,4515;232,4515;3-MO-100;HUNGARY
MANSILLA Emilio;34;MO;110;110;0,885;285;-300;0;;285;252,225;252,225;1-MO-110;ARGENTINA
HALLBERG Peter;31;MO;121,8;125;0,861;270;285;302,5;;302,5;260,4525;260,4525;1-MO-125;SWEDEN
PINTÉR Peter;33;MO;115,8;125;0,871;300;-315;-330;;300;261,3;261,3;2-MO-125;SLOVAK Republic
HUNT Will;31;MO;123,9;125;0,859;260;280;-295;;280;240,52;240,52;3-MO-125;AUSTRALIA
CAIRNEY Andrew;39;MO;128,7;140;0,853;320;330;-340;;330;281,49;281,49;1-MO-140;GREAT-BRITAIN
HABLICSEK Huba;20;MJ;58,2;60;1,4898;155;165;-175;-180;165;245,817;253,19151;1-MJ-60;HUNGARY
BAR Jonathan;22;MJ;62,3;67,5;1,3556;160;167,5;-172,5;;167,5;227,063;229,33363;1-MJ-67,5;FRANCE
RUDY Marko;22;MJ;73,5;75;1,139;220;232,5;235;-240;235;267,665;270,34165;1-MJ-75;SLOVAK Republic
WATSON Remus;20;MJ;71,1;75;1,1764;185;-197,5;197,5;;197,5;232,339;239,30917;2-MJ-75;AUSTRALIA
SANCHEZ Federico;22;MJ;82;82,5;1,034;200;225;241;247,5;241;249,194;251,68594;1-MJ-82,5;ARGENTINA
MEZŐ Áron;21;MJ;88,4;90;0,9798;240;-250;-250;;240;235,152;239,85504;1-MJ-90;HUNGARY
MCNAMARA Martin;23;MJ;87,5;90;0,987;205;220;-242,5;;220;217,14;217,14;2-MJ-90;IRELAND
HOUGH Sean;21;MJ;102,3;110;0,9068;240;260;275;;275;249,37;254,3574;1-MJ-110;IRELAND
KASPER Jan;19;MT3;82,4;82,5;1,0298;210;230;240;;240;247,152;257,03808;1-MT3-82,5;CZECH Republic
BAR Jason;16;MT2;55,9;56;1,5978;90;97,5;-102,5;;97,5;155,7855;176,037615;1-MT2-56;FRANCE
KIRÁLY Gábor;16;MT2;106;110;0,895;230;0;0;;230;205,85;232,6105;1-MT2-110;HUNGARY