Division,WeightClassKg,Place,Name,Team,BodyweightKg,Best3SquatKg,Best3BenchKg,Best3DeadliftKg,TotalKg,Equipment,Event,Sex
Boys,55.79,1,Ricardo Villafana,Splendora,51.89,136.08,81.65,142.88,360.61,Single-ply,SBD,M
Boys,51.71,2,Santos Gallegos,Woodville,51.3,102.06,61.23,115.67,278.96,Single-ply,SBD,M
Boys,51.71,3,Clayton Coogler,Shepherd,49.44,92.99,56.7,102.06,251.74,Single-ply,SBD,M
Boys,59.87,1,Chase Watson,Shepherd,55.97,129.27,74.84,131.54,335.66,Single-ply,SBD,M
Boys,55.79,2,Jordan White,Willis,55.66,113.4,65.77,90.72,269.89,Single-ply,SBD,M
Boys,55.79,DQ,Nathan Erickson,Splendora,52.93,,,,,Single-ply,SBD,M
Boys,55.79,DQ,Maverick Gurka,New Caney,53.71,63.5,,,,Single-ply,SBD,M
Boys,67.13,1,Ryan Collette,Huffman Hargrave,60.1,138.35,92.99,156.49,387.82,Single-ply,SBD,M
Boys,59.87,2,Connor Orozco,Huffman Hargrave,59.19,124.74,70.31,115.67,310.71,Single-ply,SBD,M
Boys,67.13,3,Zac Jenkins,Shepherd,59.92,120.2,61.23,120.2,301.64,Single-ply,SBD,M
Boys,59.87,4,Tyler Bond,New Caney,57.74,54.43,61.23,104.33,219.99,Single-ply,SBD,M
Boys,67.13,1,Cameron Moody,Shepherd,61.87,185.97,106.59,210.92,503.49,Single-ply,SBD,M
Boys,67.13,2,Brandon Coon,Conroe Caney Creek,64.77,195.04,97.52,201.85,494.42,Single-ply,SBD,M
Boys,74.84,3,Cesar Marroquin,Huffman Hargrave,67.36,190.51,120.2,183.7,494.42,Single-ply,SBD,M
Boys,67.13,4,Lucas Erickson,Splendora,66.68,163.29,115.67,190.51,469.47,Single-ply,SBD,M
Boys,67.13,5,Javier Vela,Shepherd,66.68,174.63,102.06,183.7,460.4,Single-ply,SBD,M
Boys,67.13,6,Kordell Park,San Augustine,64.14,154.22,88.45,174.63,417.3,Single-ply,SBD,M
Boys,67.13,7,Nick Werner,Conroe Caney Creek,67.09,142.88,102.06,170.1,415.04,Single-ply,SBD,M
Boys,67.13,8,Devin Kelly,Huffman Hargrave,66.45,138.35,86.18,129.27,353.8,Single-ply,SBD,M
Boys,67.13,9,Troy Cook,Dayton,65.14,127.01,74.84,145.15,347,Single-ply,SBD,M
Boys,67.13,10,Wyatt Tumlinson,Shepherd,63.64,111.13,70.31,142.88,324.32,Single-ply,SBD,M
Boys,67.13,11,Rodney Winford,Beaumont Ozen,66.59,97.52,74.84,138.35,310.71,Single-ply,SBD,M
Boys,67.13,12,Hunter Marino,Huntsville,66.95,113.4,68.04,117.93,299.37,Single-ply,SBD,M
Boys,74.84,13,Barrentine Clayton,Huffman Hargrave,67.27,108.86,65.77,122.47,297.1,Single-ply,SBD,M
Boys,67.13,14,Corbin Marino,Huntsville,64.14,106.59,68.04,117.93,292.57,Single-ply,SBD,M
Boys,67.13,15,Kalen Redmon,Beaumont Ozen,66.54,102.06,65.77,120.2,288.03,Single-ply,SBD,M
Boys,74.84,DQ,Cayden Whigham,Huffman Hargrave,67.36,,,,,Single-ply,SBD,M
Boys,74.84,DQ,Chance Price,New Caney Porter,67.36,,,,,Single-ply,SBD,M
Boys,67.13,DQ,Trent Taylor,Shepherd,66.32,,,,,Single-ply,SBD,M
Boys,67.13,DQ,William Mattison,Conroe Caney Creek,66.13,104.33,,,,Single-ply,SBD,M
Boys,74.84,1,Asa Spade,Splendora,70.94,185.97,102.06,163.29,451.32,Single-ply,SBD,M
Boys,74.84,2,Matthew Wagner,Woodville,69.26,183.7,79.38,170.1,433.18,Single-ply,SBD,M
Boys,74.84,3,Tim Clay,New Caney Porter,73.94,151.95,92.99,165.56,410.5,Single-ply,SBD,M
Boys,74.84,4,Alex Palacios,Conroe Caney Creek,69.04,142.88,102.06,154.22,399.16,Single-ply,SBD,M
Boys,74.84,5,Austin Blake,Splendora,68.49,142.88,99.79,154.22,396.89,Single-ply,SBD,M
Boys,74.84,6,Brandon Cheves,Shepherd,68.08,163.29,88.45,142.88,394.63,Single-ply,SBD,M
Boys,74.84,7,Taylor DeLong,Dayton,69.08,147.42,83.91,158.76,390.09,Single-ply,SBD,M
Boys,74.84,8,Sal Pruneda,Dayton,68.27,138.35,83.91,165.56,387.82,Single-ply,SBD,M
Boys,74.84,9,Fabian McCall,Huntsville,71.8,127.01,97.52,163.29,387.82,Single-ply,SBD,M
Boys,82.1,10,Michael Morris,Splendora,75.02,117.93,92.99,151.95,362.87,Single-ply,SBD,M
Boys,74.84,11,Trevor West,Beaumont Ozen,73.35,102.06,61.23,136.08,299.37,Single-ply,SBD,M
Boys,74.84,12,Clayton Bailey,Willis,72.67,88.45,61.23,124.74,274.42,Single-ply,SBD,M
Boys,74.84,DQ,Gavin Stowe,Splendora,73.26,147.42,,,,Single-ply,SBD,M
Boys,74.84,DQ,Romeo Medrano,Dayton,71.71,145.15,,,,Single-ply,SBD,M
Boys,82.1,1,Alex Holsinger,Conroe Caney Creek,79.65,222.26,142.88,217.72,582.87,Single-ply,SBD,M
Boys,82.1,2,Cer'Charvie Berry,San Augustine,79.83,204.12,127.01,222.26,553.38,Single-ply,SBD,M
Boys,82.1,3,Shaq Long,Dayton,81.83,195.04,113.4,235.87,544.31,Single-ply,SBD,M
Boys,82.1,4,Chris Narcisse,Beaumont Ozen,79.79,199.58,138.35,183.7,521.63,Single-ply,SBD,M
Boys,82.1,5,T. Berry,San Augustine,81.24,201.85,124.74,188.24,514.83,Single-ply,SBD,M
Boys,89.81,6,Donivan Orozco,Huffman Hargrave,82.24,192.78,131.54,185.97,510.29,Single-ply,SBD,M
Boys,82.1,7,Broch Saxton,New Waverly,77.07,181.44,129.27,195.04,505.76,Single-ply,SBD,M
Boys,82.1,8,Antonio Moye,Shepherd,81.56,190.51,124.74,190.51,505.76,Single-ply,SBD,M
Boys,82.1,9,Austin Fry,Huffman Hargrave,78.97,179.17,124.74,183.7,487.61,Single-ply,SBD,M
Boys,82.1,10,Armando Cuevas,New Caney Porter,78.2,170.1,120.2,181.44,471.74,Single-ply,SBD,M
Boys,82.1,11,Taylor Hall,Dayton,81.65,158.76,124.74,165.56,449.06,Single-ply,SBD,M
Boys,82.1,12,Angel Huerta,New Caney,81.69,170.1,120.2,158.76,449.06,Single-ply,SBD,M
Boys,89.81,13,Melvin Walker,Huntsville,82.28,172.37,99.79,172.37,444.52,Single-ply,SBD,M
Boys,89.81,14,Christian Reza,Beaumont Ozen,82.28,158.76,102.06,183.7,444.52,Single-ply,SBD,M
Boys,82.1,15,Sterling Winzor,Beaumont Ozen,79.02,142.88,108.86,183.7,435.45,Single-ply,SBD,M
Boys,82.1,16,Joseph Leblanc,Shepherd,78.47,170.1,92.99,170.1,433.18,Single-ply,SBD,M
Boys,89.81,17,Jaxen Halbadier,Willis,82.19,163.29,95.25,158.76,417.3,Single-ply,SBD,M
Boys,82.1,18,Casey Warren,Huffman Hargrave,76.07,151.95,95.25,156.49,403.7,Single-ply,SBD,M
Boys,82.1,19,Trevon Marcrum,Dayton,76.29,154.22,83.91,158.76,396.89,Single-ply,SBD,M
Boys,82.1,20,Lutavious Boone,Huntsville,76.93,147.42,90.72,158.76,396.89,Single-ply,SBD,M
Boys,82.1,21,Christian Campbell,New Caney Porter,80.06,154.22,102.06,136.08,392.36,Single-ply,SBD,M
Boys,82.1,22,Stephen Denby,Huntsville,77.25,142.88,88.45,158.76,390.09,Single-ply,SBD,M
Boys,82.1,23,Trey Keel,Shepherd,81.65,136.08,92.99,158.76,387.82,Single-ply,SBD,M
Boys,82.1,24,Kris Smith,Huntsville,80.6,147.42,83.91,154.22,385.55,Single-ply,SBD,M
Boys,82.1,25,Austin Greer,Huffman Hargrave,76.2,138.35,79.38,149.69,367.41,Single-ply,SBD,M
Boys,82.1,26,Jason Navarro,Huffman Hargrave,82.05,122.47,61.23,129.27,312.98,Single-ply,SBD,M
Boys,82.1,DQ,Jacob Williams,Woodville,78.43,,,,,Single-ply,SBD,M
Boys,89.81,1,Keithon Johnson,Shepherd,88.63,229.06,133.81,215.46,578.33,Single-ply,SBD,M
Boys,99.79,2,John Moye,Shepherd,89.86,204.12,136.08,197.31,537.51,Single-ply,SBD,M
Boys,89.81,3,Chris Castle,Woodville,82.92,151.95,83.91,170.1,405.97,Single-ply,SBD,M
Boys,89.81,4,Camron Easley,New Caney Porter,89.27,142.88,102.06,158.76,403.7,Single-ply,SBD,M
Boys,89.81,5,Clint Coyle,Willis,88.9,147.42,81.65,163.29,392.36,Single-ply,SBD,M
Boys,89.81,6,Noah Young #2,Huffman Hargrave,85.05,133.81,97.52,156.49,387.82,Single-ply,SBD,M
Boys,89.81,7,Jonathon Hay,Willis,86.82,163.29,74.84,149.69,387.82,Single-ply,SBD,M
Boys,99.79,8,Colby Harmon,Willis,90.04,133.81,79.38,145.15,358.34,Single-ply,SBD,M
Boys,99.79,DQ,Obi Barclay,Woodville,89.9,,,,,Single-ply,SBD,M
Boys,89.81,DQ,Tommy Garrett,New Caney,87.14,,,,,Single-ply,SBD,M
Boys,99.79,DQ,Logan Phillips,Conroe Caney Creek,89.9,,,,,Single-ply,SBD,M
Boys,89.81,DQ,Jared Hull,New Caney,83.96,,,,,Single-ply,SBD,M
Boys,89.81,DQ,Jack Perry,Huffman Hargrave,85.55,,,,,Single-ply,SBD,M
Boys,89.81,DQ,Michael Taylor,Splendora,88.36,,,,,Single-ply,SBD,M
Boys,99.79,1,Joe Thomas,Beaumont Ozen,94.8,238.14,120.2,244.94,603.28,Single-ply,SBD,M
Boys,99.79,2,Jose Rangel,New Caney,92.94,240.4,133.81,192.78,566.99,Single-ply,SBD,M
Boys,99.79,3,Anthony Lamb,Splendora,90.95,204.12,131.54,226.8,562.45,Single-ply,SBD,M
Boys,99.79,4,Chance Rogers,Dayton,90.63,192.78,127.01,192.78,512.56,Single-ply,SBD,M
Boys,109.77,5,Marcus Garza,Conroe Caney Creek,99.88,201.85,102.06,197.31,501.22,Single-ply,SBD,M
Boys,99.79,6,Catarino Moreno,Shepherd,97.07,192.78,133.81,163.29,489.88,Single-ply,SBD,M
Boys,99.79,7,Cayetano Gonzales,Shepherd,92.99,174.63,124.74,174.63,474,Single-ply,SBD,M
Boys,99.79,8,Justin Bryan,Huffman Hargrave,97.07,174.63,113.4,185.97,474,Single-ply,SBD,M
Boys,99.79,9,Alejandro Rodriquez,New Caney Porter,99.65,172.37,136.08,163.29,471.74,Single-ply,SBD,M
Boys,99.79,10,Josh Price,Huntsville,92.22,161.03,83.91,172.37,417.3,Single-ply,SBD,M
Boys,99.79,11,Chance Hodgkinson,New Caney Porter,93.67,163.29,102.06,140.61,405.97,Single-ply,SBD,M
Boys,99.79,12,Taylor Grice,New Caney Porter,97.39,147.42,102.06,138.35,387.82,Single-ply,SBD,M
Boys,99.79,13,Tyler Whiteside,Woodville,92.67,142.88,88.45,147.42,378.75,Single-ply,SBD,M
Boys,99.79,DQ,Scott Erkel,Willis,93.58,149.69,,,,Single-ply,SBD,M
Boys,99.79,DQ,John Carter,Willis,95.25,204.12,,,,Single-ply,SBD,M
Boys,99.79,DQ,Colby Clark,Shepherd,93.71,,,,,Single-ply,SBD,M
Boys,99.79,DQ,Brannan McDonald,Huffman Hargrave,91.94,145.15,,,,Single-ply,SBD,M
Boys,99.79,DQ,Jacob Brayn,Huffman Hargrave,90.99,167.83,,,,Single-ply,SBD,M
Boys,99.79,DQ,Alex Murillo,Dayton,99.47,,,,,Single-ply,SBD,M
Boys,99.79,DQ,Michael Hoy,Dayton,93.39,,,,,Single-ply,SBD,M
Boys,99.79,DQ,Jake Adams,Huntsville,90.58,,,,,Single-ply,SBD,M
Boys,99.79,DQ,Dillon Amigliore,New Caney,91.04,,,,,Single-ply,SBD,M
Boys,99.79,DQ,Matthew Dean,Woodville,91.49,,,,,Single-ply,SBD,M
Boys,109.77,1,Cedric Green,Shepherd,107.5,254.01,145.15,222.26,621.42,Single-ply,SBD,M
Boys,109.77,2,Deandre Washington,Beaumont Ozen,105.19,240.4,158.76,204.12,603.28,Single-ply,SBD,M
Boys,109.77,3,Aaron Cunningham,Huffman Hargrave,108.27,222.26,154.22,215.46,591.94,Single-ply,SBD,M
Boys,109.77,4,DeSavion Crane,San Augustine,108.64,249.48,129.27,181.44,560.19,Single-ply,SBD,M
Boys,109.77,5,Cedric Cunningham,New Waverly,106,183.7,136.08,208.65,528.44,Single-ply,SBD,M
Boys,109.77,6,C. Brumley,Huntsville,106,195.04,108.86,190.51,494.42,Single-ply,SBD,M
Boys,109.77,7,David Holley,Huffman Hargrave,106.05,183.7,106.59,165.56,455.86,Single-ply,SBD,M
Boys,109.77,8,Cameron Providence,New Caney Porter,102.01,181.44,102.06,170.1,453.59,Single-ply,SBD,M
Boys,109.77,9,Zach Randell,Willis,102.29,174.63,90.72,188.24,453.59,Single-ply,SBD,M
Boys,109.77,10,Jacob Carroll,New Caney,106.82,154.22,111.13,167.83,433.18,Single-ply,SBD,M
Boys,109.77,11,Arthur Harmon,Beaumont Ozen,106.1,158.76,95.25,170.1,424.11,Single-ply,SBD,M
Boys,109.77,12,Alan Sowell,Dayton,109.32,161.03,90.72,165.56,417.3,Single-ply,SBD,M
Boys,109.77,13,Brandon West,Splendora,108.41,151.95,92.99,151.95,396.89,Single-ply,SBD,M
Boys,109.77,14,Cruz Barcenas,Huffman Hargrave,105.37,122.47,86.18,163.29,371.95,Single-ply,SBD,M
Boys,109.77,DQ,Daniel Mature,New Waverly,106.23,74.84,,,,Single-ply,SBD,M
Boys,124.74+,1,Cody Carter,Dayton,124.87,260.82,156.49,226.8,644.1,Single-ply,SBD,M
Boys,124.74,2,Hunter Crooks,Dayton,119.61,233.6,122.47,247.21,603.28,Single-ply,SBD,M
Boys,124.74,3,Nathan Ramon,Huntsville,116.07,238.14,136.08,226.8,601.01,Single-ply,SBD,M
Boys,124.74,4,Ethan Trammel,Huntsville,119.75,213.19,117.93,197.31,528.44,Single-ply,SBD,M
Boys,124.74,5,Dylan Poindexter,New Caney,119.16,190.51,142.88,181.44,514.83,Single-ply,SBD,M
Boys,124.74,6,Dustin Willis,Splendora,119.29,206.38,115.67,192.78,514.83,Single-ply,SBD,M
Boys,124.74,7,Joseph Sylvester,Shepherd,123.83,174.63,129.27,179.17,483.08,Single-ply,SBD,M
Boys,124.74+,8,Dennis Bardwell,Huffman Hargrave,124.92,170.1,111.13,192.78,474,Single-ply,SBD,M
Boys,124.74,9,Greg Hillyer,New Caney Porter,114.85,163.29,111.13,181.44,455.86,Single-ply,SBD,M
Boys,124.74,10,Casey Vasquez,New Caney Porter,115.85,172.37,124.74,158.76,455.86,Single-ply,SBD,M
Boys,124.74,11,James Bounds,Huntsville,120.07,142.88,90.72,147.42,381.02,Single-ply,SBD,M
Boys,124.74,12,Mario Rodriquez,New Caney Porter,117.71,131.54,81.65,124.74,337.93,Single-ply,SBD,M
Boys,124.74,13,Deshondric Selman,Beaumont Ozen,114.03,104.33,83.91,136.08,324.32,Single-ply,SBD,M
Boys,124.74,DQ,Deandre Granger,Beaumont Ozen,116.75,154.22,,,,Single-ply,SBD,M
Boys,124.74,DQ,Tyrese Henderson,Beaumont Ozen,118.98,113.4,81.65,,,Single-ply,SBD,M
Boys,124.74+,1,Terrance Manning,Dayton,143.56,283.5,170.1,226.8,680.39,Single-ply,SBD,M
Boys,124.74+,2,Trey Dear,Woodville,151.36,272.16,147.42,238.14,657.71,Single-ply,SBD,M
Boys,124.74+,3,Colton Lowe,Conroe Caney Creek,143.29,215.46,131.54,197.31,544.31,Single-ply,SBD,M
Boys,124.74+,4,Coby Smith,Willis,131.77,183.7,124.74,215.46,523.9,Single-ply,SBD,M
Boys,124.74+,5,Edward Barnes,San Augustine,134.44,201.85,136.08,174.63,512.56,Single-ply,SBD,M
Boys,124.74+,6,Destin Fox,Huffman Hargrave,128.64,185.97,111.13,192.78,489.88,Single-ply,SBD,M
Boys,124.74+,7,Cody Jackson,New Waverly,151.86,174.63,111.13,167.83,453.59,Single-ply,SBD,M
Boys,124.74+,DQ,Ambrow Moreland,Beaumont Ozen,150.41,195.04,106.59,,,Single-ply,SBD,M
Boys,124.74+,DQ,Tristan Garza,New Caney,125.24,190.51,,,,Single-ply,SBD,M
