Place,Name,CyrillicName,BirthYear,BodyweightKg,Best3SquatKg,Best3BenchKg,Best3DeadliftKg,TotalKg,WeightClassKg,Event,Equipment,Division,Sex
1,Aigul Sitdikova,Айгуль Ситдикова,1989,46.7,160,125,155,440,47,SBD,Single-ply,Open,F
2,Irina Ivanova,Ирина Иванова,1996,46.75,145,85,135,365,47,SBD,Single-ply,Open,F
3,Elmira Abdulaeva,Эльмира Абдулаева,1998,46.55,142.5,75,137.5,355,47,SBD,Single-ply,Open,F
4,Karina Simonyants,Карина Симонянц,1977,46.75,135,102.5,117.5,355,47,SBD,Single-ply,Open,F
5,Kristina Moskaleva,Кристина Москалева,1990,46.9,147.5,72.5,130,350,47,SBD,Single-ply,Open,F
6,Olga Ermakova,Ольга Ермакова,1993,46.9,150,62.5,125,337.5,47,SBD,Single-ply,Open,F
7,Nina Akilbaeva,Нина Акилбаева,1985,46.65,117.5,52.5,132.5,302.5,47,SBD,Single-ply,Open,F
8,Anastasiya Ivshina,Анастасия Ившина,2000,43.7,110,72.5,115,297.5,47,SBD,Single-ply,Open,F
9,Svetlana Petrova,Светлана Петрова,1998,44.45,95,70,105,270,47,SBD,Single-ply,Open,F
10,Anna Kolesova,Анна Колесова,1991,46.65,112.5,55,100,267.5,47,SBD,Single-ply,Open,F
DQ,Elena Tsekhanovich,Елена Цеханович,1991,45.6,-105,,,,47,SBD,Single-ply,Open,F
1,Natalia Salnikova,Наталья Сальникова,1986,51.85,207.5,137.5,182.5,527.5,52,SBD,Single-ply,Open,F
2,Valentina Vermenyuk,Валентина Верменюк,1986,51.4,187.5,110,177.5,475,52,SBD,Single-ply,Open,F
3,Anna Komlaeva,Анна Комлаева,1979,52,192.5,110,165,467.5,52,SBD,Single-ply,Open,F
4,Natalya Tokareva,Наталья Токарева,1984,50.85,165,90,172.5,427.5,52,SBD,Single-ply,Open,F
5,Svetlana Saydasheva,Светлана Сайдашева,1988,51.95,165,90,172.5,427.5,52,SBD,Single-ply,Open,F
6,Irina Filippova,Ирина Филиппова,1992,50.55,165,105,150,420,52,SBD,Single-ply,Open,F
7,Olga Gataulina,Ольга Гатаулина,1990,50.65,160,112.5,137.5,410,52,SBD,Single-ply,Open,F
8,Anastasiya Chervyakova,Анастасия Червякова,1999,51.15,170,85,147.5,402.5,52,SBD,Single-ply,Open,F
9,Veronika Perevozchikova,Вероника Перевозчикова,1978,51.5,150,85,155,390,52,SBD,Single-ply,Open,F
10,Lyudmila Zaeskova,Людмила Заескова,1988,52,150,80,145,375,52,SBD,Single-ply,Open,F
11,Olga Pasichnaya,Ольга Пасичная,1981,51.2,142.5,87.5,135,365,52,SBD,Single-ply,Open,F
12,Elena Vorontsova,Елена Воронцова,1989,51.7,140,77.5,145,362.5,52,SBD,Single-ply,Open,F
13,Elena Kurtymova,Елена Куртымова,1989,51.6,120,80,135,335,52,SBD,Single-ply,Open,F
14,Ekaterina Trachuk,Екатерина Трачук,1993,51.7,120,70,135,325,52,SBD,Single-ply,Open,F
15,Alyona Goncharenko,Алёна Гончаренко,1997,51.4,122.5,85,110,317.5,52,SBD,Single-ply,Open,F
16,Arina Shcherbakova,Арина Щербакова,1999,52,127.5,75,110,312.5,52,SBD,Single-ply,Open,F
17,Irina Mistyukova,Ирина Мистюкова,1996,51.3,100,65,110,275,52,SBD,Single-ply,Open,F
DQ,Natalya Fedorova,Наталья Федорова,1991,51.7,-135,,,,52,SBD,Single-ply,Open,F
1,Anna Ryzhkova,Анна Рыжкова,1986,56.8,215,142.5,197.5,555,57,SBD,Single-ply,Open,F
2,Ekaterina Osipova,Екатерина Осипова,1991,56.5,195,132.5,190,517.5,57,SBD,Single-ply,Open,F
3,Anastasia Petrova,Анастасия Петрова,1985,56.3,182.5,150,182.5,515,57,SBD,Single-ply,Open,F
4,Victoria Karlysheva,Виктория Карлышева,1993,57,215,115,182.5,512.5,57,SBD,Single-ply,Open,F
5,Elena Borisova,Елена Борисова,1994,56.2,200,107.5,192.5,500,57,SBD,Single-ply,Open,F
6,Yana Dulina,Яна Дулина,1995,56.85,205,95,182.5,482.5,57,SBD,Single-ply,Open,F
7,Yuliya Vavilova,Юлия Вавилова,1979,56.95,200,107.5,170,477.5,57,SBD,Single-ply,Open,F
8,Kseniya Kiryanova,Ксения Кирьянова,1985,55.65,175,100,200.5,475.5,57,SBD,Single-ply,Open,F
9,Kseniya Mokhova,Ксения Мохова,1986,56.6,180,85,185,450,57,SBD,Single-ply,Open,F
10,Anastasiya Yuzupkina,Анастасия Юзупкина,1993,55.8,165,97.5,170,432.5,57,SBD,Single-ply,Open,F
11,Alina Sarycheva,Алина Сарычева,1999,53.75,142.5,125,135,402.5,57,SBD,Single-ply,Open,F
12,Albina Galimova,Альбина Галимова,1990,56.7,152.5,75,147.5,375,57,SBD,Single-ply,Open,F
13,Nadezhda Makarova,Надежда Макарова,1963,56.6,130,82.5,145,357.5,57,SBD,Single-ply,Open,F
14,Olga Ustentsova,Ольга Устенцова,1999,56.95,145,75,135,355,57,SBD,Single-ply,Open,F
15,Liliya Popova,Лилия Попова,1998,56.15,140,65,147.5,352.5,57,SBD,Single-ply,Open,F
16,Mariya Kirikova,Мария Кирикова,1990,56.2,140,72.5,140,352.5,57,SBD,Single-ply,Open,F
17,Viktoriya Bragina,Виктория Брагина,1995,56.25,137.5,77.5,137.5,352.5,57,SBD,Single-ply,Open,F
18,Varvara Morozova,Варвара Морозова,1999,57,145,82.5,125,352.5,57,SBD,Single-ply,Open,F
19,Dina Guseva,Дина Гусева,1990,57,142.5,80,130,352.5,57,SBD,Single-ply,Open,F
20,Natalya Kruchinina,Наталья Кручинина,1992,56.95,140,77.5,130,347.5,57,SBD,Single-ply,Open,F
21,Nadezhda Sentyakova,Надежда Сентякова,1982,56.25,130,80,125,335,57,SBD,Single-ply,Open,F
22,Yuliya Efimenko,Юлия Ефименко,1998,56.2,130,65,130,325,57,SBD,Single-ply,Open,F
DQ,Inna Filimonova #1,Инна Филимонова,1976,56,,,,,57,SBD,Single-ply,Open,F
1,Irina Poletaeva,Ирина Полетаева,1982,62.4,205,157.5,195,557.5,63,SBD,Single-ply,Open,F
2,Anastasiya Galanova,Анастасия Галанова,1992,62.95,207.5,130,190,527.5,63,SBD,Single-ply,Open,F
3,Dina Batalova,Дина Баталова,1992,58.6,182.5,120,165,467.5,63,SBD,Single-ply,Open,F
4,Yuliya Bakhvalova,Юлия Бахвалова,1991,62.75,175,92.5,180,447.5,63,SBD,Single-ply,Open,F
5,Serafima Shastunova,Серафима Шастунова,1990,62.6,155,102.5,147.5,405,63,SBD,Single-ply,Open,F
6,Natalya Shenaeva,Наталья Шенаева,1988,62.75,160,85,147.5,392.5,63,SBD,Single-ply,Open,F
7,Anastasiya Korneeva,Анастасия Корнеева,2000,59.9,155,95,140,390,63,SBD,Single-ply,Open,F
8,Darya Salnikova,Дарья Сальникова,2000,61.35,145,90,150,385,63,SBD,Single-ply,Open,F
9,Ulyana Gabova,Ульяна Габова,2000,62.25,152.5,80,152.5,385,63,SBD,Single-ply,Open,F
10,Anastasiya Ivacheva,Анастасия Ивачева,2000,62.45,147.5,77.5,160,385,63,SBD,Single-ply,Open,F
11,Ekaterina Smirnova,Екатерина Смирнова,1999,61.6,150,97.5,115,362.5,63,SBD,Single-ply,Open,F
12,Darya Lugovykh,Дарья Луговых,2001,61.05,125,70,120,315,63,SBD,Single-ply,Open,F
DQ,Liliya Kadyrova,Лилия Кадырова,1999,59.15,-185,,,,63,SBD,Single-ply,Open,F
1,Olga Adamovich,Ольга Адамович,1991,64.1,232.5,145,210,587.5,72,SBD,Single-ply,Open,F
2,Yulia Medvedeva,Юлия Медведева,1986,66.3,215,160,190,565,72,SBD,Single-ply,Open,F
3,Anastasiya Putilina,Анастасия Путилина,1995,71.15,225,155,175,555,72,SBD,Single-ply,Open,F
4,Mariya Gulidova,Мария Гулидова,1989,71.35,217.5,142.5,185,545,72,SBD,Single-ply,Open,F
5,Nina Kondrashyova,Нина Кондрашёва,1960,68.8,215,142.5,180,537.5,72,SBD,Single-ply,Open,F
6,Irina Ivacheva,Ирина Ивачева,1969,71.25,175,115,195,485,72,SBD,Single-ply,Open,F
7,Kseniya Karataeva,Ксения Каратаева,1992,71.35,190,95,140,425,72,SBD,Single-ply,Open,F
8,Aleksandra Aksenova,Александра Аксенова,1997,70,187.5,95,130,412.5,72,SBD,Single-ply,Open,F
9,Tatyana Ozhgibesova,Татьяна Ожгибесова,1979,71.5,135,105,150,390,72,SBD,Single-ply,Open,F
10,Nadezhda Rubleva,Надежда Рублева,1978,67.1,140,57.5,130,327.5,72,SBD,Single-ply,Open,F
11,Ekaterina Zaikina,Екатерина Заикина,1998,69.2,115,55,115,285,72,SBD,Single-ply,Open,F
1,Ekaterina Baranova,Екатерина Баранова,1992,83.4,235,177.5,195,607.5,84,SBD,Single-ply,Open,F
2,Nadezhda Sindikas,Надежда Синдикас,1986,81.6,240,150,202.5,592.5,84,SBD,Single-ply,Open,F
3,Ekaterina Bratus,Екатерина Братусь,1991,80.9,225,140,190,555,84,SBD,Single-ply,Open,F
4,Irina Andreeva,Ирина Андреева,1989,82.3,195,102.5,185,482.5,84,SBD,Single-ply,Open,F
5,Mariya Egoshina,Мария Егошина,1985,76.25,170,97.5,165,432.5,84,SBD,Single-ply,Open,F
6,Yuliya Alekseeva,Юлия Алексеева,1993,74.2,155,115,135,405,84,SBD,Single-ply,Open,F
1,Anastasia Pavlova,Анастасия Павлова,1996,90.35,225,165,212.5,602.5,84+,SBD,Single-ply,Open,F
2,Yuliya Bushueva,Юлия Бушуева,1981,93.65,245,160,187.5,592.5,84+,SBD,Single-ply,Open,F
3,Mariya Zyryanova,Мария Зырянова,1983,123.8,200,162.5,222.5,585,84+,SBD,Single-ply,Open,F
4,Anna Vozmilova,Анна Возмилова,2001,86.1,160,72.5,145,377.5,84+,SBD,Single-ply,Open,F
DQ,Anna Kukhareva,Анна Кухарева,1990,94.55,-245,,,,84+,SBD,Single-ply,Open,F
1,Sergey Fedosienko,Сергей Федосиенко,1982,58.4,290,206,260,756,59,SBD,Single-ply,Open,M
2,Kirill Krut,Кирилл Круть,1991,56.8,235,150,237.5,622.5,59,SBD,Single-ply,Open,M
3,Vladimir Talankin,Владимир Таланкин,1985,58.15,232.5,147.5,235,615,59,SBD,Single-ply,Open,M
4,Ivan Markov,Иван Марков,1987,58.8,210,132.5,195,537.5,59,SBD,Single-ply,Open,M
5,Evgeniy Klepinin,Евгений Клепинин,1986,57.95,175,130,180,485,59,SBD,Single-ply,Open,M
1,Sergey Gladkikh,Сергей Гладких,1989,65.95,320,212.5,270,802.5,66,SBD,Single-ply,Open,M
2,Konstantin Danilov,Константин Данилов,1986,65.5,315,200,270,785,66,SBD,Single-ply,Open,M
3,Ivan Ponomaryov,Иван Пономарёв,1988,65.6,265,180,287.5,732.5,66,SBD,Single-ply,Open,M
4,Anatoliy Leonov,Анатолий Леонов,1986,65.45,300,170,260,730,66,SBD,Single-ply,Open,M
5,Maksim Chupakhin,Максим Чупахин,1994,66,280,180,245,705,66,SBD,Single-ply,Open,M
6,Roman Bakhshiev,Роман Бахшиев,1993,66,275,187.5,230,692.5,66,SBD,Single-ply,Open,M
7,Konstantin Kuznetsov,Константин Кузнецов,1994,65.85,205,160,210,575,66,SBD,Single-ply,Open,M
1,Sergei Gaishinetc,Сергей Гайшинец,1986,72.85,335,207.5,322.5,865,74,SBD,Single-ply,Open,M
2,Anatoliy Goryachok,Анатолий Горячок,1979,73.65,305,195,320,820,74,SBD,Single-ply,Open,M
3,Viktor Khlestov,Виктор Хлестов,1992,72.25,250,235,270,755,74,SBD,Single-ply,Open,M
4,Viktor Panteleev,Виктор Пантелеев,1996,73.25,295,185,257.5,737.5,74,SBD,Single-ply,Open,M
5,Dulustan Arkadev,Дьулустан Аркадьев,1994,73.75,270,177.5,272.5,720,74,SBD,Single-ply,Open,M
6,Andrey Bannov,Андрей Баннов,1990,73,270,160,270,700,74,SBD,Single-ply,Open,M
7,Andrey Medvedev,Андрей Медведев,1993,72.7,255,202.5,237.5,695,74,SBD,Single-ply,Open,M
8,Sergey Vavilov,Сергей Вавилов,1989,73.35,270,170,230,670,74,SBD,Single-ply,Open,M
9,Yuriy Averin,Юрий Аверин,1988,73.45,240,160,240,640,74,SBD,Single-ply,Open,M
DQ,Aleksandr Shipchin,Александр Шипчин,1990,73.75,-300,222.5,,,74,SBD,Single-ply,Open,M
DQ,Mikhail Korovodin,Михаил Короводин,1987,72.8,,,,,74,SBD,Single-ply,Open,M
1,Alexey Sorokin,Алексей Сорокин,1985,82.85,360,240,325,925,83,SBD,Single-ply,Open,M
2,Evgeniy Vasyukov,Евгений Васюков,1985,83,342.5,265.5,315,923,83,SBD,Single-ply,Open,M
3,Aleksandr Davletzyanov,Александр Давлетзянов,1986,82.25,280,235,270,785,83,SBD,Single-ply,Open,M
4,Boris Khovrakh,Борис Ховрах,1986,82.3,307.5,210,262.5,780,83,SBD,Single-ply,Open,M
5,Ivan Redkin,Иван Редькин,1989,82.7,300,210,270,780,83,SBD,Single-ply,Open,M
6,Vladimir Izyurov,Владимир Изюров,1994,81.7,285,210,265,760,83,SBD,Single-ply,Open,M
7,Konstantin Utarbekov,Константин Утарбеков,1996,81.75,270,205,272.5,747.5,83,SBD,Single-ply,Open,M
8,Vadim Kazak,Вадим Казак,1994,81.8,255,240,252.5,747.5,83,SBD,Single-ply,Open,M
9,Vitaliy Gron,Виталий Гронь,1989,82.7,285,172.5,290,747.5,83,SBD,Single-ply,Open,M
10,Mikhail Derkach,Михаил Деркач,1990,82.65,250,160,220,630,83,SBD,Single-ply,Open,M
DQ,Oleg Tarkhov,Олег Тархов,1985,81.25,275,-255,,,83,SBD,Single-ply,Open,M
DQ,Pavel Kroksov,Павел Кроксов,1986,82.45,250,-220,,,83,SBD,Single-ply,Open,M
DQ,Aydar Sitdikov,Айдар Ситдиков,1984,83,-295,,,,83,SBD,Single-ply,Open,M
1,Dmitry Inzarkin,Дмитрий Инзаркин,1987,92.15,375,290.5,330,995.5,93,SBD,Single-ply,Open,M
2,Aleksandr Rodionov,Александр Родионов,1988,92.35,320,257.5,320,897.5,93,SBD,Single-ply,Open,M
3,Vladimir Agafonov,Владимир Агафонов,1987,91.7,340,232.5,310,882.5,93,SBD,Single-ply,Open,M
4,Valerian Bogdanov,Валериан Богданов,1988,91.55,302.5,235,275,812.5,93,SBD,Single-ply,Open,M
5,Andrey Kruk,Андрей Крук,1993,91.05,325,195,270,790,93,SBD,Single-ply,Open,M
6,Andrey Filippov,Андрей Филиппов,1995,90.95,302.5,207.5,277.5,787.5,93,SBD,Single-ply,Open,M
7,Igor Kornienko,Игорь Корниенко,1990,91.95,277.5,175,295,747.5,93,SBD,Single-ply,Open,M
8,Mikhail Melekhin,Михаил Мелехин,1992,91.4,270,155,280,705,93,SBD,Single-ply,Open,M
9,Daniil Prokhorov,Даниил Прохоров,1997,91.45,270,180,250,700,93,SBD,Single-ply,Open,M
10,Pavel Serebrennikov,Павел Серебренников,1980,91.05,220,180,210,610,93,SBD,Single-ply,Open,M
1,Konstantin Lebedko,Константин Лебедко,1981,104.8,400,287.5,332.5,1020,105,SBD,Single-ply,Open,M
2,Sergey Mashintsov,Сергей Машинцов,1987,99,365,270,340,975,105,SBD,Single-ply,Open,M
3,Andrey Vazhov,Андрей Важов,1990,104.95,355,298,320,973,105,SBD,Single-ply,Open,M
4,Konstantin Chekasin,Константин Чекасин,1992,101.7,350,290,320,960,105,SBD,Single-ply,Open,M
5,Anton Pristupnikov,Антон Приступников,1993,103.3,370,240,310,920,105,SBD,Single-ply,Open,M
6,Anton Zaytsev,Антон Зайцев,1990,102.6,340,265,310,915,105,SBD,Single-ply,Open,M
7,Evgeniy Lysenko,Евгений Лысенко,1977,104.2,307.5,252.5,265,825,105,SBD,Single-ply,Open,M
8,Eduard Gallyamov,Эдуард Галлямов,1991,104.75,280,215,300,795,105,SBD,Single-ply,Open,M
9,Evgeniy Glyadelov,Евгений Гляделов,1983,101.2,275,215,270,760,105,SBD,Single-ply,Open,M
10,Ilya Moshkovtsev,Илья Мошковцев,1987,103.8,280,210,265,755,105,SBD,Single-ply,Open,M
11,Stepan Kovalev,Степан Ковалев,1984,100.65,265,195,250,710,105,SBD,Single-ply,Open,M
12,Maksim Takhtay,Максим Тахтай,1980,98.8,250,227.5,225,702.5,105,SBD,Single-ply,Open,M
DQ,Ruslan Idrisov,Руслан Идрисов,1989,97.4,280,220,-280,,105,SBD,Single-ply,Open,M
DQ,Maksim Alferenko,Максим Алференко,1990,103.15,340,,,,105,SBD,Single-ply,Open,M
DQ,Vladimir Shulgin,Владимир Шульгин,1966,103.5,340,-170,,,105,SBD,Single-ply,Open,M
DQ,Boris Shchamel,Борис Щамель,1979,103.45,,,,,105,SBD,Single-ply,Open,M
1,Ivan Goryachev,Иван Горячев,1990,119.95,405,290,337.5,1032.5,120,SBD,Single-ply,Open,M
2,Maksim Titov,Максим Титов,1989,118.6,405,270,340,1015,120,SBD,Single-ply,Open,M
3,Maksim Beznosov,Максим Безносов,1991,117.8,427.5,225,342.5,995,120,SBD,Single-ply,Open,M
4,Vasiliy Omelchenko,Василий Омельченко,1973,118.7,365,272.5,342.5,980,120,SBD,Single-ply,Open,M
5,Ivan Zhidkov,Иван Жидков,1987,120,350,280,320,950,120,SBD,Single-ply,Open,M
6,Sergey Selezen,Сергей Селезень,1980,120,310,328,300,938,120,SBD,Single-ply,Open,M
7,Ruslan Ramazanov,Руслан Рамазанов,1993,118.95,340,260,320,920,120,SBD,Single-ply,Open,M
8,Aleksey Sevostyanov,Алексей Севостьянов,1983,119.4,370,245,300,915,120,SBD,Single-ply,Open,M
9,Sadyg Sadygov,Садыг Садыгов,1992,113.65,355,255,295,905,120,SBD,Single-ply,Open,M
10,Sergey Kayurin,Сергей Каюрин,1992,108.8,335,240,295,870,120,SBD,Single-ply,Open,M
11,Aleksandr Babenko,Александр Бабенко,1985,112.75,330,250,290,870,120,SBD,Single-ply,Open,M
12,Aram Melkonyan,Арам Мелконян,1993,112.2,320,220,295,835,120,SBD,Single-ply,Open,M
13,Aleksey Manakov,Алексей Манаков,1983,112.6,300,260,275,835,120,SBD,Single-ply,Open,M
14,Fedor Brusnitsyn,Федор Брусницын,1996,118.3,320,240,275,835,120,SBD,Single-ply,Open,M
15,Denis Pukhov,Денис Пухов,1992,119.8,325,225,260,810,120,SBD,Single-ply,Open,M
16,Evgeniy Utkin,Евгений Уткин,1994,118.5,300,215,270,785,120,SBD,Single-ply,Open,M
17,Nikita Rezitskiy,Никита Резицкий,1993,111.5,250,240,197.5,687.5,120,SBD,Single-ply,Open,M
DQ,Yashar Sufiyarov,Яшар Суфияров,1992,107,320,-220,,,120,SBD,Single-ply,Open,M
DQ,Dmitriy Andrianov,Дмитрий Андрианов,1988,111.45,385,-310,,,120,SBD,Single-ply,Open,M
DQ,Andrey Ovechkin,Андрей Овечкин,1979,118.8,330,,,,120,SBD,Single-ply,Open,M
DQ,Evgeniy Kovalkov,Евгений Ковальков,1982,,,,,,120,SBD,Single-ply,Open,M
1,Andrey Konovalov,Андрей Коновалов,1986,164.8,482.5,377.5,370,1230,120+,SBD,Single-ply,Open,M
2,Artem Litvinenko,Артём Литвиненко,1990,134.1,420,315,335,1070,120+,SBD,Single-ply,Open,M
3,Dmitriy Dokalin,Дмитрий Докалин,1990,132.85,377.5,315,360,1052.5,120+,SBD,Single-ply,Open,M
4,Mikhail Glazunov,Михаил Глазунов,1974,126.25,380,280,340,1000,120+,SBD,Single-ply,Open,M
5,Aleksandr Mokeev,Александр Мокеев,1981,146.5,380,287.5,277.5,945,120+,SBD,Single-ply,Open,M
6,Artem Perets,Артем Перец,1988,134.85,380,250,300,930,120+,SBD,Single-ply,Open,M
7,Egor Safrygin,Егор Сафрыгин,1995,124.45,392.5,220,310,922.5,120+,SBD,Single-ply,Open,M
8,Vladimir Bogdanovskiy,Владимир Богдановский,1985,130.85,352.5,260,310,922.5,120+,SBD,Single-ply,Open,M
9,Aleksey Tarasenko,Алексей Тарасенко,1977,129.85,340,250,310,900,120+,SBD,Single-ply,Open,M
10,Vitaliy Morozevich,Виталий Морозевич,1966,202.05,300,290,300,890,120+,SBD,Single-ply,Open,M
11,Vladislav Nemov,Владислав Немов,1996,130,317.5,240,302.5,860,120+,SBD,Single-ply,Open,M
12,Sergey Lomakin,Сергей Ломакин,1982,131.8,320,280,260,860,120+,SBD,Single-ply,Open,M
13,Kirill Gezin,Кирилл Гезин,1987,136.8,357.5,255,247.5,860,120+,SBD,Single-ply,Open,M
