Place,Name,BodyweightKg,Squat1Kg,Squat2Kg,Squat3Kg,Best3SquatKg,Bench1Kg,Bench2Kg,Bench3Kg,Best3BenchKg,Deadlift1Kg,Deadlift2Kg,Deadlift3Kg,Best3DeadliftKg,TotalKg,WeightClassKg,Sex,CyrillicName,BirthYear,Equipment,Event,Division
1,Sergey Zhuravlev,51.8,200,-210,215,215,105,110,-112.5,110,190,205,210,210,535,52,M,Сергей Журавлёв,1960,Single-ply,SBD,Open
2,Igor Artemyev,51.65,165,170,172.5,172.5,122.5,127.5,130,130,170,177.5,182.5,182.5,485,52,M,Игорь Артемьев,1971,Single-ply,SBD,Open
3,Dmitriy Alekseev,51.75,170,190,-200,190,90,105,110,110,170,-180,-180,170,470,52,M,Дмитрий Алексеев,1983,Single-ply,SBD,Open
4,Viktor Kurbatov #1,51.7,-175,180,-185,180,110,-115,-115,110,145,152.5,-160,152.5,442.5,52,M,Виктор Курбатов,1978,Single-ply,SBD,Open
5,Vitaliy Borisov,51.95,140,150,160,160,75,82.5,87.5,87.5,135,147.5,155,155,402.5,52,M,Виталий Борисов,1984,Single-ply,SBD,Open
DQ,Dmitriy Silaev,52,-160,-160,-160,,,,,,,,,,,52,M,Дмитрий Силаев,1979,Single-ply,SBD,Open
1,Konstantin Pavlov,55.9,220,240,,240,160,-171,171,171,200,210,220,220,631,56,M,Константин Павлов,1973,Single-ply,SBD,Open
2,Yaroslav Chopovskiy,55.8,210,220,-230,220,-110,110,117.5,117.5,200,-210,210,210,547.5,56,M,Ярослав Чоповский,1962,Single-ply,SBD,Open
3,Sergey Savinykh,54.75,200,-210,-210,200,130,-135,-135,130,200,205,-217.5,205,535,56,M,Сергей Савиных,1983,Single-ply,SBD,Open
4,Oleg Artemyev,55.5,190,195,197.5,197.5,137.5,142.5,-150,142.5,175,185,-190,185,525,56,M,Олег Артемьев,1971,Single-ply,SBD,Open
5,Vladimir Maliagov,56,190,205,215,215,105,115,120,120,170,182.5,-190,182.5,517.5,56,M,Владимир Малягов,1977,Single-ply,SBD,Open
6,Dmitriy Panin,55.3,185,195,-205,195,107.5,115,-120,115,200,-207.5,-207.5,200,510,56,M,Дмитрий Панин,1980,Single-ply,SBD,Open
7,Evgeniy Melekhov,55.9,175,187.5,197.5,197.5,110,115,,115,-170,175,187.5,187.5,500,56,M,Евгений Мелехов,1984,Single-ply,SBD,Open
8,Yuriy Karasev,55.75,180,-187.5,-187.5,180,90,97.5,-102.5,97.5,200,205,-207.5,205,482.5,56,M,Юрий Карасов,1981,Single-ply,SBD,Open
9,Ruslan Azizov,56,180,-190,190,190,100,107.5,-110,107.5,175,-185,185,185,482.5,56,M,Руслан Азизов,1976,Single-ply,SBD,Open
10,Dmitriy Smirnov,55.3,-160,160,-180,160,100,-105,-105,100,-160,170,-180,170,430,56,M,Дмитрий Смирнов,1978,Single-ply,SBD,Open
1,Andrey Zvyagintsev,60,215,225,232.5,232.5,152.5,160,167.5,167.5,210,215,-225,215,615,60,M,Андрей Звягинцев,1980,Single-ply,SBD,Open
2,Fanil Mukhamatyanov,59.9,230,240,245,245,150,162.5,172.5,172.5,195,-205,-205,195,612.5,60,M,Фаниль Мухаматьянов,1972,Single-ply,SBD,Open
3,Anatoliy Proskurin,59.45,220,230,235,235,120,127.5,-130,127.5,220,230,-250,230,592.5,60,M,Анатолий Проскурин,1972,Single-ply,SBD,Open
4,Gennadiy Sayapin,59.8,210,220,,220,-115,120,125,125,210,220,225,225,570,60,M,Геннадий Саяпин,1952,Single-ply,SBD,Open
5,Ilya Kokorev,60,190,200,-205,200,120,127.5,-132.5,127.5,225,-242.5,-242.5,225,552.5,60,M,Илья Кокорев,1973,Single-ply,SBD,Open
6,Igor Kuimov,60,-180,180,200,200,120,130,-135,130,200,220,-230,220,550,60,M,Игорь Куимов,1962,Single-ply,SBD,Open
7,Igor Teplykh,59.2,205,212.5,-217.5,212.5,102.5,107.5,-110,107.5,180,190,-200,190,510,60,M,Игорь Теплых,1973,Single-ply,SBD,Open
8,Sergey Voronov,60,-160,-165,165,165,125,-132.5,132.5,132.5,190,195,-200,195,492.5,60,M,Сергей Воронов,1984,Single-ply,SBD,Open
9,Idris Chadaev,58.5,150,155,-160,155,-115,-115,115,115,160,-170,,160,430,60,M,Идрис Чадаев,1978,Single-ply,SBD,Open
1,Evgeniy Dolgov,66.9,260,270,277.5,277.5,150,157.5,162.5,162.5,260,270,-275,270,710,67.5,M,Евгений Долгов,1976,Single-ply,SBD,Open
2,Igor Muler,67.15,270,280,-285,280,135,-142.5,-142.5,135,260,280,-290,280,695,67.5,M,Игорь Мулер,1969,Single-ply,SBD,Open
3,Ruslan Araslanov,67.5,240,-250,-260,240,170,177.5,-180,177.5,250,260,270,270,687.5,67.5,M,Руслан Арасланов,1976,Single-ply,SBD,Open
4,Mikhail Andryukhin,60.7,250,265,-275,265,142.5,147.5,-150,147.5,250,-267.5,272.5,272.5,685,67.5,M,Михаил Андрюхин,1970,Single-ply,SBD,Open
5,Alexey Sidorov,67.3,250,-260,265,265,175,180,185,185,235,240,-245,240,690,67.5,M,Алексей Сидоров,1974,Single-ply,SBD,Open
6,Aleksey Artemev,66.9,220,235,242.5,242.5,130,135,137.5,137.5,240,255,-262.5,255,635,67.5,M,Алексей Артемьев,1979,Single-ply,SBD,Open
7,Dmitriy Dudnik,67.1,235,245,-250,245,-150,150,155,155,235,-240,-240,235,635,67.5,M,Дмитрий Дудник,1979,Single-ply,SBD,Open
8,Aleksandr Marenok,66.2,-250,250,-260,250,150,-155,,150,-225,232.5,-240,232.5,632.5,67.5,M,Александр Маренок,1976,Single-ply,SBD,Open
9,Sergey Averyanov,67.5,-240,240,-250,240,-130,135,-140,135,240,,,240,615,67.5,M,Сергей Аверьянов,1960,Single-ply,SBD,Open
10,Maksim Matveyev,66.1,235,-245,-245,235,135,-145,-145,135,225,-235,,225,595,67.5,M,Максим Матвеев,1981,Single-ply,SBD,Open
11,Gennadiy Volkov,67.3,215,-225,-225,215,120,-125,-125,120,240,250,-260,250,585,67.5,M,Геннадий Волков,1960,Single-ply,SBD,Open
12,Aleksandr Petrov,67,225,-232.5,-232.5,225,150,157.5,-160,157.5,200,-212.5,-212.5,200,582.5,67.5,M,Александр Петров,1965,Single-ply,SBD,Open
13,Mikhail Shiryaev,66.9,195,200,-205,200,145,155,-162.5,155,195,-210,-210,195,550,67.5,M,Михаил Ширяев,1968,Single-ply,SBD,Open
14,Dmitriy Staroverov,62.3,180,,,180,110,120,,120,210,-230,,210,510,67.5,M,Дмитрий Староверов,1974,Single-ply,SBD,Open
DQ,Valeriy Bogdanov,66,255,260,-262.5,260,180,190,192.5,192.5,-215,-215,-215,,,67.5,M,Валерий Богданов,1970,Single-ply,SBD,Open
DQ,Aleksandr Yakovlev,67.5,237.5,-245,-245,237.5,145,155,160,160,-230,-230,-230,,,67.5,M,Александр Яковлев,1977,Single-ply,SBD,Open
DQ,Valid Magomadov,67.5,-200,-200,,,,,,,,,,,,67.5,M,Валид Магомадов,1981,Single-ply,SBD,Open
DQ,Ivan Kaplya,66.7,-230,-230,-230,,,,,,,,,,,67.5,M,Иван Капля,1962,Single-ply,SBD,Open
DQ,Sergey Lebedev,66.9,-210,,,,,,,,,,,,,67.5,M,Сергей Лебедев,1975,Single-ply,SBD,Open
DQ,Alexey Osokin,67,,,,,,,,,,,,,,67.5,M,Алексей Осокин,1979,Single-ply,SBD,Open
DQ,Stanislav Petrushin,67.5,,,,,,,,,,,,,,67.5,M,Станислав Петрушин,1972,Single-ply,SBD,Open
1,Viktor Baranov,74.45,295,307.5,315,315,172.5,177.5,182.5,182.5,290,305,322.5,322.5,820,75,M,Виктор Баранов,1967,Single-ply,SBD,Open
2,Viktor Furazhkin,74.95,290,305,312.5,312.5,190,200,205.5,205.5,285,295,302.5,302.5,820.5,75,M,Виктор Фуражкин,1969,Single-ply,SBD,Open
3,Vladimir Sokolov,74.9,280,290,295,295,175,180,-185,180,-290,-290,290,290,765,75,M,Владимир Соколов,1976,Single-ply,SBD,Open
4,Ruslan Vostrikov,75,270,290,300.5,300.5,165,177.5,-182.5,177.5,265,277.5,287.5,287.5,765.5,75,M,Руслан Востриков,1979,Single-ply,SBD,Open
5,Andrey Bugayskiy,74.6,250,265,275,275,180,190,-195,190,270,282.5,-290,282.5,747.5,75,M,Андрей Бугайский,1974,Single-ply,SBD,Open
6,Aleksey Ermilov,75,270,280,-287.5,280,170,-175,175,175,260,270,-275,270,725,75,M,Алексей Ермилов,1979,Single-ply,SBD,Open
7,Yuriy Zadorozhnyy,74.5,260,270,275,275,150,157.5,-160,157.5,267.5,280,285,285,717.5,75,M,Юрий Задорожный,1981,Single-ply,SBD,Open
8,Aleksandr Alekseev,75,260,-267.5,267.5,267.5,165,172.5,177.5,177.5,255,265,-272.5,265,710,75,M,Александр Алексеев,1973,Single-ply,SBD,Open
9,Arslanali Saidov,74.85,260,270,-275,270,152.5,157.5,160,160,265,272.5,-275,272.5,702.5,75,M,Арсланали Саидов,1970,Single-ply,SBD,Open
10,Pavel Ozerov,74.55,-250,-265,265,265,175,180,182.5,182.5,252.5,-260,-262.5,252.5,700,75,M,Павел Озеров,1980,Single-ply,SBD,Open
11,Eduard Titov,75,250,260,-262.5,260,155,162.5,167.5,167.5,250,272.5,-282.5,272.5,700,75,M,Эдуард Титов,1968,Single-ply,SBD,Open
12,Valeriy Chernov,75,255,267.5,272.5,272.5,150,155,-157.5,155,250,272.5,-275,272.5,700,75,M,Валерій Чернов,1973,Single-ply,SBD,Open
13,Sergey Koshkin,74.65,255,-265,-280,255,160,170,-180,170,235,255,265,265,690,75,M,Сергей Кошкин,1971,Single-ply,SBD,Open
14,Vladimir Chadkov,74.7,235,242.5,247.5,247.5,185,195,200,200,235,-252.5,-257.5,235,682.5,75,M,Владимир Чадков,1972,Single-ply,SBD,Open
15,Dmitriy Ogienko,75,230,240,250,250,160,170,175,175,225,235,240,240,665,75,M,Дмитрий Огиенко,1974,Single-ply,SBD,Open
16,Artur Sarafyan,73.7,-220,230,-240,230,130,137.5,-147.5,137.5,220,245,-255,245,612.5,75,M,Артур Сарафян,1982,Single-ply,SBD,Open
17,Murtuz Mamedov,74.55,-230,230,-240,230,130,-135,-135,130,250,-272.5,-272.5,250,610,75,M,Муртуз Мамедов,1978,Single-ply,SBD,Open
18,Anatoliy Zabolotnyy,74.3,-220,-220,220,220,135,140,-142.5,140,200,-210,-210,200,560,75,M,Анатолий Заболотный,1975,Single-ply,SBD,Open
DQ,Emin Galib Ogly Mamedov,75,250,255,260,260,-170,-170,170,170,-240,-240,-240,,,75,M,Емин Галиб Оглы Мамедов,1974,Single-ply,SBD,Open
1,Sergey Mor,82.35,310,-320,320,320,215,-222.5,222.5,222.5,310,317.5,325,325,867.5,82.5,M,Сергей Мор,1969,Single-ply,SBD,Open
2,Sergey Gordeev,82.15,320,-330,-330,320,195,-205,-205,195,310,-325,-325,310,825,82.5,M,Сергей Гордеев,1976,Single-ply,SBD,Open
3,Alexey Kharauzov,82.4,-290,300,312.5,312.5,200,-207.5,-207.5,200,285,300,305,305,817.5,82.5,M,Алексей Хараузов,1973,Single-ply,SBD,Open
4,Igor Shestakov,82.35,315,325.5,332.5,332.5,-185,-185,185,185,285,295,-302.5,295,812.5,82.5,M,Игорь Шестаков,1969,Single-ply,SBD,Open
5,Roman Bychenko,79.65,270,285,300,300,175,180,187.5,187.5,310,320,-327.5,320,807.5,82.5,M,Роман Быченко,1979,Single-ply,SBD,Open
6,Aleksandr Grushinskiy,82.4,-287.5,290,305,305,187.5,192.5,-197.5,192.5,285,295,-300,295,792.5,82.5,M,Александр Грушинский,1975,Single-ply,SBD,Open
7,Vadim Usanov,81.4,270,-280,-280,270,170,180,-185,180,295,-305,305,305,755,82.5,M,Вадим Усанов,1977,Single-ply,SBD,Open
8,Alexey Zvarykin,82.05,-270,-280,287.5,287.5,165,172.5,-177.5,172.5,280,295,,295,755,82.5,M,Алексей Зварыкин,1979,Single-ply,SBD,Open
9,Timofey Polscha,82.15,250,255,262.5,262.5,155,162.5,167.5,167.5,300,323,-330,323,753,82.5,M,Тимофей Польща,1975,Single-ply,SBD,Open
10,Vitaliy Redyuk,82.5,270,-290,-290,270,180,-187.5,190,190,275,285,-295,285,745,82.5,M,Виталий Редюк,1973,Single-ply,SBD,Open
11,Dmitriy Lubchenkov,81.75,270,-280,282.5,282.5,170,175,-177.5,175,280,-297.5,-297.5,280,737.5,82.5,M,Дмитрий Лубченков,1976,Single-ply,SBD,Open
12,Aleksandr Kokornov,81.95,280,300,-305,300,180,187.5,-192.5,187.5,250,-267.5,-267.5,250,737.5,82.5,M,Александр Кокорнов,1964,Single-ply,SBD,Open
13,Mikhail Epifanov,82.5,275,285,-290,285,170,-180,-180,170,265,280,-300,280,735,82.5,M,Михаил Епифанов,1967,Single-ply,SBD,Open
14,Vladislav Novokreschenov,82.3,-270,270,-282.5,270,175,185,190,190,240,250,257.5,257.5,717.5,82.5,M,Владислав Новокрещенов,1974,Single-ply,SBD,Open
15,Ramil Shafeev,81.6,-255,-265,265,265,155,-165,165,165,270,280,-300,280,710,82.5,M,Рамиль Шафеев,1969,Single-ply,SBD,Open
16,Vladimir Grishaev,81.2,260,272.5,285,285,165,175,-180,175,235,245,,245,705,82.5,M,Владимир Гришаев,1981,Single-ply,SBD,Open
17,Yuriy Kuznetsov,81.2,260,270,,270,-150,150,-155,150,265,280,285,285,705,82.5,M,Юрий Кузнецов,1971,Single-ply,SBD,Open
18,Stepan Bolshak,82.4,260,275,-285,275,160,-172.5,-172.5,160,250,-270,-270,250,685,82.5,M,Степан Большак,1980,Single-ply,SBD,Open
19,Anatoliy Aliev,80.75,250,-265,-265,250,-150,-150,150,150,260,270,-275,270,670,82.5,M,Анатолий Алиев,1980,Single-ply,SBD,Open
20,Vadim Kakhuta,77.6,190,210,220,220,-160,170,-180,170,220,230,-240,230,620,82.5,M,Вадим Кахута,1981,Single-ply,SBD,Open
DQ,Dmitriy Vasilenko,82.15,290,300,-305,300,175,-180,-180,175,-280,-280,,,,82.5,M,Дмитрий Василенко,1975,Single-ply,SBD,Open
DQ,Aleksandr Makarov,82.05,-240,240,250,250,145,150,-152.5,150,-260,-275,-275,,,82.5,M,Александр Макаров,1976,Single-ply,SBD,Open
DQ,Pavel Malygin,82.5,265,275,285,285,-165,-165,-165,,,,,,,82.5,M,Павел Малыгин,1978,Single-ply,SBD,Open
DQ,Aleksey Onofrienko,82.4,275,-285,285,285,-160,-165,-165,,,,,,,82.5,M,Алексей Онофриенко,1974,Single-ply,SBD,Open
DQ,Aleksandr Alekseev,80.5,-285,-285,-285,,,,,,,,,,,82.5,M,Александр Алексеев,1973,Single-ply,SBD,Open
DQ,Sergey Guschin,82.5,-285,-285,-285,,,,,,,,,,,82.5,M,Сергей Гущин,1974,Single-ply,SBD,Open
DQ,Aleksey Pavlov,79.85,-230,-230,-230,,,,,,,,,,,82.5,M,Алексей Павлов,1970,Single-ply,SBD,Open
DQ,Viktor Manishin,80,-240,245,,245,,,,,,,,,,82.5,M,Виктор Манишин,1979,Single-ply,SBD,Open
1,Yuriy Fedorenko,89.5,,,327.5,327.5,,,195,195,,,330,330,852.5,90,M,Юрий Федоренко,1974,Single-ply,SBD,Open
2,Galim Ismagilov,90,,,320,320,,,207.5,207.5,,,320,320,847.5,90,M,Галим Исмагилов,1975,Single-ply,SBD,Open
3,Andrey Sorokin,89.9,,,315,315,,,210,210,,,307.5,307.5,832.5,90,M,Андрей Сорокин,1974,Single-ply,SBD,Open
4,Alexei Malunin,89.4,,,300,300,,,210,210,,,320,320,830,90,M,Алексей Малунин,1978,Single-ply,SBD,Open
5,Anton Bogdanov,88.5,,,310,310,,,200,200,,,295,295,805,90,M,Антон Богданов,1973,Single-ply,SBD,Open
6,Maxim Barkhatov,90,,,305,305,,,200,200,,,300,300,805,90,M,Максим Бархатов,1981,Single-ply,SBD,Open
7,Igor Alikberov,89.5,,,300,300,,,195,195,,,300,300,795,90,M,Игорь Аликберов,1972,Single-ply,SBD,Open
8,Sergey Mortusevich,89.5,,,297.5,297.5,,,185,185,,,302.5,302.5,785,90,M,Сергей Мортусевич,1972,Single-ply,SBD,Open
9,Konstantin Otavin,90,,,280,280,,,192.5,192.5,,,300,300,772.5,90,M,Константин Отавин,1973,Single-ply,SBD,Open
10,Viktor Chernysh,89.8,,,285,285,,,185,185,,,300,300,770,90,M,Виктор Черныш,1964,Single-ply,SBD,Open
11,Aleksandr Durkin,87,,,270,270,,,197.5,197.5,,,297.5,297.5,765,90,M,Александр Дуркин,1972,Single-ply,SBD,Open
12,Dmitriy Ryskalenko,89.9,,,292.5,292.5,,,207.5,207.5,,,265,265,765,90,M,Дмитрий Рыскаленко,1974,Single-ply,SBD,Open
13,Aleksey Gorbachev,89.95,,,290,290,,,205,205,,,270,270,765,90,M,Алексей Горбачев,1979,Single-ply,SBD,Open
14,Sergey Kharitonov,89.7,,,285,285,,,175,175,,,295,295,755,90,M,Сергей Харитонов,1977,Single-ply,SBD,Open
15,Vladimir Sedov,89.8,,,285,285,,,190,190,,,280,280,755,90,M,Владимир Седов,1978,Single-ply,SBD,Open
16,Evgeniy Bokov,88.5,,,295,295,,,190,190,,,260,260,745,90,M,Евгений Боков,1978,Single-ply,SBD,Open
17,Dzhumshud Kurbanov,90,,,290,290,,,175,175,,,280,280,745,90,M,Джумшуд Курбанов,1961,Single-ply,SBD,Open
18,Alexander Butov,89.15,,,290,290,,,170,170,,,280,280,740,90,M,Александр Бутов,1981,Single-ply,SBD,Open
19,Andrey Malyshev,89.7,,,255,255,,,170,170,,,305,305,730,90,M,Андрей Малышев,1967,Single-ply,SBD,Open
20,Andrey Cheremisin,89,,,240,240,,,180,180,,,307.5,307.5,727.5,90,M,Андрей Черемисин,1972,Single-ply,SBD,Open
21,Vyacheslav Smakotin,90,,,280,280,,,167.5,167.5,,,245,245,692.5,90,M,Вячеслав Смакотин,1976,Single-ply,SBD,Open
22,Guram Chikhradze,90,,,250,250,,,140,140,,,255,255,645,90,M,Гурам Чихрадзе,1981,Single-ply,SBD,Open
DQ,Pavel Mitin,88.1,,,,,,,,,,,,,,90,M,Павел Митин,1969,Single-ply,SBD,Open
DQ,D Schekalis,89,,,255,255,,,185,185,,,,,,90,M,Д Щекалис,1969,Single-ply,SBD,Open
DQ,Valeriy Nikishin,85.7,,,260,260,,,175,175,,,,,,90,M,Валерий Никишин,1965,Single-ply,SBD,Open
DQ,Evgeniy Zhukov,88.7,,,295,295,,,175,175,,,,,,90,M,Евгений Жуков,1978,Single-ply,SBD,Open
1,Viktor Smischenko,99.6,,,335,335,,,240,240,,,325,325,900,100,M,Виктор Смищенко,1963,Single-ply,SBD,Open
2,Dmitriy Fedenko,95.25,,,345,345,,,222.5,222.5,,,315,315,882.5,100,M,Дмитрий Феденко,1975,Single-ply,SBD,Open
3,Aleksandr Kuznetsov,97,,,330,330,,,210,210,,,320,320,860,100,M,Александр Кузнецов,1972,Single-ply,SBD,Open
4,Evgeniy Grachev,99.6,,,337.5,337.5,,,192.5,192.5,,,325,325,855,100,M,Евгений Грачев,1973,Single-ply,SBD,Open
5,Andrey Babikov,98.95,,,340,340,,,202.5,202.5,,,310,310,852.5,100,M,Андрей Бабиков,1971,Single-ply,SBD,Open
6,Aleksandr Ushakov,99.15,,,320,320,,,212.5,212.5,,,310,310,842.5,100,M,Александр Ушаков,1979,Single-ply,SBD,Open
7,Konstantin Emets,99.5,,,295,295,,,222.5,222.5,,,320,320,837.5,100,M,Константин Емец,1968,Single-ply,SBD,Open
8,Vladimir Kotkov,99.9,,,320,320,,,195,195,,,315,315,830,100,M,Владимир Котков,1980,Single-ply,SBD,Open
9,Mikhail Chernomorets,99.95,,,342.5,342.5,,,195,195,,,290,290,827.5,100,M,Михаил Черноморец,1977,Single-ply,SBD,Open
10,Sergey Zalozhkov,97.1,,,330,330,,,180,180,,,280,280,790,100,M,Сергей Заложков,1974,Single-ply,SBD,Open
11,Vladimir Vargin,99.1,,,310,310,,,200,200,,,260,260,770,100,M,Владимир Варгин,1963,Single-ply,SBD,Open
12,Vitalii Zholudev,98.9,,,290,290,,,180,180,,,290,290,760,100,M,Виталий Жолудев,1975,Single-ply,SBD,Open
13,Vyacheslav Zelenov,98.9,,,290,290,,,190,190,,,260,260,740,100,M,Вячеслав Зеленов,1965,Single-ply,SBD,Open
14,Sergey Anatskiy,95.35,,,305,305,,,170,170,,,260,260,735,100,M,Сергей Анацкий,1966,Single-ply,SBD,Open
15,Arkadiy Elizarov,99.2,,,265,265,,,195,195,,,260,260,720,100,M,Аркадий Елизаров,1964,Single-ply,SBD,Open
16,Eduard Bogryatsov,99.1,,,250,250,,,200,200,,,240,240,690,100,M,Эдуард Богряцов,1977,Single-ply,SBD,Open
17,A. Litvinov,98.25,,,242.5,242.5,,,205,205,,,240,240,687.5,100,M,А Литвинов,1969,Single-ply,SBD,Open
18,Dmitriy Borisenko,95.9,,,225,225,,,175,175,,,260,260,660,100,M,Дмитрий Борисенко,1982,Single-ply,SBD,Open
DQ,Sergey Apasov,99,,,275,275,,,237.5,237.5,,,,,,100,M,Сергей Апасов,1976,Single-ply,SBD,Open
DQ,Sergey Frolov,99.9,,,,,,,,,,,,,,100,M,Сергей Фролов,1979,Single-ply,SBD,Open
DQ,Eduard Grebenkin,96.7,,,,,,,,,,,,,,100,M,Эдуард Гребенкин,1971,Single-ply,SBD,Open
DQ,A Petrov,98.1,,,,,,,,,,,,,,100,M,А Петров,1971,Single-ply,SBD,Open
DQ,Dmitriy Polikarpov,96.75,,,,,,,,,,,,,,100,M,Дмитрий Поликарпов,1967,Single-ply,SBD,Open
1,Vyacheslav Piskunov,108.7,,,405,405,,,190,190,,,310,310,905,110,M,Вячеслав Пискунов,1951,Single-ply,SBD,Open
2,Igor Medvedev,106.45,,,345,345,,,225,225,,,320,320,890,110,M,Игорь Медведев,1980,Single-ply,SBD,Open
3,Alexei Malyarenko,108.55,,,330,330,,,220,220,,,332.5,332.5,882.5,110,M,Алексей Маляренко,1971,Single-ply,SBD,Open
4,Aleksey Chebotarev,108.2,,,320,320,,,240,240,,,305,305,865,110,M,Алексей Чеботарев,1978,Single-ply,SBD,Open
5,Leonid Akimov,107.6,,,315,315,,,215,215,,,330,330,860,110,M,Леонид Акимов,1975,Single-ply,SBD,Open
6,Dmitriy Sapatov,108.65,,,330,330,,,220,220,,,310,310,860,110,M,Дмитрий Сапатов,1974,Single-ply,SBD,Open
7,Mikhail Mikhaylov,109.95,,,330,330,,,227.5,227.5,,,300,300,857.5,110,M,Михаил Михайлов,1974,Single-ply,SBD,Open
8,Mikhail Novikov,108.05,,,325,325,,,205,205,,,325,325,855,110,M,Михаил Новиков,1976,Single-ply,SBD,Open
9,Alexey Samsonov,107.7,,,305,305,,,245,245,,,292.5,292.5,842.5,110,M,Алексей Самсонов,1974,Single-ply,SBD,Open
10,Evgeniy Kurtsev,107.05,,,332.5,332.5,,,215,215,,,287.5,287.5,835,110,M,Евгений Курцев,1971,Single-ply,SBD,Open
11,Suleyman Bisultanov,110,,,300,300,,,190,190,,,310,310,800,110,M,Сулейман Бисултанов,1964,Single-ply,SBD,Open
12,Maksim Chevernozhenko,109.45,,,315,315,,,192.5,192.5,,,280,280,787.5,110,M,Максим Чеверноженко,1977,Single-ply,SBD,Open
13,Sergey Sidenko,109.05,,,300,300,,,200,200,,,285,285,785,110,M,Сергей Сиденко,1961,Single-ply,SBD,Open
14,Ivan Balakshin,106.95,,,290,290,,,185,185,,,280,280,755,110,M,Иван Балакшин,1970,Single-ply,SBD,Open
15,A Kashpinov,104.35,,,280,280,,,170,170,,,300,300,750,110,M,А Кашпинов,1974,Single-ply,SBD,Open
16,A Eginov,107.9,,,290,290,,,190,190,,,270,270,750,110,M,А Егинов,1975,Single-ply,SBD,Open
17,Dmitriy Permyakov,106.75,,,275,275,,,195,195,,,270,270,740,110,M,Дмитрий Пермяков,1975,Single-ply,SBD,Open
DQ,Oleg Teslikov,109.6,,,277.5,277.5,,,177.5,177.5,,,,,,110,M,Олег Тесликов,1975,Single-ply,SBD,Open
DQ,Dmitriy Greznev,102.8,,,,,,,,,,,,,,110,M,Дмитрий Грезнев,1974,Single-ply,SBD,Open
DQ,Aleksey Rudenko,107.45,,,,,,,,,,,,,,110,M,Алексей Руденко,1979,Single-ply,SBD,Open
DQ,Vladimir Maksimov,107.5,,,,,,,,,,,,,,110,M,Владимир Максимов,1966,Single-ply,SBD,Open
DQ,Igor Gagin,109.1,,,,,,,,,,,,,,110,M,Игорь Гагин,1969,Single-ply,SBD,Open
DQ,Yevgeny Birun,108,,,,,,,,,,,,,,110,M,Евгений Бирун,1973,Single-ply,SBD,Open
1,Alexey Gankov,114.05,,,370,370,,,250,250,,,370,370,990,125,M,Алексей Ганьков,1970,Single-ply,SBD,Open
2,Andrey Malanichev,124.2,,,385,385,,,225,225,,,340,340,950,125,M,Андрей Маланичев,1977,Single-ply,SBD,Open
3,Sergey Burmistrov,114.3,,,367.5,367.5,,,237.5,237.5,,,300,300,905,125,M,Сергей Бурмистров,1969,Single-ply,SBD,Open
4,Vyacheslav Karkh,118.65,,,320,320,,,235,235,,,280,280,835,125,M,Вячеслав Карх,1967,Single-ply,SBD,Open
5,Sergey Grinyaev,123,,,330,330,,,200,200,,,305,305,835,125,M,Сергей Гриняев,1977,Single-ply,SBD,Open
6,Andrey Schukin,120,,,330,330,,,195,195,,,305,305,830,125,M,Андрей Щукин,1966,Single-ply,SBD,Open
7,Viktor Kishkunov,124,,,330,330,,,210,210,,,290,290,830,125,M,Виктор Кишкунов,1965,Single-ply,SBD,Open
8,Sergey Volkov,111.65,,,315,315,,,195,195,,,290,290,800,125,M,Сергей Волков,1977,Single-ply,SBD,Open
9,Viktor Chindarov,121.7,,,290,290,,,192.5,192.5,,,300,300,782.5,125,M,Виктор Чиндаров,1961,Single-ply,SBD,Open
10,Oleg Manuylov,113.8,,,295,295,,,195,195,,,280,280,770,125,M,Олег Мануйлов,1975,Single-ply,SBD,Open
11,Gennadiy Rybin,117.15,,,307.5,307.5,,,190,190,,,272.5,272.5,770,125,M,Геннадий Рыбин,1959,Single-ply,SBD,Open
DQ,Mikhail Bulychev,124.4,,,,,,,,,,,,,,125,M,Михаил Булычев,1973,Single-ply,SBD,Open
DQ,Sergey Ovsyannikov,119.9,,,,,,,,,,,,,,125,M,Сергей Овсянников,1979,Single-ply,SBD,Open
1,Yuriy Fomin,146.9,,,408,408,,,260,260,,,385,385,1053,125+,M,Юрий Фомин,1969,Single-ply,SBD,Open
2,Oleg Gagin,141,,,385,385,,,242.5,242.5,,,310,310,937.5,125+,M,Олег Гагин,1975,Single-ply,SBD,Open
3,Nikolay Guryanov,141.8,,,350,350,,,210,210,,,345,345,905,125+,M,Николай Гурьянов,1978,Single-ply,SBD,Open
4,Andrey Topilskiy,144.15,,,345,345,,,217.5,217.5,,,280,280,842.5,125+,M,Андрей Топильский,1969,Single-ply,SBD,Open
5,Arkadiy Vasnetsov,147.25,,,330,330,,,190,190,,,300,300,820,125+,M,Аркадий Васнецов,1976,Single-ply,SBD,Open
6,Sergey Ryzhkov,130.7,,,325,325,,,210,210,,,260,260,795,125+,M,Сергей Рыжков,1979,Single-ply,SBD,Open
7,Vyacheslav Aksenov,125.1,,,262.5,262.5,,,162.5,162.5,,,280,280,705,125+,M,Вячеслав Аксенов,1981,Single-ply,SBD,Open
DQ,Andrey Moroz,139.5,,,,,,,,,,,,,,125+,M,Андрей Мороз,1965,Single-ply,SBD,Open
DQ,Igor Nastynov,159.2,,,,,,,,,,,,,,125+,M,Игорь Настынов,1961,Single-ply,SBD,Open
DQ,Aleksandr Sirotkin,127.3,,,,,,,,,,,,,,125+,M,Александр Сироткин,1961,Single-ply,SBD,Open
1,Natalya Shapovalova,43.5,125,132.5,140,140,65,70,-75,70,135,145,152.5,152.5,362.5,44,F,Наталья Шаповалова,1983,Single-ply,SBD,Open
2,Natalia I,44,127.5,137.5,142.5,142.5,70,-75,-75,70,135,142.5,150,150,362.5,44,F,Наталья И,1978,Single-ply,SBD,Open
3,Natalya Kolesnikova,44,102.5,112.5,120,120,-57.5,57.5,60,60,97.5,110,120,120,300,44,F,Наталия Колесникова,1975,Single-ply,SBD,Open
4,Natalya Tokareva,44,-115,115,125,125,45,50,52.5,52.5,110,117.5,-122.5,117.5,295,44,F,Наталья Токарева,1984,Single-ply,SBD,Open
5,Natalya Tulina,43.8,107.5,112.5,117.5,117.5,-55,55,60,60,107.5,115,-120,115,292.5,44,F,Наталья Тулина,1959,Single-ply,SBD,Open
6,Natalya Krikunova,44,105,110,-115,110,57.5,-62.5,-62.5,57.5,110,122.5,-132.5,122.5,290,44,F,Наталья Крикунова,1981,Single-ply,SBD,Open
7,Gulfiya Timofeeva,42.9,100,105,107.5,107.5,52.5,55,57.5,57.5,97.5,105,110,110,275,44,F,Гульфия Тимофеева,1948,Single-ply,SBD,Open
8,Olga Golubeva,44,95,100,102.5,102.5,50,52.5,-55,52.5,110,115,-117.5,115,270,44,F,Ольга Голубева,1970,Single-ply,SBD,Open
9,Anna Alekseeva,44,95,-100,100,100,52.5,-55,,52.5,110,-117.5,-117.5,110,262.5,44,F,Анна Алексеева,1976,Single-ply,SBD,Open
10,Inga Grineva,44,-100,100,102.5,102.5,47.5,-50,-50,47.5,110,-120,-120,110,260,44,F,Инга Гринева,1976,Single-ply,SBD,Open
11,Kseniya Karelina,44,-85,85,-95,85,52.5,-57.5,-57.5,52.5,-100,100,102.5,102.5,240,44,F,Ксения Карелина,1980,Single-ply,SBD,Open
1,Tatyana Eltsova,47.65,155,165,,165,80,85,87.5,87.5,135,147.5,152.5,152.5,405,48,F,Татьяна Ельцова,1978,Single-ply,SBD,Open
2,Olga Legotkina,48,135,140,145,145,65,-70,-70,65,135,145,150,150,360,48,F,Ольга Леготкина,1976,Single-ply,SBD,Open
3,Larisa Akhtyamova,48,110,115,120,120,-52.5,52.5,55,55,115,120,125,125,300,48,F,Лариса Ахтямова,1977,Single-ply,SBD,Open
4,Natalya Mikhaylova,48,107.5,112.5,-115,112.5,60,-62.5,-62.5,60,117.5,120,-122.5,120,292.5,48,F,Наталья Михайлова,1979,Single-ply,SBD,Open
5,Tatyana Vasilyeva,47.8,-105,-105,105,105,-57.5,57.5,-60,57.5,117.5,-127.5,-127.5,117.5,280,48,F,Татьяна Васильева,1974,Single-ply,SBD,Open
6,Anastasiya Abasova,47.1,80,95,-100,95,45,50,-55,50,90,100,105,105,250,48,F,Анастасия Абасова,1984,Single-ply,SBD,Open
7,Natalya Burtseva,47.7,80,85,-87.5,85,-47.5,47.5,50,50,-105,107.5,-110,107.5,242.5,48,F,Наталья Бурцева,1971,Single-ply,SBD,Open
1,Irina Sidorova,51.5,155,165,175,175,82.5,87.5,-92.5,87.5,170,177.5,-182.5,177.5,440,52,F,Ирина Сидорова,1975,Single-ply,SBD,Open
2,Svetlana Nikolaenko,51.6,160,165,-170,165,90,95,-100,95,140,152.5,157.5,157.5,417.5,52,F,Светлана Николаенко,1979,Single-ply,SBD,Open
3,Natalya Ivanova,51.85,162.5,-167.5,167.5,167.5,80,85,-87.5,85,157.5,162.5,-165,162.5,415,52,F,Наталья Иванова,1964,Single-ply,SBD,Open
4,Marina Gaptugaleeva,51.8,150,160,-167.5,160,-77.5,77.5,85,85,150,-162.5,-167.5,150,395,52,F,Марина Гаптугалеева,1981,Single-ply,SBD,Open
5,Tatyana Zebarova,51.15,130,140,145,145,75,80,-85,80,155,162.5,-165,162.5,387.5,52,F,Татьяна Зебарова,1967,Single-ply,SBD,Open
6,Anzhelika Smirnova,48.7,-150,150,155,155,70,75,-77.5,75,145,150,-155,150,380,52,F,Анжелика Смирнова,1982,Single-ply,SBD,Open
7,Irina Kryukova,51.6,110,120,125,125,60,70,75,75,115,125,135,135,335,52,F,Ирина Крюкова,1979,Single-ply,SBD,Open
8,Svetlana Prigovorova,51.65,115,120,125,125,65,-70,70,70,115,120,-122.5,120,315,52,F,Светлана Приговорова,1976,Single-ply,SBD,Open
9,Elena Vorobyeva,50.7,110,-117.5,117.5,117.5,60,-65,-65,60,120,-132.5,132.5,132.5,310,52,F,Елена Воробьева,1978,Single-ply,SBD,Open
10,Elena Lebedeva,51.4,110,115,-117.5,115,62.5,65,-67.5,65,120,-135,-135,120,300,52,F,Елена Лебедева,1974,Single-ply,SBD,Open
11,Yuliya Popova,51.4,110,120,-127.5,120,-67.5,67.5,70,70,95,100,-102.5,100,290,52,F,Юлия Попова,1985,Single-ply,SBD,Open
12,Olga Demchenko,52,95,100,-102.5,100,47.5,-50,-50,47.5,100,-117.5,117.5,117.5,265,52,F,Ольга Демченко,1977,Single-ply,SBD,Open
13,Alena Ryzhkova,52,-95,95,-100,95,50,-52.5,52.5,52.5,110,-117.5,-117.5,110,257.5,52,F,Алена Рыжкова,1979,Single-ply,SBD,Open
DQ,Valentina Morozova,52,-155,-155,155,155,-77.5,,-77.5,,,,,,,52,F,Валентина Морозова,1960,Single-ply,SBD,Open
DQ,Yuliya Vasina,49.25,-130,-140,-140,,,,,,,,,,,52,F,Юлия Васина,1982,Single-ply,SBD,Open
DQ,Natalya Ushakova,51.65,-120,-120,-120,,,,,,,,,,,52,F,Наталья Ушакова,1965,Single-ply,SBD,Open
1,Inna Filimonova #1,54.2,180,195,-202.5,195,85,90,-95,90,170,175,-180,175,460,56,F,Инна Филимонова,1976,Single-ply,SBD,Open
2,Elena Petrunina,54.25,170,175,180,180,90,97.5,-100,97.5,165,170,-185,170,447.5,56,F,Елена Петрунина,1976,Single-ply,SBD,Open
3,Yelena Perfilyeva,56,172.5,180,185,185,87.5,90,-92.5,90,155,160,-165,160,435,56,F,Елена Перфильева,1978,Single-ply,SBD,Open
4,Elena Nikulina,55.1,150,-157.5,157.5,157.5,75,-82.5,82.5,82.5,150,160,165,165,405,56,F,Елена Никулина,1977,Single-ply,SBD,Open
5,Svetlana Samar,56,-152.5,-155,155,155,-80,-82.5,82.5,82.5,140,147.5,155,155,392.5,56,F,Светлана Самар,1979,Single-ply,SBD,Open
6,Olga Belyakova,55.1,130,140,150,150,70,75,-80,75,140,150,160,160,385,56,F,Ольга Белякова,1980,Single-ply,SBD,Open
7,Natalya Igosheva,55.9,140,-147.5,-147.5,140,82.5,90,-92.5,90,-130,130,147.5,147.5,377.5,56,F,Наталья Игошева,1981,Single-ply,SBD,Open
8,Tatyana Dolguy,54.6,137.5,-145,147.5,147.5,80,-85,-85,80,140,147.5,-152.5,147.5,375,56,F,Татьяна Долгуй,1980,Single-ply,SBD,Open
9,Anastasiya Panferova,54.95,140,-147.5,150,150,65,-67.5,67.5,67.5,140,-147.5,-147.5,140,357.5,56,F,Анастасия Панферова,1980,Single-ply,SBD,Open
10,Venera Abdullina,55.5,120,125,-130,125,60,-65,65,65,150,160,-165,160,350,56,F,Венера Абдуллина,1973,Single-ply,SBD,Open
11,Tatyana Gavrilova,55.5,130,135,140,140,65,70,-75,70,130,140,-145,140,350,56,F,Татьяна Гаврилова,1963,Single-ply,SBD,Open
12,Olga Lavrenova,55.25,120,125,127.5,127.5,82.5,-85,85,85,127.5,132.5,,132.5,345,56,F,Ольга Лавренова,1982,Single-ply,SBD,Open
13,Larisa Sviderskaya,55.5,132.5,-137.5,137.5,137.5,67.5,70,72.5,72.5,130,135,-140,135,345,56,F,Лариса Свидерская,1967,Single-ply,SBD,Open
14,Elena Kopa,55.6,-125,125,132.5,132.5,70,-75,-77.5,70,130,140,,140,342.5,56,F,Елена Копа,1970,Single-ply,SBD,Open
15,Anna Marieva,55.5,-120,-125,130,130,72.5,77.5,80,80,122.5,-130,-130,122.5,332.5,56,F,Анна Мариева,1977,Single-ply,SBD,Open
16,Anna Pudovkina,55.2,120,130,140,140,-50,52.5,55,55,120,-130,130,130,325,56,F,Анна Пудовкина,1981,Single-ply,SBD,Open
17,Vera Gubanova,56,-120,130,-135,130,60,-65,-65,60,-130,130,-150,130,320,56,F,Вера Губанова,1961,Single-ply,SBD,Open
18,Vera Anisimova,55.8,125,-135,-135,125,60,-65,67.5,67.5,115,122.5,-125,122.5,315,56,F,Вера Анисимова,1982,Single-ply,SBD,Open
DQ,Galina Lyubeznaya,55.9,-160,160,-170,160,-90,-90,-90,,,,,,,56,F,Галина Любезная,1980,Single-ply,SBD,Open
DQ,Valentina Filina,56,-130,-130,-130,,,,,,,,,,,56,F,Валентина Филина,1977,Single-ply,SBD,Open
1,Irina Abramova,59.3,205,-215,220,220,105,110,-115,110,205,215,220,220,550,60,F,Ирина Абрамова,1974,Single-ply,SBD,Open
2,Elena Fomina,59.6,192.5,205,-215,205,117.5,125,-130,125,190,200,-207.5,200,530,60,F,Елена Фомина,1969,Single-ply,SBD,Open
3,Viktoriya Petukhova,58.6,165,175,-185,175,-80,80,90,90,160,170,177.5,177.5,442.5,60,F,Виктория Петухова,1977,Single-ply,SBD,Open
4,Veronika Kanutkina,60,160,170,180,180,82.5,90,-92.5,90,155,165,172.5,172.5,442.5,60,F,Вероника Кануткина,1979,Single-ply,SBD,Open
5,Anastasia Yakovleva,59.7,165,170,172.5,172.5,-85,-85,85,85,160,165,-170,165,422.5,60,F,Анастасия Яковлева,1983,Single-ply,SBD,Open
6,Elena Bukina,60,150,157.5,160,160,-75,75,82.5,82.5,150,160,167.5,167.5,410,60,F,Елена Букина,1971,Single-ply,SBD,Open
7,Anastasia Sukhacheva,59.4,152.5,160,-165,160,-77.5,-77.5,77.5,77.5,162.5,170,-175,170,407.5,60,F,Анастасия Сухачева,1980,Single-ply,SBD,Open
8,Olga Pantina,60,155,-165,165,165,75,82.5,-85,82.5,140,-145,-145,140,387.5,60,F,Ольга Пантина,1979,Single-ply,SBD,Open
9,Lyubov Loschinina,60,145,150,-155,150,65,-70,-70,65,160,-167.5,-167.5,160,375,60,F,Любовь Лощинина,1974,Single-ply,SBD,Open
10,Olga Bakhtyonova,59.7,-140,140,150,150,65,-67.5,-67.5,65,140,155,-160,155,370,60,F,Ольга Бахтёнова,1980,Single-ply,SBD,Open
11,Svetlana Tsvetkova,59.8,140,145,-147.5,145,60,65,67.5,67.5,140,145,150,150,362.5,60,F,Светлана Цветкова,1980,Single-ply,SBD,Open
12,Anastasiya Bulkina,59.9,-100,100,-107.5,100,62.5,67.5,-70,67.5,125,130,-142.5,130,297.5,60,F,Анастасия Булкина,1978,Single-ply,SBD,Open
DQ,Olga Yurchenko,59.6,150,-157.5,-157.5,150,55,60,-62.5,60,-150,-160,-160,,,60,F,Ольга Юрченко,1970,Single-ply,SBD,Open
DQ,Marina Antsiferova,58.5,-160,,,,,,,,,,,,,60,F,Марина Анциферова,1976,Single-ply,SBD,Open
1,Marina Kudinova,67.3,235,245,-250,245,135,-140,-140,135,215,227.5,,227.5,607.5,67.5,F,Марина Кудинова,1977,Single-ply,SBD,Open
2,Natalya Magula,67.45,200,210,-217.5,210,107.5,-112.5,-112.5,107.5,190,200,,200,517.5,67.5,F,Наталья Магула,1966,Single-ply,SBD,Open
3,Olga Chumincheva,67.5,180,190,-195,190,100,-110,110,110,175,185,195,195,495,67.5,F,Ольга Чуминчева,1976,Single-ply,SBD,Open
4,Inna Zakharova,66.9,177.5,-190,195,195,85,95,100,100,175,185,-195,185,480,67.5,F,Инна Захарова,1976,Single-ply,SBD,Open
5,Marina Ananieva,66.4,150,-160,165,165,77.5,85,-87.5,85,175,185,195,195,445,67.5,F,Марина Ананьева,1981,Single-ply,SBD,Open
6,Danna Maschenko,67.5,-160,165,170,170,85,90,95,95,140,150,-155,150,415,67.5,F,Данна Мащенко,1977,Single-ply,SBD,Open
7,Natalya Mirzoeva,65.95,-150,-150,150,150,75,80,85,85,155,-165,-165,155,390,67.5,F,Наталья Мирзоева,1968,Single-ply,SBD,Open
8,Elena Korzunova,66.1,150,-160,160,160,72.5,-77.5,77.5,77.5,150,-162.5,-162.5,150,387.5,67.5,F,Елена Корзунова,1974,Single-ply,SBD,Open
9,Nadezhda Rastorgueva,67.2,145,155,160,160,80,-82.5,-82.5,80,145,-160,-160,145,385,67.5,F,Надежда Расторгуева,1958,Single-ply,SBD,Open
10,Natalya Bogatova,63.35,145,155,-160,155,82.5,-87.5,-87.5,82.5,-135,135,145,145,382.5,67.5,F,Наталья Богатова,1965,Single-ply,SBD,Open
11,Tatyana Kudryashova,66.9,140,145,-147.5,145,-70,70,-72.5,70,160,-170,,160,375,67.5,F,Татьяна Кудряшова,1953,Single-ply,SBD,Open
12,Evgeniya Fedortsova,65.3,140,150,-160,150,72.5,77.5,-82.5,77.5,140,-150,,140,367.5,67.5,F,Евгения Федорцова,1973,Single-ply,SBD,Open
13,Yuliya Epikhina,66.6,127.5,135,140,140,60,-65,-65,60,137.5,152.5,172.5,172.5,372.5,67.5,F,Юлия Епихина,1978,Single-ply,SBD,Open
14,Larisa Schepina,67.5,137.5,-147.5,-147.5,137.5,80,85,-87.5,85,130,-140,-140,130,352.5,67.5,F,Лариса Щепина,1970,Single-ply,SBD,Open
15,Galina Tsukanova,66.4,117.5,-127.5,127.5,127.5,60,-65,-65,60,127.5,132.5,137.5,137.5,325,67.5,F,Галина Цуканова,1964,Single-ply,SBD,Open
DQ,Oksana Prokofeva,67.5,150,-162.5,-162.5,150,-82.5,-85,-85,,,,,,,67.5,F,Оксана Прокофьева,1979,Single-ply,SBD,Open
DQ,Elena Sheverdina,67.1,-147.5,-147.5,-147.5,,,,,,,,,,,67.5,F,Елена Шевердина,1968,Single-ply,SBD,Open
DQ,Aleksandra Yudintseva,67.3,-150,-160,-160,,,,,,,,,,,67.5,F,Александра Юдинцева,1972,Single-ply,SBD,Open
DQ,Lyudmila Yurinskaya,66.3,-155,,-155,,,,,,,,,,,67.5,F,Людмила Юринская,1970,Single-ply,SBD,Open
1,Svetlana Dedyulya,74.3,220,230,237.5,237.5,-150,150,-160,150,200,210,215,215,602.5,75,F,Светлана Дедюля,1975,Single-ply,SBD,Open
2,Anna Terentyeva,73.8,200,-210,210,210,135,-145,-145,135,-200,200,,200,545,75,F,Анна Терентьева,1975,Single-ply,SBD,Open
3,Mariia Panferova,73.2,160,167.5,172.5,172.5,85,-90,-90,85,145,152.5,155,155,412.5,75,F,Мария Панферова,1977,Single-ply,SBD,Open
4,Svetlana Korobeynikova,70.55,-130,130,145,145,85,90,95,95,150,-162.5,162.5,162.5,402.5,75,F,Светлана Коробейникова,1979,Single-ply,SBD,Open
5,Svetlana Samokhina,67.85,125,135,145,145,90,97.5,102.5,102.5,130,142.5,,142.5,390,75,F,Светлана Самохина,1975,Single-ply,SBD,Open
6,Svetlana Gorbachenko,74.1,145,150,-152.5,150,75,80,82.5,82.5,140,145,152.5,152.5,385,75,F,Светлана Горбаченко,1981,Single-ply,SBD,Open
7,Oksana Ageeva,73.45,-150,150,-155,150,65,-70,70,70,145,152.5,-157.5,152.5,372.5,75,F,Оксана Агеева,1979,Single-ply,SBD,Open
1,Natalya Rumyantseva,81.45,220,230,-240,230,140,-150,155,155,210,-220,220,220,605,82.5,F,Наталья Румянцева,1971,Single-ply,SBD,Open
2,Olesya Rychkova,80.2,-220,220,230,230,130,-140,-140,130,230,-240,-245,230,590,82.5,F,Олеся Рычкова,1974,Single-ply,SBD,Open
3,Irina Naskripnyak,82.25,-145,145,155,155,105,-112.5,112.5,112.5,120,130,142.5,142.5,410,82.5,F,Ирина Наскрипняк,1969,Single-ply,SBD,Open
4,Elena Baskakova,78,145,160,165,165,65,-70,70,70,150,162.5,-170,162.5,397.5,82.5,F,Елена Баскакова,1975,Single-ply,SBD,Open
5,Yuliya Matveeva,75.35,132.5,142.5,152.5,152.5,72.5,77.5,80,80,-132.5,135,-137.5,135,367.5,82.5,F,Юлия Матвеева,1981,Single-ply,SBD,Open
DQ,Elena Ignatenkova,82,,,,,,,,,,,,,,82.5,F,Елена Игнатенкова,1971,Single-ply,SBD,Open
1,Alla Korshunova,88.1,200,215,,215,127.5,135,137.5,137.5,230,245,257.5,257.5,610,90,F,Алла Коршунова,1968,Single-ply,SBD,Open
2,Yulia Kurina,87.4,200,220,230,230,90,-100,100,100,180,190,-207.5,190,520,90,F,Юлия Курина,1981,Single-ply,SBD,Open
3,Svetlana Lysenko,86.2,-110,110,-120,110,50,55,-60,55,110,120,125,125,290,90,F,Светлана Лысенко,1978,Single-ply,SBD,Open
1,Natalya Zotova,90.2,220,230,240,240,150,-157.5,157.5,157.5,225,235,243,243,640.5,90+,F,Наталья Зотова,1975,Single-ply,SBD,Open
2,Galina Karpova,97.5,230,-240,245,245,130,140,145,145,205,210,215,215,605,90+,F,Галина Карпова,1968,Single-ply,SBD,Open
3,Elena Avilkina,103.9,210,240,255,255,115,125,-130,125,190,205,-217.5,205,585,90+,F,Елена Авилкина,1977,Single-ply,SBD,Open
4,Laura Hodzhamkulova,128,-200,210,-220,210,120,-130,130,130,-200,200,-210,200,540,90+,F,Лаура Ходжамкулова,1961,Single-ply,SBD,Open
5,Elena Kurbakova,106,180,-195,195,195,120,125,130,130,150,160,-165,160,485,90+,F,Елена Курбакова,1976,Single-ply,SBD,Open
6,Galina Dubova,92.2,130,-140,-140,130,85,-90,90,90,130,135,-140,135,355,90+,F,Галина Дубова,1960,Single-ply,SBD,Open
