Place,Name,Sex,Event,Division,WeightClassKg,Equipment,BirthYear,Team,State,BodyweightKg,Squat1Kg,Squat2Kg,Squat3Kg,Best3SquatKg,Bench1Kg,Bench2Kg,Bench3Kg,Best3BenchKg,Deadlift1Kg,Deadlift2Kg,Deadlift3Kg,Best3DeadliftKg,TotalKg
1,Philip Cipriano,M,B,MR-Jr,74,Raw,1997,,RI,73.7,,,,,-112.5,112.5,125,125,,,,,125
1,Jaime Goncalves,M,B,MR-Jr,93,Raw,1994,,MA,89.6,,,,,-142.5,142.5,147.5,147.5,,,,,147.5
1,Jaime Goncalves,M,B,MR-O,93,Raw,1994,,MA,89.6,,,,,-142.5,142.5,147.5,147.5,,,,,147.5
1,Les Greene,M,D,M-M,93,Single-ply,1970,,MA,85.3,,,,,,,,,245,265,272.5,272.5,272.5
1,Jaime Goncalves,M,D,MR-Jr,93,Raw,1994,,MA,89.6,,,,,,,,,282.5,292.5,-300,292.5,292.5
1,Jaime Goncalves,M,D,MR-O,93,Raw,1994,,MA,89.6,,,,,,,,,282.5,292.5,-300,292.5,292.5
1,Jessie Hoffman,F,SBD,FR-Jr,57,Raw,1997,,MA,56.9,92.5,97.5,-102.5,97.5,57.5,62.5,-65,62.5,110,115,120,120,280
1,Sharmin Mahmud,F,SBD,FR-Jr,63,Raw,1996,Northeastern University,MA,61.9,-125,125,-127.5,125,62.5,-67.5,-67.5,62.5,125,-130,-130,125,312.5
2,Kelly Wetmore,F,SBD,FR-Jr,63,Raw,1996,,CT,61.5,105,112.5,117.5,117.5,45,47.5,50,50,122.5,132.5,140,140,307.5
1,Tina Zheng,F,SBD,FR-Jr,72,Raw,1997,Northeastern University,MA,70.6,127.5,137.5,-140,137.5,67.5,72.5,75,75,125,140,-155,140,352.5
2,Britni Spring,F,SBD,FR-Jr,72,Raw,1994,,NH,63.3,110,117.5,125,125,67.5,75,-77.5,75,140,150,-160,150,350
3,Kit Ying Lam,F,SBD,FR-Jr,72,Raw,1996,Northeastern University,MA,70.4,115,-122.5,-130,115,52.5,60,-62.5,60,140,150,-162.5,150,325
4,Sam Grubbs,F,SBD,FR-Jr,72,Raw,1997,,NH,69.8,87.5,95,100,100,47.5,52.5,-57.5,52.5,92.5,100,110,110,262.5
1,Niesa Nelson,F,SBD,FR-Jr,84,Raw,1996,,NY,73.4,95,102.5,110,110,70,-75,-75,70,135,145,150,150,330
1,Kathleen Cavanaugh,F,SBD,FR-Jr,84+,Raw,1994,,CT,110.3,-92.5,92.5,-110,92.5,35,-42.5,45,45,102.5,115,125,125,262.5
1,Debra Ansanitis,F,SBD,FR-M,57,Raw,1955,,MA,56.5,70,75,-77.5,75,47.5,52.5,-55,52.5,102.5,110,112.5,112.5,240
1,Wendy Mark,F,SBD,FR-M,63,Raw,1962,,MA,59.6,57.5,65,-70,65,35,40,-42.5,40,97.5,102.5,-107.5,102.5,207.5
DQ,Rebecca Townsend,F,SBD,FR-M,63,Raw,1973,,MA,62.5,95,102.5,105,105,47.5,52.5,-55,52.5,-130,-137.5,-137.5,,
1,Beatriz Gonzalez,F,SBD,FR-M,72,Raw,1971,,MA,64,-85,-85,85,85,50,-55,-55,50,127.5,132.5,135,135,270
2,Debby Pintsopoulos,F,SBD,FR-M,72,Raw,1973,,MA,71.4,65,70,75,75,50,52.5,-55,52.5,97.5,110,-117.5,110,237.5
1,Sheryl Miller,F,SBD,FR-M,84+,Raw,1975,,MA,94.4,87.5,95,102.5,102.5,-52.5,57.5,-60,57.5,117.5,127.5,-137.5,127.5,287.5
1,Grace Chang,F,SBD,FR-O,52,Raw,1990,,MA,49,80,87.5,92.5,92.5,37.5,40,42.5,42.5,75,80,85,85,220
1,Jesica Swisher,F,SBD,FR-O,57,Raw,1984,,RI,56.6,95,100,105,105,52.5,55,-60,55,137.5,-145,-145,137.5,297.5
2,Kelly Tonini,F,SBD,FR-O,57,Raw,1981,,MA,56.7,85,92.5,100,100,57.5,-62.5,-62.5,57.5,125,135,140,140,297.5
3,Valeria Herrera,F,SBD,FR-O,57,Raw,1996,,CT,53.1,-82.5,95,100,100,37.5,47.5,-52.5,47.5,87.5,100,107.5,107.5,255
4,Ava Zamecnik,F,SBD,FR-O,57,Raw,1992,,CT,54.2,-70,75,80,80,42.5,45,,45,90,97.5,102.5,102.5,227.5
1,Kelly Wetmore,F,SBD,FR-O,63,Raw,1996,,CT,61.5,105,112.5,117.5,117.5,45,47.5,50,50,122.5,132.5,140,140,307.5
2,Danielle Nguyen,F,SBD,FR-O,63,Raw,1989,,MA,62.8,-110,115,120,120,57.5,65,-72.5,65,112.5,-125,-125,112.5,297.5
3,Nicole Iden,F,SBD,FR-O,63,Raw,1978,,NY,61.6,105,110,-115,110,55,60,-62.5,60,102.5,107.5,-115,107.5,277.5
4,Orla Spillane,F,SBD,FR-O,63,Raw,1978,,MA,60.3,90,-102.5,102.5,102.5,40,45,-50,45,105,120,-130,120,267.5
5,Rebecca Alves,F,SBD,FR-O,63,Raw,1978,,MA,58.6,62.5,-70,72.5,72.5,32.5,37.5,42.5,42.5,82.5,92.5,-100,92.5,207.5
DQ,Rebecca Townsend,F,SBD,FR-O,63,Raw,1973,,MA,62.5,95,102.5,105,105,47.5,52.5,-55,52.5,-130,-137.5,-137.5,,
1,Sinead Gill,F,SBD,FR-O,72,Raw,1991,,MA,66.9,145,147.5,-160,147.5,72.5,-77.5,-77.5,72.5,157.5,165,-177.5,165,385
2,Winfridah Kimaiga,F,SBD,FR-O,72,Raw,1990,,MA,70.8,120,-137.5,137.5,137.5,-67.5,67.5,72.5,72.5,165,175,-182.5,175,385
3,Britni Spring,F,SBD,FR-O,72,Raw,1994,,NH,63.3,110,117.5,125,125,67.5,75,-77.5,75,140,150,-160,150,350
4,Brandy Vu,F,SBD,FR-O,72,Raw,2001,,MA,69.6,117.5,125,130,130,52.5,-57.5,57.5,57.5,125,130,135,135,322.5
5,Nicole Flynn,F,SBD,FR-O,72,Raw,1992,,CT,71.1,-120,-120,120,120,55,60,65,65,125,132.5,-145,132.5,317.5
6,Sakina Usmanova,F,SBD,FR-O,72,Raw,1985,,MA,70.2,117.5,122.5,-125,122.5,52.5,55,-57.5,55,117.5,125,130,130,307.5
7,Zacharenia Varsamis,F,SBD,FR-O,72,Raw,1990,,MA,71.9,-120,122.5,127.5,127.5,50,55,-62.5,55,115,120,-125,120,302.5
8,Lauren Pimentel,F,SBD,FR-O,72,Raw,2003,,MA,68.1,87.5,95,100,100,47.5,55,-57.5,55,125,135,137.5,137.5,292.5
9,Amanda Groblewski,F,SBD,FR-O,72,Raw,1997,University of Massachusetts,MA,65.8,90,95,100,100,57.5,-60,-60,57.5,107.5,115,120,120,277.5
10,Beatriz Gonzalez,F,SBD,FR-O,72,Raw,1971,,MA,64,-85,-85,85,85,50,-55,-55,50,127.5,132.5,135,135,270
11,Sam Grubbs,F,SBD,FR-O,72,Raw,1997,,NH,69.8,87.5,95,100,100,47.5,52.5,-57.5,52.5,92.5,100,110,110,262.5
12,Kathleen Comeau,F,SBD,FR-O,72,Raw,1994,,MA,70.9,77.5,82.5,-87.5,82.5,37.5,40,-45,40,95,100,105,105,227.5
1,Shannon Croatto,F,SBD,FR-O,84,Raw,1995,Northeastern University,MA,76.9,125,137.5,-142.5,137.5,65,67.5,-70,67.5,140,150,-155,150,355
2,Emily Story,F,SBD,FR-O,84,Raw,1990,,MA,75.5,110,117.5,125,125,52.5,-57.5,57.5,57.5,115,122.5,130,130,312.5
3,Renee Gilberti,F,SBD,FR-O,84,Raw,1981,,CT,73.5,80,85,90,90,50,55,-60,55,135,140,142.5,142.5,287.5
4,Amy Defrancesco,F,SBD,FR-O,84,Raw,1993,,MA,82,95,100,105,105,42.5,47.5,50,50,97.5,102.5,110,110,265
5,Vanessa Valcorba,F,SB,FR-O,84,Raw,1992,,MA,77.6,80,85,92.5,92.5,47.5,-52.5,,47.5,,,,,140
1,Rachel Denis,F,SBD,FR-O,84+,Raw,1985,,NY,98.1,152.5,160,165,165,87.5,-92.5,-92.5,87.5,167.5,172.5,180,180,432.5
2,Ariel Bouvier,F,SBD,FR-O,84+,Raw,1991,,MA,106.4,142.5,150,157.5,157.5,92.5,-97.5,-97.5,92.5,157.5,167.5,-182.5,167.5,417.5
3,Racheal Paveglio,F,SBD,FR-O,84+,Raw,1982,,MA,120.1,135,142.5,-147.5,142.5,-77.5,-77.5,80,80,165,172.5,180,180,402.5
4,Stephanie Parent,F,SBD,FR-O,84+,Raw,1984,,MA,103.3,127.5,135,140,140,82.5,87.5,92.5,92.5,130,137.5,145,145,377.5
5,Michelle Grapel,F,SBD,FR-O,84+,Raw,1981,,NY,99.2,125,130,132.5,132.5,70,-72.5,72.5,72.5,137.5,142.5,-147.5,142.5,347.5
6,Sheryl Miller,F,SBD,FR-O,84+,Raw,1975,,MA,94.4,87.5,95,102.5,102.5,-52.5,57.5,-60,57.5,117.5,127.5,-137.5,127.5,287.5
7,Julia Spotts,F,SBD,FR-O,84+,Raw,2000,,MA,103.6,-75,-85,95,95,-40,45,-50,45,90,105,-115,105,245
1,Lauren Catherine Martires,F,SBD,FR-T,63,Raw,1998,Northeastern University,NV,58.1,90,-95,-95,90,35,37.5,-40,37.5,100,-112.5,112.5,112.5,240
1,Yaqing Guo,F,SBD,FR-T,72,Raw,1998,Northeastern University,MA,70.1,130,-137.5,137.5,137.5,72.5,77.5,80,80,132.5,140,-142.5,140,357.5
2,Loren Klein,F,SBD,FR-T,72,Raw,1998,University of Massachusetts,NJ,68,120,127.5,137.5,137.5,62.5,67.5,-70,67.5,122.5,127.5,-137.5,127.5,332.5
3,Brandy Vu,F,SBD,FR-T,72,Raw,2001,,MA,69.6,117.5,125,130,130,52.5,-57.5,57.5,57.5,125,130,135,135,322.5
4,Lauren Pimentel,F,SBD,FR-T,72,Raw,2003,,MA,68.1,87.5,95,100,100,47.5,55,-57.5,55,125,135,137.5,137.5,292.5
1,Emma DeSanti,F,SBD,FR-Y,84,Raw,2003,,CT,72.9,100,105,110,110,32.5,37.5,-45,37.5,107.5,115,120,120,267.5
1,Joe Rizza,M,SBD,M-M,74,Single-ply,1949,,MA,73.1,-152.5,162.5,-172.5,162.5,25,37.5,-52.5,37.5,152.5,162.5,172.5,172.5,372.5
1,Kevin Sanon,M,SBD,M-O,93,Single-ply,1990,,MA,87.9,227.5,242.5,255,255,130,137.5,145,145,207.5,220,227.5,227.5,627.5
2,Jason Roath,M,SBD,M-O,93,Single-ply,1981,,MA,91.9,145,170,182.5,182.5,137.5,-142.5,-142.5,137.5,220,230,247.5,247.5,567.5
1,Ryan Cooper,M,SBD,MR-HS,59,Raw,1999,St. John's Prep,MA,58.8,117.5,125,132.5,132.5,65,70,77.5,77.5,145,157.5,162.5,162.5,372.5
2,Brian Shin,M,SBD,MR-HS,59,Raw,2000,,CA,58.3,90,-100,105,105,60,65,72.5,72.5,130,145,150,150,327.5
1,Connor Gill,M,SBD,MR-HS,66,Raw,2001,St. John's Prep,MA,63.9,70,77.5,85,85,57.5,-62.5,65,65,85,97.5,110,110,260
2,Kyle Mccabe,M,SBD,MR-HS,66,Raw,2001,St. John's Prep,MA,63.4,80,87.5,92.5,92.5,50,55,-57.5,55,90,102.5,110,110,257.5
3,Jason Corsetti,M,SBD,MR-HS,66,Raw,2000,St. John's Prep,MA,65.8,70,77.5,85,85,-50,55,60,60,75,87.5,100,100,245
1,Peter Olds,M,SBD,MR-HS,74,Raw,2002,St. John's Prep,MA,71.8,77.5,87.5,92.5,92.5,52.5,55,60,60,95,107.5,115,115,267.5
2,Alexander Scopa,M,SBD,MR-HS,74,Raw,2001,St. John's Prep,MA,72.7,75,85,-95,85,50,55,60,60,100,110,122.5,122.5,267.5
3,Oliver Donlon,M,SBD,MR-HS,74,Raw,2000,St. John's Prep,MA,66.8,67.5,75,82.5,82.5,52.5,57.5,62.5,62.5,87.5,100,110,110,255
1,Mitchell Kalogeros,M,SBD,MR-HS,83,Raw,2001,St. John's Prep,MA,82.8,110,117.5,122.5,122.5,87.5,92.5,95,95,155,167.5,175,175,392.5
2,Daniel Wesley,M,SBD,MR-HS,83,Raw,2001,St. John's Prep,MA,79.9,82.5,90,100,100,62.5,67.5,-70,67.5,112.5,122.5,132.5,132.5,300
1,Peter McCarthy,M,SBD,MR-HS,93,Raw,1999,St. John's Prep,MA,89.1,80,87.5,100,100,57.5,62.5,67.5,67.5,97.5,112.5,125,125,292.5
2,Nicholas Lopez,M,SBD,MR-HS,93,Raw,2001,St. John's Prep,NH,86.2,77.5,85,95,95,37.5,45,-50,45,97.5,107.5,115,115,255
1,Andrew Sablone,M,SBD,MR-HS,105,Raw,2003,St. John's Prep,MA,93.9,52.5,60,-65,60,45,50,55,55,70,85,-100,85,200
1,Cole Mooney,M,SBD,MR-HS,120,Raw,2000,St. John's Prep,MA,113.4,-255,-262.5,272.5,272.5,125,130,137.5,137.5,240,252.5,260,260,670
1,Walter Rodas,M,SBD,MR-Jr,59,Raw,1995,,RI,58,140,-155,-160,140,90,95,100,100,155,165,172.5,172.5,412.5
1,Nathaniel Oh,M,SBD,MR-Jr,66,Raw,1996,University of Massachusetts,MA,65.3,155,165,-175,165,100,-105,105,105,165,177.5,185,185,455
1,Shaquille Lyew,M,SBD,MR-Jr,74,Raw,1995,,MA,72.3,165,170,177.5,177.5,142.5,150,-155,150,220,230,235,235,562.5
2,Jason Beckett,M,SBD,MR-Jr,74,Raw,1997,University of Massachusetts,MA,73.7,182.5,-195,-195,182.5,115,120,-125,120,202.5,217.5,227.5,227.5,530
3,Philip Cipriano,M,SBD,MR-Jr,74,Raw,1997,,RI,73.7,150,162.5,170,170,-112.5,112.5,125,125,167.5,177.5,182.5,182.5,477.5
4,Sam Zerega,M,SBD,MR-Jr,74,Raw,1995,,RI,66.3,132.5,140,145,145,100,107.5,-112.5,107.5,157.5,165,-167.5,165,417.5
DQ,Brandon Welch,M,SBD,MR-Jr,74,Raw,1995,,MA,73.9,152.5,160,-172.5,160,-110,-112.5,-112.5,,197.5,-205,205,205,
1,Shawn O'Rourke,M,SBD,MR-Jr,83,Raw,1996,,CT,81.9,-210,210,220,220,162.5,175,-182.5,175,237.5,252.5,-257.5,252.5,647.5
2,Dominic Fusco,M,SBD,MR-Jr,83,Raw,1997,,CT,82.6,-162.5,162.5,177.5,177.5,115,125,-130,125,212.5,225,232.5,232.5,535
3,Nicholas Ferneza,M,SBD,MR-Jr,83,Raw,1997,University of Massachusetts,MA,78.4,152.5,162.5,-170,162.5,90,-95,95,95,205,207.5,227.5,227.5,485
1,Joseph Santaniello,M,SBD,MR-Jr,93,Raw,1997,,MA,90.3,185,190,-200,190,125,130,-137.5,130,235,245,-260,245,565
2,Carlos Carmona,M,SBD,MR-Jr,93,Raw,1994,,MA,89.8,185,195,200,200,122.5,130,137.5,137.5,212.5,225,-235,225,562.5
3,David Pardy,M,SBD,MR-Jr,93,Raw,1997,,RI,93,175,185,190,190,140,147.5,-150,147.5,-205,217.5,225,225,562.5
4,Nicholas Magnotti,M,SBD,MR-Jr,93,Raw,1997,Northeastern University,MA,83.6,180,190,197.5,197.5,115,125,130,130,190,-200,207.5,207.5,535
5,Shaun Ramey,M,SBD,MR-Jr,93,Raw,1997,,MA,83.4,190,-200,-200,190,107.5,112.5,117.5,117.5,207.5,217.5,-227.5,217.5,525
6,Jin Cheng Chen,M,SBD,MR-Jr,93,Raw,1997,Northeastern University,MA,85.2,162.5,170,180,180,102.5,110,115,115,165,175,-187.5,175,470
DQ,Jaime Goncalves,M,SBD,MR-Jr,93,Raw,1994,,MA,89.6,-215,-215,-225,,-142.5,142.5,147.5,147.5,282.5,292.5,-300,292.5,
1,Bruce Le,M,SBD,MR-Jr,105,Raw,1994,,MA,102.5,237.5,252.5,260,260,165,177.5,-182.5,177.5,260,275,-280,275,712.5
2,Alex Aquila,M,SBD,MR-Jr,105,Raw,1995,,MA,97.1,242.5,262.5,-275,262.5,120,127.5,137.5,137.5,272.5,285,-300,285,685
3,Cain Hardisty,M,SBD,MR-Jr,105,Raw,1997,,CT,99.8,155,165,177.5,177.5,107.5,120,-130,120,220,237.5,242.5,242.5,540
4,Intouch Thamthieng,M,SBD,MR-Jr,105,Raw,1997,Northeastern University,MA,95.5,155,165,175,175,110,115,122.5,122.5,155,165,172.5,172.5,470
5,Troy Delampan,M,SBD,MR-Jr,105,Raw,1995,,NH,101.5,165,172.5,177.5,177.5,100,-112.5,-112.5,100,175,182.5,190,190,467.5
1,Spencer Piasecki,M,SBD,MR-Jr,120,Raw,1994,,MA,107,220,232.5,237.5,237.5,140,150,157.5,157.5,245,262.5,-272.5,262.5,657.5
1,Arthur McAleer,M,SBD,MR-M,83,Raw,1968,,NH,81.7,150,157.5,165,165,140,145,-147.5,145,180,187.5,-195,187.5,497.5
2,Nicholas Carola,M,SBD,MR-M,83,Raw,1958,,CT,81.9,155,170,182.5,182.5,87.5,95,-105,95,182.5,200,-210,200,477.5
3,William Leary Jr,M,SBD,MR-M,83,Raw,1970,,MA,82.2,-130,130,140,140,85,90,95,95,175,-182.5,-182.5,175,410
4,Anthony Moriarty,M,SBD,MR-M,83,Raw,1966,,MA,82.3,117.5,122.5,130,130,102.5,110,-115,110,125,132.5,145,145,385
1,William Bombard,M,SBD,MR-M,93,Raw,1963,,MA,90.3,130,140,147.5,147.5,87.5,92.5,100,100,175,182.5,187.5,187.5,435
2,Thomas Mac Whinnie Sr,M,SBD,MR-M,93,Raw,1957,,CT,88.1,62.5,70,77.5,77.5,62.5,70,77.5,77.5,125,142.5,152.5,152.5,307.5
1,Robert Landauer,M,SBD,MR-M,105,Raw,1968,,MA,102.5,170,182.5,200,200,130,-155,-155,130,215,-235,,215,545
1,Walter Rodas,M,SBD,MR-O,59,Raw,1995,,RI,58,140,-155,-160,140,90,95,100,100,155,165,172.5,172.5,412.5
1,Bobby Gendron,M,SBD,MR-O,66,Raw,1995,,MA,66,107.5,115,120,120,77.5,82.5,-87.5,82.5,137.5,147.5,152.5,152.5,355
1,Shaquille Lyew,M,SBD,MR-O,74,Raw,1995,,MA,72.3,165,170,177.5,177.5,142.5,150,-155,150,220,230,235,235,562.5
2,Aaron Gidman,M,SBD,MR-O,74,Raw,1998,,CT,73.3,175,187.5,192.5,192.5,105,115,117.5,117.5,207.5,222.5,-232.5,222.5,532.5
3,Brady Le,M,SBD,MR-O,74,Raw,1999,,MA,70.8,175,182.5,187.5,187.5,90,95,97.5,97.5,200,215,225,225,510
4,Bobby Gendron,M,SBD,MR-O,74,Raw,1995,,CT,71.4,165,177.5,182.5,182.5,112.5,-120,120,120,190,200,-210,200,502.5
5,Patrick McQueen,M,SBD,MR-O,74,Raw,1999,,MA,68.6,127.5,137.5,142.5,142.5,85,92.5,-95,92.5,205,227.5,-230,227.5,462.5
6,Ben Fischer,M,SBD,MR-O,74,Raw,1998,Northeastern University,NH,73.2,155,162.5,-170,162.5,92.5,97.5,-102.5,97.5,180,192.5,200,200,460
7,Sean McClure,M,SBD,MR-O,74,Raw,1963,,MA,73.8,145,160,165,165,112.5,-120,-120,112.5,160,170,182.5,182.5,460
8,Thong Nguyen,M,SBD,MR-O,74,Raw,1992,,MA,68.9,145,147.5,-152.5,147.5,102.5,107.5,110,110,167.5,175,180,180,437.5
9,Jingbo Li,M,SBD,MR-O,74,Raw,1987,University of Massachusetts,MA,70.4,152.5,160,165,165,-85,85,92.5,92.5,165,177.5,-180,177.5,435
1,Shawn O'Rourke,M,SBD,MR-O,83,Raw,1996,,CT,81.9,-210,210,220,220,162.5,175,-182.5,175,237.5,252.5,-257.5,252.5,647.5
2,Andrew Richard,M,SBD,MR-O,83,Raw,1996,University of Massachusetts,MA,82.5,222.5,235,240,240,140,147.5,152.5,152.5,232.5,245,255,255,647.5
3,Edwin Nash,M,SBD,MR-O,83,Raw,1992,,MA,82.5,225,232.5,-240,232.5,145,150,-155,150,242.5,257.5,-267.5,257.5,640
4,David Lotito,M,SBD,MR-O,83,Raw,1993,,MA,81.2,205,212.5,222.5,222.5,100,-105,107.5,107.5,220,230,240,240,570
5,Michael Lewis,M,SBD,MR-O,83,Raw,1989,,MA,79.5,205,215,-227.5,215,115,-125,-125,115,217.5,230,-245,230,560
6,Jonathan Galinsky,M,SBD,MR-O,83,Raw,1997,,MA,82.4,180,187.5,192.5,192.5,115,122.5,127.5,127.5,205,215,225,225,545
7,Matthew Palumberi,M,SBD,MR-O,83,Raw,1990,,MA,81.1,165,170,175,175,120,125,132.5,132.5,190,197.5,210,210,517.5
8,Matthew Cincotta,M,SBD,MR-O,83,Raw,1990,,MA,82,162.5,172.5,-182.5,172.5,115,-125,-125,115,177.5,192.5,-195,192.5,480
9,Andrew Lankarge,M,SBD,MR-O,83,Raw,1996,University of Massachusetts,MA,77.8,127.5,137.5,147.5,147.5,110,115,-120,115,177.5,190,200,200,462.5
10,Jonathan O'Hazo,M,SBD,MR-O,83,Raw,1994,,CT,77.3,142.5,152.5,-157.5,152.5,112.5,122.5,-127.5,122.5,165,172.5,182.5,182.5,457.5
11,William Kotlinski,M,SBD,MR-O,83,Raw,1998,,MA,78.3,132.5,145,-150,145,-77.5,82.5,87.5,87.5,155,167.5,172.5,172.5,405
12,Frank Posca,M,SBD,MR-O,83,Raw,1993,,CT,82.2,102.5,112.5,122.5,122.5,92.5,100,102.5,102.5,137.5,150,155,155,380
1,Michael Mccluskey,M,SBD,MR-O,93,Raw,1991,,MA,84,192.5,205,212.5,212.5,145,152.5,-157.5,152.5,225,237.5,242.5,242.5,607.5
2,Andrew Moontri,M,SBD,MR-O,93,Raw,1993,,MA,92.2,205,207.5,222.5,222.5,122.5,127.5,137.5,137.5,215,225,235,235,595
3,Vuong Nguyen,M,SBD,MR-O,93,Raw,1991,,MA,89.9,165,-170,185,185,120,127.5,-132.5,127.5,220,235,245,245,557.5
4,Sean Blackall,M,SBD,MR-O,93,Raw,1991,,MA,83.3,180,190,-200,190,125,-135,-135,125,207.5,-225,-225,207.5,522.5
5,Jamie Leslie,M,SBD,MR-O,93,Raw,1991,,CT,85.2,162.5,170,180,180,120,122.5,-127.5,122.5,210,-217.5,-217.5,210,512.5
6,Michael Orourke,M,SBD,MR-O,93,Raw,1991,,CT,88.4,165,175,182.5,182.5,112.5,115,117.5,117.5,190,200,202.5,202.5,502.5
7,Preston Trudeau,M,SBD,MR-O,93,Raw,1996,University of Massachusetts,MA,90.4,165,175,182.5,182.5,95,100,-105,100,202.5,212.5,-227.5,212.5,495
8,Jesse Mack,M,SBD,MR-O,93,Raw,1988,,MA,89.1,145,155,162.5,162.5,107.5,112.5,117.5,117.5,170,182.5,190,190,470
9,David DiGiovanni,M,SBD,MR-O,93,Raw,1987,,MA,90.4,155,165,172.5,172.5,82.5,90,-97.5,90,190,200,-202.5,200,462.5
10,Kyle Liang,M,SBD,MR-O,93,Raw,1990,,MA,91.3,167.5,175,-182.5,175,110,-117.5,-117.5,110,145,155,162.5,162.5,447.5
11,William Bombard,M,SBD,MR-O,93,Raw,1963,,MA,90.3,130,140,147.5,147.5,87.5,92.5,100,100,175,182.5,187.5,187.5,435
12,Christopher Carroll,M,SBD,MR-O,93,Raw,1993,,MA,93,-135,135,-155,135,92.5,-105,105,105,142.5,155,-170,155,395
DQ,Jaime Goncalves,M,SBD,MR-O,93,Raw,1994,,MA,89.6,-215,-215,-225,,-142.5,142.5,147.5,147.5,282.5,292.5,-300,292.5,
1,Bruce Le,M,SBD,MR-O,105,Raw,1994,,MA,102.5,237.5,252.5,260,260,165,177.5,-182.5,177.5,260,275,-280,275,712.5
2,Alex Aquila,M,SBD,MR-O,105,Raw,1995,,MA,97.1,242.5,262.5,-275,262.5,120,127.5,137.5,137.5,272.5,285,-300,285,685
3,Daniel Morgan,M,SBD,MR-O,105,Raw,1987,,MA,104.4,225,247.5,262.5,262.5,125,135,140,140,250,272.5,282.5,282.5,685
4,Michael Ciecko,M,SBD,MR-O,105,Raw,1985,,MA,93.4,212.5,225,235,235,147.5,152.5,157.5,157.5,252.5,265,272.5,272.5,665
5,Samuel Choi,M,SBD,MR-O,105,Raw,1991,,NY,102.2,245,255,265,265,150,155,160,160,225,235,-242.5,235,660
6,Michael Proctor,M,SBD,MR-O,105,Raw,1989,,MA,103.2,210,227.5,232.5,232.5,122.5,132.5,-137.5,132.5,215,230,237.5,237.5,602.5
7,Eli Laipson,M,SBD,MR-O,105,Raw,1988,,MA,101.7,192.5,210,217.5,217.5,137.5,145,152.5,152.5,185,200,215,215,585
8,Justin Anderson,M,SBD,MR-O,105,Raw,1970,,MA,103.8,180,185,190,190,105,110,115,115,215,-220,,215,520
9,Christopher Frappier,M,SBD,MR-O,105,Raw,1994,,MA,103.8,170,182.5,185,185,132.5,137.5,-140,137.5,175,180,-182.5,180,502.5
10,Joshua Doyon,M,SBD,MR-O,105,Raw,1989,,MA,100.5,175,190,-200,190,105,110,-120,110,187.5,200,-210,200,500
1,Wesley Knox,M,SBD,MR-O,120,Raw,1995,Northeastern University,MA,119.4,240,255,262.5,262.5,147.5,157.5,160,160,252.5,-272.5,272.5,272.5,695
2,Louie Liu,M,SBD,MR-O,120,Raw,1997,,MA,114.2,220,230,-240,230,125,132.5,137.5,137.5,215,225,237.5,237.5,605
3,Chris Baker,M,SBD,MR-O,120,Raw,1994,,MA,107.7,150,157.5,167.5,167.5,102.5,107.5,-117.5,107.5,182.5,190,195,195,470
1,Tevin Browne,M,SBD,MR-O,120+,Raw,1991,,NY,154.4,305,320,335,335,180,187.5,195,195,300,-315,-315,300,830
2,Soukthiranorrath Insixiengmay,M,SBD,MR-O,120+,Raw,1986,,CT,137.7,-187.5,187.5,195,195,127.5,137.5,-145,137.5,205,232.5,-255,232.5,565
1,Spencer Owens,M,SBD,MR-T,66,Raw,2001,,MA,64,155,160,-167.5,160,-77.5,82.5,92.5,92.5,162.5,-167.5,185,185,437.5
2,Garrett Steinberg,M,SBD,MR-T,66,Raw,1998,University of Rhode Island,RI,65.7,-147.5,157.5,-170,157.5,97.5,105,-107.5,105,157.5,175,-180,175,437.5
1,Aaron Gidman,M,SBD,MR-T,74,Raw,1998,,CT,73.3,175,187.5,192.5,192.5,105,115,117.5,117.5,207.5,222.5,-232.5,222.5,532.5
2,Brady Le,M,SBD,MR-T,74,Raw,1999,,MA,70.8,175,182.5,187.5,187.5,90,95,97.5,97.5,200,215,225,225,510
3,Alec Gay,M,SBD,MR-T,74,Raw,1999,,MA,71.5,157.5,162.5,-165,162.5,107.5,-110,-112.5,107.5,202.5,210,-217.5,210,480
1,Vincent Clark,M,SBD,MR-T,83,Raw,1999,University of Massachusetts,NY,80,175,182.5,-187.5,182.5,112.5,117.5,122.5,122.5,-207.5,215,-225,215,520
2,Josh Hilton,M,SBD,MR-T,83,Raw,2000,,ME,81.5,140,150,157.5,157.5,102.5,107.5,112.5,112.5,200,215,-227.5,215,485
3,Jack Chen,M,SBD,MR-T,83,Raw,1998,,MA,78.2,137.5,145,150,150,97.5,-102.5,-102.5,97.5,137.5,147.5,155,155,402.5
4,William Crawford Jr,M,SBD,MR-T,83,Raw,2002,,NH,76.1,75,-90,-90,75,47.5,52.5,-57.5,52.5,110,117.5,-125,117.5,245
1,Christopher Gao,M,SBD,MR-T,93,Raw,1997,Northeastern University,MA,89.1,175,182.5,192.5,192.5,102.5,110,-115,110,215,227.5,-242.5,227.5,530
2,Sean Quinn,M,SBD,MR-T,93,Raw,1999,University of Massachusetts,MA,91.7,155,162.5,167.5,167.5,85,90,92.5,92.5,155,165,-172.5,165,425
1,Steven Graf,M,SBD,MR-T,105,Raw,1998,,CT,104.6,-205,-205,205,205,152.5,-160,160,160,197.5,202.5,207.5,207.5,572.5
1,Peter Kravtsov,M,BD,MR-M,83,Raw,1946,,NY,75.9,,,,,90,92.5,95,95,160,170,175,175,270
