Name,Division,Sex,Best3SquatKg,Best3BenchKg,Best3DeadliftKg,TotalKg,Event,Equipment,Place,BodyweightKg,WeightClassKg,AgeClass
Heather Hampson,F-E-Open,F,157.5,77.5,155,390,SBD,Single-ply,1,54.6,56,
Sue Hollands,F-E-Open,F,200,87.5,175,462.5,SBD,Single-ply,1,81.5,82.5,49.5-58.5
Marie Thornton,F-E-Open,F,235,95,200,530,SBD,Single-ply,1,95,90+,
Nirmal Bassi,M-E-Open,M,192.5,127.5,200,520,SBD,Single-ply,1,72.9,75,39.5-48.5
Tony Hollands,M-E-Open,M,100,55,130,285,SBD,Single-ply,2,74.2,75,59.5-68.5
Jonathan Mills,M-E-Open,M,255,160,245,660,SBD,Single-ply,1,96.3,100,
Liaquat Ali,M-E-Open,M,250,140,240,630,SBD,Single-ply,1,105.7,110,
Allan Hulme,M-E-Open,M,150,177.5,190,517.5,SBD,Single-ply,2,108.7,110,
Ray Swainston,M-E-Open,M,260,160,265,685,SBD,Single-ply,1,116.2,125,
