Division,Equipment,WeightClassKg,Name,Best3SquatKg,Best3BenchKg,Best3DeadliftKg,TotalKg,BodyweightKg,Age,Event,Sex,Place
Amateur Teen (13-15),Wraps,67.5,Allison Dgien,77.11,54.43,95.25,226.8,66.72,14,SBD,F,1
Amateur Teen (18-19),Wraps,75,Isabella Steed,102.06,56.7,142.88,301.64,71.17,18,SBD,F,1
Amateur Juniors,Wraps,60,Lindsey Seymour,102.06,58.97,113.4,274.42,58.2,22,SBD,F,1
Amateur Open,Wraps,52,Jen Hazzard,65.77,47.63,127.01,240.4,51.89,30,SBD,F,1
Amateur Open,Wraps,56,Lauren Dyer,142.88,65.77,163.29,371.95,55.7,23,SBD,F,1
Amateur Open,Wraps,60,Isle Bastille,117.93,52.16,122.47,292.57,57.83,23,SBD,F,1
Amateur Open,Wraps,67.5,Yvonne DeMara,111.13,58.97,133.81,303.91,65.68,28,SBD,F,1
Amateur Open,Wraps,67.5,Kelly Donahue,90.72,68.04,102.06,260.82,61.46,30,SBD,F,2
Amateur Open,Wraps,67.5,Christina Fournier,90.72,49.9,97.52,238.14,63.5,35,SBD,F,3
Amateur Open,Wraps,67.5,Christina Ranck,63.5,49.9,102.06,215.46,62.6,30,SBD,F,4
Amateur Open,Wraps,75,Kathy Les,129.27,68.04,142.88,340.19,74.12,28,SBD,F,1
Amateur Open,Wraps,75,Bobbejo Kohler,120.2,56.7,142.88,319.78,73.75,39,SBD,F,2
Amateur Open,Wraps,90,Chasity Hogle,133.81,58.97,154.22,347,85.87,25,SBD,F,1
Amateur Open,Wraps,90+,Tasha Chamberlain,97.52,74.84,138.35,310.71,93.44,27,SBD,F,1
Amateur Open,Wraps,90+,Elyse Wadsworth,104.33,58.97,127.01,290.3,107.05,25,SBD,F,2
Amateur Submasters,Wraps,75,Bobbejo Kohler,120.2,56.7,142.88,319.78,73.75,39,SBD,F,1
Amateur Submasters,Wraps,75,Teddy Ramirez,77.11,49.9,97.52,224.53,73.57,37,SBD,F,2
Amateur Masters (40-44),Wraps,56,Jennifer Piazza,81.65,49.9,102.06,233.6,54.88,44,SBD,F,1
Amateur Masters (40-44),Wraps,67.5,Shana Graham,97.52,58.97,133.81,290.3,64.68,42,SBD,F,1
Amateur Masters (40-44),Wraps,90,Lisa Austin,81.65,54.43,113.4,249.48,88.63,42,SBD,F,1
Amateur Masters (45-49),Wraps,75,Patricia Smith,97.52,63.5,115.67,276.69,69.9,45,SBD,F,1
Amateur Masters (50-54),Wraps,67.5,Margaret Thoma,74.84,40.82,108.86,224.53,65.95,54,SBD,F,1
Amateur Masters (55-59),Wraps,75,Deborah Van Langen,63.5,36.29,95.25,195.04,70.13,56,SBD,F,1
Pro Open,Wraps,67.5,Nicole Rinaldi,149.69,99.79,184.84,434.31,65.18,24,SBD,F,1
Pro Open,Wraps,67.5,Victoria Trabucco,124.74,63.5,167.83,356.07,67.4,24,SBD,F,2
Pro Masters (40-44),Wraps,75,Kathy Gasparini,113.4,72.57,127.01,312.98,74.93,41,SBD,F,1
Amateur Open,Raw,75,Danielle Spence,,65.77,138.35,,73.3,25,BD,F,DQ
Amateur Teen (16-17),Wraps,75,Kenny Leitch III,170.1,90.72,204.12,464.93,74.12,17,SBD,M,1
Amateur Teen (18-19),Wraps,82.5,Alexander McCann,179.17,124.74,210.92,514.83,79.02,19,SBD,M,1
Amateur Teen (18-19),Wraps,100,Matthew Williams,251.74,163.29,238.14,653.17,98.43,19,SBD,M,1
Amateur Teen (18-19),Wraps,110,Tyler Van Tassell,183.7,124.74,208.65,517.1,107.5,18,SBD,M,1
Amateur Juniors,Wraps,82.5,Tyler Herrschaft,165.56,122.47,199.58,487.61,81.47,20,SBD,M,1
Amateur Juniors,Wraps,90,Ryan Slavick,185.97,138.35,215.46,539.77,88.09,21,SBD,M,1
Amateur Juniors,Wraps,100,Dylan Leonard,215.46,136.08,285.76,637.3,92.71,21,SBD,M,1
Amateur Juniors,Wraps,100,Andrew Lettieri,229.06,149.69,210.92,589.67,94.62,22,SBD,M,2
Amateur Juniors,Wraps,100,Tyler Pickett,183.7,129.27,201.85,514.83,98.57,21,SBD,M,3
Amateur Open,Wraps,67.5,Ben Schaeffer,154.22,77.11,167.83,399.16,67.36,25,SBD,M,1
Amateur Open,Wraps,75,Thomas Van Langen,167.83,138.35,215.46,521.63,73.66,26,SBD,M,1
Amateur Open,Wraps,82.5,Cory Russell,226.8,142.88,235.87,605.55,81.06,27,SBD,M,1
Amateur Open,Wraps,82.5,Brad Martin,210.92,165.56,229.06,605.55,82.33,27,SBD,M,2
Amateur Open,Wraps,82.5,Justin Kompf,195.04,120.2,247.21,562.45,80.92,25,SBD,M,3
Amateur Open,Wraps,82.5,Keith Cunningham,163.29,88.45,201.85,453.59,79.11,25,SBD,M,4
Amateur Open,Wraps,90,Justin Carter,201.85,142.88,217.72,562.45,89.99,26,SBD,M,1
Amateur Open,Wraps,90,Adam Kreyer,183.7,120.2,219.99,523.9,86.59,29,SBD,M,2
Amateur Open,Wraps,90,Tyler Sabo,174.63,124.74,199.58,498.95,87.54,26,SBD,M,3
Amateur Open,Wraps,100,Harry Lightsey,235.87,158.76,256.28,650.91,99.79,26,SBD,M,1
Amateur Open,Wraps,100,Christopher Emmons,213.19,158.76,263.08,635.03,99.16,26,SBD,M,2
Amateur Open,Wraps,110,Donald Bracciodieta,256.28,161.03,251.74,669.05,107.14,27,SBD,M,1
Amateur Open,Wraps,110,Scott Galilei,251.74,165.56,249.48,666.78,107.46,28,SBD,M,2
Amateur Open,Wraps,110,Toni Balijagic,240.4,163.29,249.48,653.17,109.54,30,SBD,M,3
Amateur Open,Wraps,110,Adam Smith,192.78,183.7,240.4,616.89,109.23,27,SBD,M,4
Amateur Open,Wraps,110,John Schnitzler,226.8,142.88,226.8,596.47,106.5,30,SBD,M,5
Amateur Open,Wraps,125,Wesley Kogelschatz,294.84,183.7,278.96,757.5,120.11,29,SBD,M,1
Amateur Open,Wraps,140,Matthew Rice,319.78,142.88,283.5,746.16,125.74,28,SBD,M,1
Amateur Open,Wraps,140,Sean Trait,294.84,183.7,256.28,734.82,139.07,24,SBD,M,2
Amateur Open,Wraps,140,John Bracciodieta,179.17,102.06,195.04,476.27,136.62,25,SBD,M,3
Amateur Masters (40-44),Wraps,82.5,Jim Rundall,226.8,131.54,231.33,589.67,80.69,40,SBD,M,1
Amateur Masters (40-44),Wraps,82.5,Matt Gibbons,181.44,117.93,219.99,519.36,80.74,43,SBD,M,2
Amateur Masters (40-44),Wraps,110,Bob Seymour,215.46,163.29,229.06,607.81,104.51,42,SBD,M,1
Amateur Masters (40-44),Wraps,110,Robert Szczepanik Jr,197.31,142.88,242.67,582.87,104.37,44,SBD,M,2
Amateur Masters (50-54),Wraps,90,William Scholl,192.78,122.47,183.7,498.95,88.41,52,SBD,M,1
Amateur Masters (55-59),Wraps,90,Bertrand Dyer,140.61,108.86,170.1,419.57,87.27,59,SBD,M,1
Amateur Masters (40-44),Wraps,90,Christopher Smith,199.58,124.74,208.65,532.97,89.49,44,SBD,M,1
Amateur Submasters,Multi-ply,82.5,Michael Siecieska,226.8,165.56,226.8,619.15,82.37,34,SBD,M,1
Amateur Submasters,Multi-ply,90,Brian Espino,240.4,170.1,226.8,637.3,89.9,36,SBD,M,1
Pro Juniors,Wraps,75,Christopher Caban,170.1,106.59,231.33,508.02,74.89,22,SBD,M,1
Pro Juniors,Wraps,90,Ahmed Zahiravic,263.08,149.69,272.16,684.92,89.9,21,SBD,M,1
Pro Juniors,Wraps,90,David Trabucco,204.12,151.95,208.65,564.72,88.18,23,SBD,M,2
Pro Juniors,Wraps,125,Edward Phillips,247.21,142.88,263.08,653.17,121.56,21,SBD,M,1
Pro Juniors,Wraps,140,Jacob Pickett,324.32,192.78,310.71,827.81,136.08,22,SBD,M,1
Pro Open,Wraps,75,Christopher Caban,170.1,106.59,231.33,508.02,74.89,22,SBD,M,1
Pro Open,Wraps,75,Keith Spangenburg,149.69,120.2,206.38,476.27,74.57,28,SBD,M,2
Pro Open,Wraps,100,Travis Dyer,278.96,165.56,290.3,734.82,96.57,24,SBD,M,1
Pro Open,Wraps,110,William Richards,181.44,154.22,249.48,585.13,96.84,34,SBD,M,1
Amateur Open,Raw,82.5,Matthew DeSanno,,124.74,,124.74,80.2,26,B,M,1
Amateur Open,Raw,110,Robert Young,,217.72,,217.72,102.15,35,B,M,1
Amateur Submasters,Raw,110,Robert Young,,217.72,,217.72,102.15,35,B,M,1
Amateur Police,Raw,110,Robert Young,,217.72,,217.72,102.15,35,B,M,1
Amateur Police,Raw,125,Michael Hudson,,158.76,,158.76,115.8,32,B,M,1
Pro Juniors,Raw,140,Brandon Van Grol,,217.72,,217.72,139.03,20,B,M,1
Pro Open,Multi-ply,140,Will Barotti,,387.82,,387.82,134.85,31,B,M,1
Pro Police,Multi-ply,140,Will Barotti,,387.82,,387.82,134.85,31,B,M,1
Amateur Open,Raw,90,Jacob Karker,,95.25,208.65,303.91,87.77,32,BD,M,1
Pro Submasters,Multi-ply,100,Fred Ebel,,226.8,229.06,455.86,98.88,36,BD,M,1
Amateur Open,Wraps,100,Chris Olney,244.94,165.56,,410.5,98.75,35,SB,M,1
Amateur Submasters,Wraps,100,Chris Olney,244.94,165.56,,410.5,98.75,35,SB,M,1
Pro Open,Raw,110,James Farina,,,229.06,229.06,108.14,37,D,M,1
Pro Submasters,Raw,110,James Farina,,,229.06,229.06,108.14,37,D,M,1
