Division,WeightClassKg,Place,Name,Team,BodyweightKg,Best3SquatKg,Best3BenchKg,Best3DeadliftKg,TotalKg,Equipment,Event,Sex
Boys,51.71,1,Dillon Cotton,White Deer,51.71,111.13,70.31,138.35,319.78,Single-ply,SBD,M
Boys,51.71,2,Collier Bell,White Deer,50.35,61.23,29.48,90.72,181.44,Single-ply,SBD,M
Boys,55.79,1,Talon Romero,Amarillo Highland Park,53.52,142.88,90.72,151.95,385.55,Single-ply,SBD,M
Boys,55.79,2,Kevin Nguyen #8,Amarillo Highland Park,55.79,97.52,70.31,122.47,290.3,Single-ply,SBD,M
Boys,55.79,3,Austin Klapper,Amarillo River Road,55.79,74.84,45.36,102.06,222.26,Single-ply,SBD,M
Boys,59.87,1,Ray Jaramillo,Clarendon,59.87,145.15,90.72,151.95,387.82,Single-ply,SBD,M
Boys,59.87,2,Sergio Romero,Childress,56.7,127.01,68.04,136.08,331.12,Single-ply,SBD,M
Boys,59.87,3,Luis Ramos #1,Dumas,58.97,127.01,56.7,147.42,331.12,Single-ply,SBD,M
Boys,59.87,4,Juan Moreno,Amarillo Highland Park,58.97,113.4,74.84,138.35,326.59,Single-ply,SBD,M
Boys,59.87,5,Ryan McClesky,Clarendon,57.61,117.93,68.04,138.35,324.32,Single-ply,SBD,M
Boys,59.87,6,Billy Lee,Amarillo Highland Park,56.25,124.74,79.38,117.93,322.05,Single-ply,SBD,M
Boys,67.13,1,Terrin Campbell,Amarillo Highland Park,66.68,156.49,90.72,158.76,405.97,Single-ply,SBD,M
Boys,67.13,2,Patrick Shadid,Panhandle,66.22,149.69,95.25,133.81,378.75,Single-ply,SBD,M
Boys,67.13,3,Erving Lerma,Dumas,65.77,124.74,86.18,151.95,362.87,Single-ply,SBD,M
Boys,67.13,4,Jaden Shaver,Panhandle,65.32,136.08,79.38,145.15,360.61,Single-ply,SBD,M
Boys,67.13,5,Cody Castor,Childress,63.96,129.27,83.91,136.08,349.27,Single-ply,SBD,M
Boys,67.13,6,Emillio Solis,White Deer,62.14,74.84,43.09,90.72,208.65,Single-ply,SBD,M
Boys,74.84,1,Kristian Gonzales,Dumas,70.31,170.1,106.59,176.9,453.59,Single-ply,SBD,M
Boys,74.84,2,Layton Lamberson,Panhandle,71.67,165.56,102.06,185.97,453.59,Single-ply,SBD,M
Boys,74.84,3,Devin Novak,Amarillo Highland Park,73.03,163.29,95.25,183.7,442.25,Single-ply,SBD,M
Boys,74.84,4,Robert Quilimaco,White Deer,70.76,154.22,102.06,176.9,433.18,Single-ply,SBD,M
Boys,74.84,5,Ethan Ballard,Clarendon,74.84,145.15,92.99,172.37,410.5,Single-ply,SBD,M
Boys,74.84,6,Luis Valdez,Dumas,72.57,124.74,86.18,192.78,403.7,Single-ply,SBD,M
Boys,74.84,7,Riley Graham,Panhandle,72.57,147.42,83.91,158.76,390.09,Single-ply,SBD,M
Boys,74.84,8,Cedrick Pena,Dumas,70.31,149.69,83.91,147.42,381.02,Single-ply,SBD,M
Boys,74.84,9,Chris Lara,Bushland,71.21,142.88,83.91,145.15,371.95,Single-ply,SBD,M
Boys,74.84,10,Thomas Adams #3,Childress,73.94,136.08,86.18,136.08,358.34,Single-ply,SBD,M
Boys,74.84,11,Daquawne Oliver,Clarendon,68.04,117.93,68.04,165.56,351.53,Single-ply,SBD,M
Boys,74.84,12,Josh Kelley,Childress,69.85,136.08,79.38,136.08,351.53,Single-ply,SBD,M
Boys,74.84,13,Zane Hackett,Panhandle,74.84,102.06,61.23,131.54,294.84,Single-ply,SBD,M
Boys,82.1,1,Bostyn Andrews,Bushland,79.83,158.76,124.74,204.12,487.61,Single-ply,SBD,M
Boys,82.1,2,Tylor Genn,Memphis,75.3,163.29,129.27,172.37,464.93,Single-ply,SBD,M
Boys,82.1,3,Dre Williams,Bushland,81.65,165.56,102.06,197.31,464.93,Single-ply,SBD,M
Boys,82.1,4,Steven Espino,Dumas,78.47,183.7,97.52,181.44,462.66,Single-ply,SBD,M
Boys,82.1,5,Sean Meadows,Bushland,78.02,156.49,111.13,185.97,453.59,Single-ply,SBD,M
Boys,82.1,6,Dat Luu,Amarillo Highland Park,80.74,156.49,97.52,199.58,453.59,Single-ply,SBD,M
Boys,82.1,7,Max Murray,Amarillo Tascosa,79.38,154.22,106.59,172.37,433.18,Single-ply,SBD,M
Boys,82.1,8,Keishaun Harper,Dumas,78.47,133.81,92.99,183.7,410.5,Single-ply,SBD,M
Boys,82.1,9,Jaime Lizama,Childress,78.02,142.88,83.91,149.69,376.48,Single-ply,SBD,M
Boys,82.1,10,Levi Chesser,White Deer,79.38,124.74,70.31,158.76,353.8,Single-ply,SBD,M
Boys,82.1,11,Elijah Perez,Bushland,76.2,102.06,77.11,142.88,322.05,Single-ply,SBD,M
Boys,82.1,12,Brody Barfield,Bushland,77.56,117.93,68.04,127.01,312.98,Single-ply,SBD,M
Boys,82.1,13,Jace Barnett,Panhandle,75.75,92.99,61.23,97.52,251.74,Single-ply,SBD,M
Boys,89.81,1,Blaine McGregor,Amarillo Highland Park,85.73,210.92,138.35,204.12,553.38,Single-ply,SBD,M
Boys,89.81,2,Derek Ditto,Dumas,87.09,149.69,138.35,197.31,485.34,Single-ply,SBD,M
Boys,89.81,3,Antonio Rangel,Dumas,86.18,170.1,108.86,197.31,476.27,Single-ply,SBD,M
Boys,89.81,4,Andrew Rhodes,Dumas,85.28,172.37,97.52,195.04,464.93,Single-ply,SBD,M
Boys,89.81,5,Waylon Hansen,Amarillo Highland Park,88.9,165.56,106.59,185.97,458.13,Single-ply,SBD,M
Boys,89.81,6,Ethan Hays,Panhandle,86.18,183.7,102.06,170.1,455.86,Single-ply,SBD,M
Boys,89.81,7,Austin Adams,Dumas,85.28,147.42,102.06,181.44,430.91,Single-ply,SBD,M
Boys,89.81,8,Angel Duran,Dumas,88,133.81,92.99,185.97,412.77,Single-ply,SBD,M
Boys,89.81,9,Christian Sanchez,Dumas,85.28,147.42,104.33,158.76,410.5,Single-ply,SBD,M
Boys,89.81,10,Mason Turner,Dumas,88,129.27,92.99,181.44,403.7,Single-ply,SBD,M
Boys,89.81,11,Garrett McIlory,Panhandle,87.09,142.88,79.38,142.88,365.14,Single-ply,SBD,M
Boys,89.81,12,Augustine Moreno,Amarillo Highland Park,88,136.08,83.91,142.88,362.87,Single-ply,SBD,M
Boys,89.81,13,Andrew Rodriguez,Bushland,87.09,133.81,79.38,142.88,356.07,Single-ply,SBD,M
Boys,89.81,14,Tanner Mills,Childress,87.54,129.27,86.18,136.08,351.53,Single-ply,SBD,M
Boys,89.81,15,Tanner Boroughs,Amarillo River Road,88.45,102.06,68.04,113.4,283.5,Single-ply,SBD,M
Boys,99.79,1,Alex Guerrero,Childress,91.63,213.19,140.61,240.4,594.21,Single-ply,SBD,M
Boys,99.79,2,Courtney Gravely,Amarillo Highland Park,90.26,215.46,140.61,217.72,573.79,Single-ply,SBD,M
Boys,99.79,3,Aundra Fleeks,Amarillo Tascosa,99.79,224.53,124.74,217.72,566.99,Single-ply,SBD,M
Boys,99.79,4,David Reyes,Dumas,98.88,192.78,142.88,206.38,542.04,Single-ply,SBD,M
Boys,99.79,5,Preston Bradic,Amarillo Tascosa,95.25,174.63,138.35,208.65,521.63,Single-ply,SBD,M
Boys,99.79,6,D'andre George,Amarillo Tascosa,95.25,183.7,142.88,183.7,510.29,Single-ply,SBD,M
Boys,99.79,7,Gage Alexander,Panhandle,97.52,181.44,115.67,204.12,501.22,Single-ply,SBD,M
Boys,99.79,8,Jose Morin,Memphis,98.88,158.76,142.88,192.78,494.42,Single-ply,SBD,M
Boys,99.79,9,Austin Archuleta,Panhandle,92.99,197.31,127.01,165.56,489.88,Single-ply,SBD,M
Boys,99.79,10,Zac Zaccardo,Bushland,97.52,170.1,120.2,181.44,471.74,Single-ply,SBD,M
Boys,99.79,11,DJ Smith,Amarillo Tascosa,97.98,167.83,115.67,183.7,467.2,Single-ply,SBD,M
Boys,99.79,12,Silas Auvermann,Amarillo Tascosa,91.63,170.1,113.4,172.37,455.86,Single-ply,SBD,M
Boys,99.79,13,Reyes Ferrusquia,Memphis,92.99,158.76,113.4,172.37,444.52,Single-ply,SBD,M
Boys,99.79,14,Josh Mares,Dumas,90.72,151.95,104.33,183.7,439.98,Single-ply,SBD,M
Boys,99.79,15,Blain Trimmell,Bushland,92.08,156.49,108.86,167.83,433.18,Single-ply,SBD,M
Boys,99.79,16,Patrick Cheney,Amarillo Highland Park,96.62,142.88,97.52,156.49,396.89,Single-ply,SBD,M
Boys,109.77,1,Koty McWhorter,Panhandle,105.69,206.38,133.81,199.58,539.77,Single-ply,SBD,M
Boys,109.77,2,Jovan Acosta,Dumas,107.05,195.04,102.06,213.19,510.29,Single-ply,SBD,M
Boys,109.77,3,Joe Rodriguez,Childress,108.86,181.44,147.42,181.44,510.29,Single-ply,SBD,M
Boys,109.77,4,Rhett Buckley,Childress,106.14,181.44,113.4,190.51,485.34,Single-ply,SBD,M
Boys,109.77,5,Dom Velasquez,Amarillo River Road,101.6,161.03,113.4,179.17,453.59,Single-ply,SBD,M
Boys,109.77,6,Cesar Maestas,Memphis,106.59,163.29,90.72,149.69,403.7,Single-ply,SBD,M
Boys,109.77,7,Cole Bacon,Panhandle,102.06,136.08,72.57,124.74,333.39,Single-ply,SBD,M
Boys,124.74,1,Andrew Smith #7,Panhandle,119.29,201.85,136.08,195.04,532.97,Single-ply,SBD,M
Boys,124.74,2,Eric Bableras,Dumas,115.67,204.12,120.2,204.12,528.44,Single-ply,SBD,M
Boys,124.74,3,Britton Milbern,Amarillo River Road,116.57,204.12,102.06,185.97,492.15,Single-ply,SBD,M
Boys,124.74,4,Austin McCarty,Childress,112.49,181.44,117.93,183.7,483.08,Single-ply,SBD,M
Boys,124.74,5,Carlos Romero,Childress,123.83,197.31,102.06,158.76,458.13,Single-ply,SBD,M
Boys,124.74,6,Alonso Cardenas,Dumas,110.22,158.76,92.99,201.85,453.59,Single-ply,SBD,M
Boys,124.74,7,Brady Cooke,Panhandle,110.68,165.56,92.99,158.76,417.3,Single-ply,SBD,M
Boys,124.74+,1,Ashton Burns,Amarillo Tascosa,131.54,283.5,179.17,224.53,687.19,Single-ply,SBD,M
Boys,124.74+,2,Colby Roach,Panhandle,145.6,254.01,154.22,208.65,616.89,Single-ply,SBD,M
Boys,124.74+,3,Stephen Mosier,Memphis,126.55,204.12,111.13,208.65,523.9,Single-ply,SBD,M
Boys,124.74+,4,Manuel Carmona,Dumas,129.73,181.44,102.06,199.58,483.08,Single-ply,SBD,M
Boys,124.74+,5,Daniel Munoz,Memphis,132.9,113.4,68.04,127.01,308.44,Single-ply,SBD,M
