Division,WeightClassKg,Place,Name,Team,BodyweightKg,Best3SquatKg,Best3BenchKg,Best3DeadliftKg,TotalKg,Equipment,Event,Sex
Boys,51.71,1,Zack Miller,Ponder,51.44,99.79,49.9,111.13,260.82,Single-ply,SBD,M
Boys,51.71,DQ,Brian Keksi,Burkburnett,50.35,102.06,,,,Single-ply,SBD,M
Boys,55.79,1,Camron Senters,Burkburnett,54.61,149.69,86.18,165.56,401.43,Single-ply,SBD,M
Boys,55.79,2,Emilio Carrizales,Iowa Park,54.34,136.08,72.57,154.22,362.87,Single-ply,SBD,M
Boys,55.79,3,Perrin Hughes,Ponder,53.34,104.33,65.77,108.86,278.96,Single-ply,SBD,M
Boys,59.87,1,Taylor Ross,Nocona,59.06,138.35,88.45,158.76,385.55,Single-ply,SBD,M
Boys,59.87,2,Brandon Gee,Ponder,59.42,138.35,83.91,151.95,374.21,Single-ply,SBD,M
Boys,59.87,3,Josh Wood,Iowa Park,57.15,129.27,79.38,154.22,362.87,Single-ply,SBD,M
Boys,59.87,4,Adam Byrd,Wichita Falls Rider,58.6,122.47,79.38,158.76,360.61,Single-ply,SBD,M
Boys,59.87,5,Adam Dobson,Wichita Falls Rider,59.6,117.93,77.11,136.08,331.12,Single-ply,SBD,M
Boys,59.87,6,Coleman Chance,Ponder,57.15,106.59,63.5,124.74,294.84,Single-ply,SBD,M
Boys,59.87,7,Adam Kennedy,Ponder,58.51,90.72,43.09,111.13,244.94,Single-ply,SBD,M
Boys,59.87,DQ,Roque Reves,Bowie,58.88,,,,,Single-ply,SBD,M
Boys,67.13,1,Zach Remily,Bowie,60.51,192.78,113.4,167.83,474,Single-ply,SBD,M
Boys,67.13,2,Brandon Sheppard,Wichita Falls Hirschi,66.32,188.24,95.25,176.9,460.4,Single-ply,SBD,M
Boys,67.13,3,Luke Hartman,Iowa Park,65.32,165.56,106.59,165.56,437.72,Single-ply,SBD,M
Boys,67.13,4,Jayson Alexander,Ponder,64.05,158.76,83.91,154.22,396.89,Single-ply,SBD,M
Boys,67.13,5,Jayden Foxe,Wichita Falls,66.04,142.88,70.31,167.83,381.02,Single-ply,SBD,M
Boys,67.13,6,Cody Haak,Alvord,67.04,142.88,81.65,147.42,371.95,Single-ply,SBD,M
Boys,67.13,7,Demarcus Ezell,Wichita Falls,64.32,142.88,77.11,142.88,362.87,Single-ply,SBD,M
Boys,67.13,8,Kirby Coughlin,Wichita Falls Rider,63.5,138.35,74.84,138.35,351.53,Single-ply,SBD,M
Boys,67.13,9,Tyral Colbert,Wichita Falls Hirschi,63.5,127.01,88.45,136.08,351.53,Single-ply,SBD,M
Boys,67.13,10,Ryan Hughes,Ponder,64.32,124.74,72.57,154.22,351.53,Single-ply,SBD,M
Boys,67.13,11,Avi Patel,Alvord,61.78,124.74,86.18,136.08,347,Single-ply,SBD,M
Boys,67.13,12,Lance Easter,Wichita Falls Hirschi,66.13,108.86,74.84,138.35,322.05,Single-ply,SBD,M
Boys,67.13,13,Zac Hollingsworth,Burkburnett,66.04,106.59,70.31,111.13,288.03,Single-ply,SBD,M
Boys,67.13,14,Joseph Williams,Wichita Falls Hirschi,67.13,102.06,68.04,102.06,272.16,Single-ply,SBD,M
Boys,67.13,15,Adrian Sias,Wichita Falls Hirschi,63.87,102.06,65.77,102.06,269.89,Single-ply,SBD,M
Boys,82.1,1,Colton Redman,Alvord,74.93,226.8,136.08,238.14,601.01,Single-ply,SBD,M
Boys,74.84,2,Colbey Watson,Iowa Park,74.39,204.12,122.47,199.58,526.17,Single-ply,SBD,M
Boys,74.84,3,Jamal Lewis,Wichita Falls Hirschi,67.95,192.78,106.59,195.04,494.42,Single-ply,SBD,M
Boys,74.84,4,Bobby Tatom,Wichita Falls,74.75,183.7,120.2,183.7,487.61,Single-ply,SBD,M
Boys,74.84,5,Logan Marchman,Ponder,69.31,181.44,102.06,190.51,474,Single-ply,SBD,M
Boys,74.84,6,Jonathan Lewis,Wichita Falls Hirschi,68.76,183.7,102.06,165.56,451.32,Single-ply,SBD,M
Boys,74.84,7,Taylor Littleton,Ponder,72.12,161.03,111.13,149.69,421.84,Single-ply,SBD,M
Boys,82.1,8,Tyler Gay,Nocona,74.93,151.95,83.91,158.76,394.63,Single-ply,SBD,M
Boys,74.84,9,Jared Lott,Wichita Falls Rider,74.48,149.69,111.13,131.54,392.36,Single-ply,SBD,M
Boys,74.84,10,Larry Ash,Wichita Falls,73.03,147.42,90.72,151.95,390.09,Single-ply,SBD,M
Boys,74.84,11,Sean Swarthout,Wichita Falls,74.84,147.42,83.91,158.76,390.09,Single-ply,SBD,M
Boys,74.84,12,Tj Ferryman,Ponder,70.03,154.22,81.65,149.69,385.55,Single-ply,SBD,M
Boys,74.84,13,Cody Harrison,Alvord,70.03,113.4,90.72,147.42,351.53,Single-ply,SBD,M
Boys,74.84,14,Dillon Welch,Ponder,70.85,136.08,79.38,133.81,349.27,Single-ply,SBD,M
Boys,74.84,15,Nathan Whitington,Wichita Falls,73.48,136.08,61.23,136.08,333.39,Single-ply,SBD,M
Boys,74.84,16,Greyson Slaton,Iowa Park,69.94,102.06,77.11,120.2,299.37,Single-ply,SBD,M
Boys,74.84,17,Zach Mire,Burkburnett,68.4,90.72,65.77,131.54,288.03,Single-ply,SBD,M
Boys,74.84,DQ,Trent Cheatle,Wichita Falls Hirschi,72.94,102.06,,,,Single-ply,SBD,M
Boys,82.1,1,Zack Romine,Burkburnett,79.79,226.8,136.08,215.46,578.33,Single-ply,SBD,M
Boys,82.1,2,Cody Jones,Ponder,76.61,176.9,97.52,181.44,455.86,Single-ply,SBD,M
Boys,82.1,3,Jesse Brown,Alvord,78.7,170.1,97.52,181.44,449.06,Single-ply,SBD,M
Boys,82.1,4,Tk Cuttino,Wichita Falls Rider,79.2,158.76,104.33,181.44,444.52,Single-ply,SBD,M
Boys,82.1,5,Ruan Lopez,Wichita Falls Rider,78.56,149.69,99.79,185.97,435.45,Single-ply,SBD,M
Boys,82.1,6,Josh Haister,Wichita Falls Rider,79.47,154.22,99.79,176.9,430.91,Single-ply,SBD,M
Boys,89.81,7,Luke McCarthy,Wichita Falls,82.33,167.83,106.59,149.69,424.11,Single-ply,SBD,M
Boys,82.1,8,Matt Dunn,Alvord,79.2,154.22,95.25,147.42,396.89,Single-ply,SBD,M
Boys,82.1,9,Zack Stumbaugh,Iowa Park,81.83,147.42,111.13,136.08,394.63,Single-ply,SBD,M
Boys,82.1,DQ,Jaymes Upchurch,Burkburnett,76.57,92.99,,,,Single-ply,SBD,M
Boys,89.81,1,Hunter Wood,Wichita Falls,87.36,249.48,147.42,215.46,612.35,Single-ply,SBD,M
Boys,89.81,2,Gabe Garcia,Wichita Falls,84.82,208.65,122.47,197.31,528.44,Single-ply,SBD,M
Boys,89.81,3,Caiden Fenoglio,Nocona,84.28,176.9,117.93,172.37,467.2,Single-ply,SBD,M
Boys,89.81,4,Chris Rogers,Burkburnett,88.18,136.08,102.06,158.76,396.89,Single-ply,SBD,M
Boys,89.81,5,Cody Messer,Nocona,85.77,156.49,83.91,145.15,385.55,Single-ply,SBD,M
Boys,89.81,6,Jack Cummings,Burkburnett,89.27,131.54,65.77,158.76,356.07,Single-ply,SBD,M
Boys,89.81,7,Nathan Norton,Burkburnett,83.01,131.54,61.23,151.95,344.73,Single-ply,SBD,M
Boys,89.81,8,Alex Joplin,Burkburnett,89.54,104.33,79.38,131.54,315.25,Single-ply,SBD,M
Boys,89.81,DQ,Devin Edwards,Iowa Park,86.82,244.94,136.08,,,Single-ply,SBD,M
Boys,109.77,1,Isaiha Barnes,Burkburnett,99.97,249.48,158.76,240.4,648.64,Single-ply,SBD,M
Boys,99.79,2,Blake Huffington,Burkburnett,94.17,204.12,124.74,231.33,560.19,Single-ply,SBD,M
Boys,99.79,3,Kyler Koch,Iowa Park,92.44,199.58,124.74,190.51,514.83,Single-ply,SBD,M
Boys,99.79,4,Tory Ferryman,Ponder,91.9,208.65,108.86,181.44,498.95,Single-ply,SBD,M
Boys,109.77,5,Todd Jackson,Bowie,99.88,199.58,99.79,170.1,469.47,Single-ply,SBD,M
Boys,99.79,6,Dylan Sander,Burkburnett,94.94,174.63,106.59,174.63,455.86,Single-ply,SBD,M
Boys,99.79,7,Braxton Watts,Wichita Falls,94.53,167.83,102.06,181.44,451.32,Single-ply,SBD,M
Boys,99.79,8,Jj Burlton,Burkburnett,93.58,161.03,106.59,156.49,424.11,Single-ply,SBD,M
Boys,99.79,9,Brandon Golden,Burkburnett,93.08,147.42,95.25,158.76,401.43,Single-ply,SBD,M
Boys,99.79,10,Lance Dixon,Wichita Falls,92.44,133.81,74.84,149.69,358.34,Single-ply,SBD,M
Boys,99.79,DQ,Matt Johnston,Burkburnett,94.71,179.17,,,,Single-ply,SBD,M
Boys,99.79,DQ,Tj May,Bowie,94.17,,,,,Single-ply,SBD,M
Boys,109.77,1,Scott Dobbins,Burkburnett,109.23,310.71,204.12,260.82,775.64,Single-ply,SBD,M
Boys,109.77,2,Terry Parker,Wichita Falls Rider,100.33,192.78,111.13,176.9,480.81,Single-ply,SBD,M
Boys,109.77,3,Clay Futch,Ponder,103.6,176.9,138.35,147.42,462.66,Single-ply,SBD,M
Boys,109.77,4,Jackson Towery,Nocona,101.15,156.49,88.45,156.49,401.43,Single-ply,SBD,M
Boys,109.77,5,Rowdy Harper,Iowa Park,109.41,151.95,88.45,156.49,396.89,Single-ply,SBD,M
Boys,109.77,6,Jeff Watson,Burkburnett,102.47,108.86,102.06,161.03,371.95,Single-ply,SBD,M
Boys,109.77,7,Nick Diaz,Wichita Falls Hirschi,109.36,142.88,79.38,147.42,369.68,Single-ply,SBD,M
Boys,124.74,1,Tyler Ashman,Ponder,114.4,235.87,136.08,188.24,560.19,Single-ply,SBD,M
Boys,124.74,2,Harrison Sorge,Wichita Falls Rider,124.28,188.24,124.74,197.31,510.29,Single-ply,SBD,M
Boys,124.74,3,Jacob Watson,Wichita Falls Rider,121.11,195.04,124.74,163.29,483.08,Single-ply,SBD,M
Boys,124.74,4,Colton Lopez,Wichita Falls Rider,118.48,172.37,102.06,136.08,410.5,Single-ply,SBD,M
Boys,124.74,5,Jacob Ficklin,Iowa Park,120.66,115.67,92.99,161.03,369.68,Single-ply,SBD,M
Boys,124.74,DQ,Ricky Clark,Burkburnett,114.26,142.88,,,,Single-ply,SBD,M
Boys,124.74+,1,Nick Ward,Iowa Park,148.05,197.31,108.86,183.7,489.88,Single-ply,SBD,M
Boys,124.74+,2,Zachary Graham,Nocona,130.54,149.69,83.91,181.44,415.04,Single-ply,SBD,M
Boys,124.74+,3,Chase Baker,Burkburnett,136.85,142.88,70.31,131.54,344.73,Single-ply,SBD,M
