Division,WeightClassKg,Place,Name,Team,BodyweightKg,Best3SquatKg,Best3BenchKg,Best3DeadliftKg,TotalKg,Equipment,Event,Sex
Boys,51.71,1,Angel Contreras,Comfort,51.44,113.4,70.31,131.54,315.25,Single-ply,SBD,M
Boys,51.71,2,Austin Hardy,Somerset,49.9,99.79,65.77,136.08,301.64,Single-ply,SBD,M
Boys,51.71,3,Oscar Escamilla,San Antonio Southside,51.35,113.4,61.23,127.01,301.64,Single-ply,SBD,M
Boys,51.71,4,Vince Ochoa,Dilley,50.71,108.86,61.23,115.67,285.76,Single-ply,SBD,M
Boys,51.71,5,Brandon Fernandez,Poteet,44.45,111.13,56.7,115.67,283.5,Single-ply,SBD,M
Boys,51.71,6,Marco Escamilla,San Antonio Southside,51.71,97.52,58.97,113.4,269.89,Single-ply,SBD,M
Boys,51.71,7,Lorenzo Barfield,San Antonio Southwest,49.71,83.91,54.43,108.86,247.21,Single-ply,SBD,M
Boys,55.79,1,Michael Mitchell,San Antonio Southside,55.34,174.63,102.06,199.58,476.27,Single-ply,SBD,M
Boys,55.79,2,Devyn Hernandez,Somerset,55.47,124.74,95.25,151.95,371.95,Single-ply,SBD,M
Boys,55.79,3,Rudy Rios,Devine,55.52,131.54,79.38,161.03,371.95,Single-ply,SBD,M
Boys,55.79,4,Colton Bean,Devine,55.52,140.61,68.04,136.08,344.73,Single-ply,SBD,M
Boys,55.79,DQ,Brandon Mercado,San Antonio Cole,55.79,,,,,Single-ply,SBD,M
Boys,59.87,1,Jose Trevino,San Antonio Southside,58.33,233.6,111.13,195.04,539.77,Single-ply,SBD,M
Boys,59.87,2,Raul Guerra,Poteet,59.87,172.37,113.4,174.63,460.4,Single-ply,SBD,M
Boys,59.87,3,Jaime Rodriguez,Jourdanton,58.51,192.78,86.18,174.63,453.59,Single-ply,SBD,M
Boys,59.87,4,Rodney Garcia,Carrizo Springs,59.87,165.56,92.99,190.51,449.06,Single-ply,SBD,M
Boys,59.87,5,Luke Torres,Devine,58.97,154.22,92.99,163.29,410.5,Single-ply,SBD,M
Boys,59.87,6,Kevin Hernandez,Floresville,59.33,156.49,90.72,161.03,408.23,Single-ply,SBD,M
Boys,59.87,7,Ben Uribe,Jourdanton,59.87,142.88,88.45,165.56,396.89,Single-ply,SBD,M
Boys,59.87,8,Jacob Gonzales,Floresville,59.42,151.95,88.45,154.22,394.63,Single-ply,SBD,M
Boys,59.87,9,Casey Fuentes,Jourdanton,59.15,154.22,90.72,142.88,387.82,Single-ply,SBD,M
Boys,59.87,10,Mason Lavar,Marion,56.52,127.01,83.91,140.61,351.53,Single-ply,SBD,M
Boys,59.87,11,Taylor Weber,Jourdanton,58.42,136.08,74.84,140.61,351.53,Single-ply,SBD,M
Boys,59.87,12,Jamie Ramirez,Rocksprings,57.06,131.54,79.38,136.08,347,Single-ply,SBD,M
Boys,59.87,13,Dominic Mercado,San Antonio Cole,55.88,129.27,68.04,147.42,344.73,Single-ply,SBD,M
Boys,67.13,1,Domingo Zapata,Somerset,65.91,233.6,142.88,210.92,587.4,Single-ply,SBD,M
Boys,67.13,2,Arturo Yturte,Somerset,66.45,199.58,115.67,190.51,505.76,Single-ply,SBD,M
Boys,67.13,3,DJ Martinez,Dilley,63.41,179.17,111.13,172.37,462.66,Single-ply,SBD,M
Boys,67.13,4,Mario Gomez,Crystal City,65.77,183.7,104.33,154.22,442.25,Single-ply,SBD,M
Boys,67.13,5,Jon Daigle,Marion,67.04,170.1,102.06,158.76,430.91,Single-ply,SBD,M
Boys,67.13,6,Steven Ramirez,Devine,66.13,154.22,102.06,161.03,417.3,Single-ply,SBD,M
Boys,67.13,7,Jose Fargason,Devine,65.23,147.42,86.18,181.44,415.04,Single-ply,SBD,M
Boys,67.13,8,Humberto Medina,San Antonio Southside,62.87,149.69,88.45,165.56,403.7,Single-ply,SBD,M
Boys,67.13,9,Aaron Sanchez,Poteet,64.64,151.95,81.65,158.76,392.36,Single-ply,SBD,M
Boys,67.13,10,Justin Pompa,San Antonio Southside,66.5,149.69,77.11,165.56,392.36,Single-ply,SBD,M
Boys,67.13,11,Rene Alvarado,Center Point,64.41,145.15,83.91,151.95,381.02,Single-ply,SBD,M
Boys,67.13,12,Nick Rodriguez,Dilley,67.13,124.74,86.18,167.83,378.75,Single-ply,SBD,M
Boys,67.13,13,Diego Perez #1,Rocksprings,64.5,136.08,88.45,151.95,376.48,Single-ply,SBD,M
Boys,67.13,14,Seth Taggs,Floresville,60.6,133.81,83.91,147.42,365.14,Single-ply,SBD,M
Boys,67.13,15,Dominik Espinoza,Center Point,61.23,131.54,79.38,145.15,356.07,Single-ply,SBD,M
Boys,67.13,16,Joe Anthony Oliva,Poteet,65.23,113.4,72.57,165.56,351.53,Single-ply,SBD,M
Boys,67.13,17,Ethan Ozuna,Center Point,62.6,131.54,72.57,140.61,344.73,Single-ply,SBD,M
Boys,67.13,18,Chance Cabiness,Center Point,63.59,124.74,70.31,111.13,306.17,Single-ply,SBD,M
Boys,67.13,19,Guillermo Campos,San Antonio Southwest,64.77,149.69,,,149.69,Single-ply,S,M
Boys,67.13,DQ,Anthony Perez,San Antonio Cole,60.6,,,,,Single-ply,SBD,M
Boys,67.13,DQ,Kristopher Imhof,San Antonio Cole,67.13,,,,,Single-ply,SBD,M
Boys,74.84,1,Matthew Collier,San Antonio Southside,72.57,254.01,129.27,240.4,623.69,Single-ply,SBD,M
Boys,74.84,2,Anthony Estrada,Somerset,74.3,226.8,122.47,226.8,576.06,Single-ply,SBD,M
Boys,74.84,3,Calvin Starnes,Bandera,73.03,210.92,113.4,219.99,544.31,Single-ply,SBD,M
Boys,74.84,4,Ivan Fernandez,Castroville Medina Valley,72.85,210.92,127.01,201.85,539.77,Single-ply,SBD,M
Boys,74.84,5,Nick Gonzales,Floresville,73.03,204.12,122.47,206.38,532.97,Single-ply,SBD,M
Boys,74.84,6,Storm Brown,Floresville,70.31,192.78,115.67,199.58,508.02,Single-ply,SBD,M
Boys,74.84,7,Juan Medina,Floresville,67.77,195.04,111.13,192.78,498.95,Single-ply,SBD,M
Boys,74.84,8,Gil Garcia,Crystal City,70.13,185.97,104.33,204.12,494.42,Single-ply,SBD,M
Boys,74.84,9,Fabian Reyna,Jourdanton,71.49,195.04,124.74,172.37,492.15,Single-ply,SBD,M
Boys,74.84,10,Christian Rodriguez,San Antonio Southside,74.03,176.9,129.27,174.63,480.81,Single-ply,SBD,M
Boys,74.84,11,Hayden Burwell,Devine,74.39,183.7,120.2,167.83,471.74,Single-ply,SBD,M
Boys,74.84,12,Luke Janosky,Castroville Medina Valley,69.4,179.17,106.59,183.7,469.47,Single-ply,SBD,M
Boys,74.84,13,Josten Lacy,Bandera,72.12,167.83,122.47,174.63,464.93,Single-ply,SBD,M
Boys,74.84,14,Lucas Byrd,Devine,72.12,181.44,90.72,190.51,462.66,Single-ply,SBD,M
Boys,74.84,15,Edher Nava,Marion,71.67,174.63,108.86,176.9,460.4,Single-ply,SBD,M
Boys,74.84,16,Dylan Delgago,Somerset,74.57,149.69,111.13,192.78,453.59,Single-ply,SBD,M
Boys,74.84,17,Gilibaldo Garcia,San Antonio Brooks Academy,72.57,158.76,95.25,197.31,451.32,Single-ply,SBD,M
Boys,74.84,18,Josh Herrera,Floresville,70.49,167.83,97.52,183.7,449.06,Single-ply,SBD,M
Boys,74.84,19,Nathan Zambrana,San Antonio Southwest,73.3,165.56,92.99,188.24,446.79,Single-ply,SBD,M
Boys,74.84,20,Abel Carrasco,San Antonio Southwest,74.39,170.1,92.99,183.7,446.79,Single-ply,SBD,M
Boys,74.84,21,Tyrell Dunlap,San Antonio Cole,71.85,149.69,95.25,179.17,424.11,Single-ply,SBD,M
Boys,74.84,22,Seth Galindo,Floresville,69.58,156.49,97.52,167.83,421.84,Single-ply,SBD,M
Boys,74.84,23,Frankie Mendez,Carrizo Springs,69.67,145.15,97.52,170.1,412.77,Single-ply,SBD,M
Boys,74.84,24,Juergen Lapham,Center Point,73.12,149.69,86.18,167.83,403.7,Single-ply,SBD,M
Boys,74.84,25,Elijah Macneil,Bandera,71.85,142.88,92.99,158.76,394.63,Single-ply,SBD,M
Boys,74.84,26,Carter Ulrich,Marion,70.03,122.47,102.06,161.03,385.55,Single-ply,SBD,M
Boys,74.84,27,Keith Wilkinson,San Antonio Cole,74.39,147.42,86.18,149.69,383.29,Single-ply,SBD,M
Boys,74.84,28,Jesse Zimmel,Bandera,69.49,136.08,83.91,158.76,378.75,Single-ply,SBD,M
Boys,74.84,29,Jo-Jacob Rivera,Crystal City,70.31,133.81,77.11,163.29,374.21,Single-ply,SBD,M
Boys,74.84,30,Cesar Franco,Crystal City,70.85,106.59,52.16,154.22,312.98,Single-ply,SBD,M
Boys,74.84,DQ,Jacob Meis,Castroville Medina Valley,69.58,167.83,111.13,,,Single-ply,SBD,M
Boys,74.84,DQ,Tim Carrasco,Poteet,73.03,,,,,Single-ply,SBD,M
Boys,74.84,DQ,Brandon Rios,Somerset,73.94,,,,,Single-ply,SBD,M
Boys,82.1,1,Nathan Garcia,Jourdanton,78.47,288.03,149.69,281.23,718.94,Single-ply,SBD,M
Boys,82.1,2,Isaiah Garza,Somerset,80.92,229.06,136.08,238.14,603.28,Single-ply,SBD,M
Boys,82.1,3,Jason Faulkner,Comfort,82.1,188.24,138.35,226.8,553.38,Single-ply,SBD,M
Boys,82.1,4,Adrian Sustaita,Castroville Medina Valley,80.47,197.31,117.93,210.92,526.17,Single-ply,SBD,M
Boys,82.1,5,Nick Talamantez,San Antonio Southwest,80.2,183.7,133.81,197.31,514.83,Single-ply,SBD,M
Boys,82.1,6,Jordan Valdez,Jourdanton,81.37,188.24,124.74,183.7,496.68,Single-ply,SBD,M
Boys,82.1,7,Kenton Spriggs,Marion,79.38,183.7,117.93,188.24,489.88,Single-ply,SBD,M
Boys,82.1,8,Matthew Embers,Carrizo Springs,80.47,188.24,108.86,192.78,489.88,Single-ply,SBD,M
Boys,82.1,9,Shane Sargent,Castroville Medina Valley,78.74,176.9,120.2,188.24,485.34,Single-ply,SBD,M
Boys,82.1,10,Josh Cooper,Center Point,79.74,190.51,108.86,174.63,474,Single-ply,SBD,M
Boys,82.1,11,Isaac Corral,San Antonio Southwest,80.38,163.29,102.06,188.24,453.59,Single-ply,SBD,M
Boys,82.1,12,Anthony Carlos,Comfort,79.02,136.08,88.45,192.78,417.3,Single-ply,SBD,M
Boys,82.1,13,Trevor Leggett,Bandera,80.56,124.74,108.86,181.44,415.04,Single-ply,SBD,M
Boys,82.1,14,Michael Gomez,Poteet,78.83,140.61,102.06,167.83,410.5,Single-ply,SBD,M
Boys,82.1,15,Kyler Spriggs,Marion,76.48,147.42,83.91,167.83,399.16,Single-ply,SBD,M
Boys,82.1,16,Dalin Stone,San Antonio Cole,81.1,142.88,83.91,170.1,396.89,Single-ply,SBD,M
Boys,82.1,17,Nathan Salazar,Somerset,81.65,124.74,92.99,158.76,376.48,Single-ply,SBD,M
Boys,82.1,18,Dyllan Maldonado,Dilley,81.19,124.74,74.84,142.88,342.46,Single-ply,SBD,M
Boys,82.1,DQ,Wyatt Blair,Bandera,78.11,,,,,Single-ply,SBD,M
Boys,89.81,1,Nathon Cantu,San Antonio Brooks Academy,86.91,249.48,154.22,215.46,619.15,Single-ply,SBD,M
Boys,89.81,2,Hagen Brown,Floresville,88.72,222.26,136.08,219.99,578.33,Single-ply,SBD,M
Boys,89.81,3,John Engelmann,Jourdanton,87.36,226.8,129.27,208.65,564.72,Single-ply,SBD,M
Boys,89.81,4,Efrain Sanchez,San Antonio Southwest,87.36,226.8,117.93,208.65,553.38,Single-ply,SBD,M
Boys,89.81,5,Jacob Thomas,Floresville,89.63,231.33,129.27,190.51,551.11,Single-ply,SBD,M
Boys,89.81,6,Josh Roberts,Floresville,89.72,222.26,120.2,199.58,542.04,Single-ply,SBD,M
Boys,89.81,7,Mario Aranda,San Antonio Southside,84.03,185.97,147.42,195.04,528.44,Single-ply,SBD,M
Boys,89.81,8,Conner Sharp,Comfort,85.82,183.7,120.2,204.12,508.02,Single-ply,SBD,M
Boys,89.81,9,Josh Montez,San Antonio Southwest,82.74,192.78,106.59,201.85,501.22,Single-ply,SBD,M
Boys,89.81,10,Mark Puente,Crystal City,85.64,210.92,120.2,170.1,501.22,Single-ply,SBD,M
Boys,89.81,11,Austin Felan,Devine,89.09,197.31,127.01,174.63,498.95,Single-ply,SBD,M
Boys,89.81,12,Serge Shkyvarnytskyy,Jourdanton,88,199.58,111.13,183.7,494.42,Single-ply,SBD,M
Boys,89.81,13,Houston Crawford,Castroville Medina Valley,88,190.51,111.13,179.17,480.81,Single-ply,SBD,M
Boys,89.81,14,Jonathan Davalos,Crystal City,85.37,176.9,106.59,149.69,433.18,Single-ply,SBD,M
Boys,89.81,15,Steven Muzquiz,Crystal City,84.46,136.08,83.91,174.63,394.63,Single-ply,SBD,M
Boys,89.81,16,Adriel Tovar,Poteet,89.18,145.15,77.11,167.83,390.09,Single-ply,SBD,M
Boys,89.81,17,Fleming Jonathan,Marion,87.27,149.69,77.11,151.95,378.75,Single-ply,SBD,M
Boys,89.81,18,Lino Tripp,San Antonio Cole,84.82,129.27,79.38,154.22,362.87,Single-ply,SBD,M
Boys,89.81,19,Samuel Grodman,Bandera,85.64,122.47,63.5,124.74,310.71,Single-ply,SBD,M
Boys,89.81,DQ,Adam Garcia,San Antonio Southside,88.63,240.4,,,,Single-ply,SBD,M
Boys,89.81,DQ,Roberto Garcia,San Antonio Southside,83.91,210.92,,,,Single-ply,SBD,M
Boys,89.81,DQ,Meme Moreno,Somerset,88.22,,,,,Single-ply,SBD,M
Boys,99.79,1,Tyler Crisp,Poteet,98.43,265.35,113.4,233.6,612.35,Single-ply,SBD,M
Boys,99.79,2,Patrick Zaiontz,San Antonio Brooks Academy,97.25,199.58,176.9,229.06,605.55,Single-ply,SBD,M
Boys,99.79,3,Dallin Hack,San Antonio Southwest,96.07,222.26,163.29,204.12,589.67,Single-ply,SBD,M
Boys,99.79,4,Eli Rejino,Devine,99.16,219.99,161.03,204.12,585.13,Single-ply,SBD,M
Boys,99.79,5,Mark Sustaita,Castroville Medina Valley,90.63,224.53,124.74,226.8,576.06,Single-ply,SBD,M
Boys,99.79,6,Manuel Vacca,Jourdanton,93.62,226.8,124.74,199.58,551.11,Single-ply,SBD,M
Boys,99.79,7,Brandon Cotton,San Antonio Southwest,90.63,210.92,131.54,199.58,542.04,Single-ply,SBD,M
Boys,99.79,8,Cole Doerr,Marion,95.16,192.78,120.2,210.92,523.9,Single-ply,SBD,M
Boys,99.79,9,Savion Davis,Comfort,99.79,188.24,108.86,195.04,492.15,Single-ply,SBD,M
Boys,99.79,10,Ethan Chapa,Center Point,90.26,192.78,113.4,183.7,489.88,Single-ply,SBD,M
Boys,99.79,11,Christopher Martinez,Castroville Medina Valley,94.35,170.1,104.33,204.12,478.54,Single-ply,SBD,M
Boys,99.79,12,Seth Johnson #2,Bandera,96.48,136.08,88.45,149.69,374.21,Single-ply,SBD,M
Boys,99.79,13,Travis Riechert,Bandera,93.26,104.33,79.38,142.88,326.59,Single-ply,SBD,M
Boys,99.79,DQ,Brent Hawkins,San Antonio Cole,99.79,,,,,Single-ply,SBD,M
Boys,109.77,1,Eddie Moreno,Somerset,109.41,263.08,154.22,240.4,657.71,Single-ply,SBD,M
Boys,109.77,2,Emilio Alvarado,Crystal City,101.88,233.6,136.08,185.97,555.65,Single-ply,SBD,M
Boys,109.77,3,James Dueano,San Antonio Southwest,106.23,210.92,102.06,215.46,528.44,Single-ply,SBD,M
Boys,109.77,4,Bernard Aguilar,Poteet,104.96,204.12,97.52,181.44,483.08,Single-ply,SBD,M
Boys,109.77,5,Logan Crane,Bandera,105.6,181.44,124.74,176.9,483.08,Single-ply,SBD,M
Boys,109.77,6,Jason Gallegos,Carrizo Springs,109.59,176.9,117.93,183.7,478.54,Single-ply,SBD,M
Boys,109.77,7,Mark Ruiz,Crystal City,104.51,161.03,86.18,163.29,410.5,Single-ply,SBD,M
Boys,109.77,8,Mason McLerran,Bandera,109.77,181.44,,,181.44,Single-ply,S,M
Boys,109.77,DQ,Rey Mendoza,Crystal City,104.87,,,,,Single-ply,SBD,M
Boys,109.77,DQ,Jacob Caldera,San Antonio Cole,105.32,244.94,,,,Single-ply,SBD,M
Boys,124.74,1,James Woods,Somerset,121.02,328.85,170.1,265.35,764.3,Single-ply,SBD,M
Boys,124.74,2,Austin Soto,Devine,120.02,272.16,201.85,235.87,709.87,Single-ply,SBD,M
Boys,124.74,3,Jerimiah Gonzales,Castroville Medina Valley,118.93,215.46,131.54,174.63,521.63,Single-ply,SBD,M
Boys,124.74,4,Elijah Amaro,San Antonio Southwest,119.39,174.63,133.81,176.9,485.34,Single-ply,SBD,M
Boys,124.74,DQ,Cornelius Brown,San Antonio Cole,124.74,,,,,Single-ply,SBD,M
Boys,124.74,DQ,Xavier Coronado,San Antonio Southwest,115.39,183.7,,,,Single-ply,SBD,M
Boys,124.74+,1,Edward Gonzalez,Crystal City,129.27,312.98,165.56,235.87,714.41,Single-ply,SBD,M
Boys,124.74+,2,Mario Chavez,Carrizo Springs,194.23,242.67,183.7,242.67,669.05,Single-ply,SBD,M
Boys,124.74+,3,Javier De Leon,Somerset,145.15,272.16,136.08,185.97,594.21,Single-ply,SBD,M
Boys,124.74+,4,Nate Serna,Jourdanton,133.99,249.48,142.88,195.04,587.4,Single-ply,SBD,M
Boys,124.74+,5,Tino Torres,Carrizo Springs,126.92,204.12,158.76,206.38,569.26,Single-ply,SBD,M
Boys,124.74+,6,Isaiah Atseriak,San Antonio Cole,134.54,208.65,90.72,215.46,514.83,Single-ply,SBD,M
Boys,124.74+,7,Josh Martinez,San Antonio Southwest,134.99,199.58,115.67,161.03,476.27,Single-ply,SBD,M
Boys,124.74+,8,Ben Pagen,Poteet,148.14,120.2,92.99,149.69,362.87,Single-ply,SBD,M
Boys,124.74+,DQ,Guadalupe Gonzalez,Laredo Martin,135.71,,,,,Single-ply,SBD,M
Boys,124.74+,DQ,Odie De La Rosa,Castroville Medina Valley,144.97,249.48,149.69,,,Single-ply,SBD,M
Boys,124.74+,DQ,Chris Cobb,Somerset,145.15,,,,,Single-ply,SBD,M
Boys,,NS,Darwin Naguit,San Antonio Southwest,,,,,,Single-ply,SBD,M
Boys,,NS,Steven Mireles,Castroville Medina Valley,,174.63,,,,Single-ply,SBD,M
Boys,,NS,Devin Geller,Center Point,,,,,,Single-ply,SBD,M
Boys,,NS,Enrique Garza,Dilley,,142.88,,,,Single-ply,SBD,M
Boys,,NS,Joe Garza,Dilley,,158.76,,,,Single-ply,SBD,M
Boys,,NS,James Garza,Dilley,,142.88,,,,Single-ply,SBD,M
Boys,,NS,Josh Duran,Marion,,174.63,,,,Single-ply,SBD,M
Boys,,NS,Jacob Doerr,Marion,,147.42,,,,Single-ply,SBD,M
Boys,,NS,James Castillo,Jourdanton,,,,,,Single-ply,SBD,M
Boys,,NS,Angel Flores,Jourdanton,,,,,,Single-ply,SBD,M
Boys,,NS,Mario Benavides,Rocksprings,,,,,,Single-ply,SBD,M
Boys,,NS,Bosley Fuentes,Rocksprings,,,,,,Single-ply,SBD,M
Boys,,NS,Jamie Palacio,Rocksprings,,,,,,Single-ply,SBD,M
Boys,,NS,John Paul Cordova,Rocksprings,,,,,,Single-ply,SBD,M
Junior Varsity,55.79,1,Demetrios Monreal,Devine,55.7,131.54,77.11,127.01,335.66,Single-ply,SBD,M
Junior Varsity,59.87,1,Kevin Valdez,Castroville Medina Valley,57.79,92.99,63.5,136.08,292.57,Single-ply,SBD,M
Junior Varsity,67.13,1,Luis Perales,Carrizo Springs,66.32,199.58,127.01,206.38,532.97,Single-ply,SBD,M
Junior Varsity,67.13,2,Alberto Salazar,Somerset,66.68,129.27,72.57,156.49,358.34,Single-ply,SBD,M
Junior Varsity,67.13,3,Julio Alvarez,Somerset,63.5,122.47,81.65,142.88,347,Single-ply,SBD,M
Junior Varsity,67.13,4,Gene Martinez,San Antonio Southwest,62.51,106.59,65.77,117.93,290.3,Single-ply,SBD,M
Junior Varsity,67.13,5,Paul Palanco,Marion,64.68,102.06,68.04,117.93,288.03,Single-ply,SBD,M
Junior Varsity,67.13,6,Jeremy Martinez,Castroville Medina Valley,66.41,92.99,56.7,129.27,278.96,Single-ply,SBD,M
Junior Varsity,67.13,7,Chase Dubose,Devine,67.13,124.74,,,124.74,Single-ply,S,M
Junior Varsity,67.13,DQ,David Elizondo,Castroville Medina Valley,61.42,97.52,,122.47,,Single-ply,SBD,M
Junior Varsity,67.13,DQ,Angel Cordova,Rocksprings,62.32,133.81,,,,Single-ply,SBD,M
Junior Varsity,67.13,DQ,Blue Moreno,Rocksprings,66.95,129.27,,,,Single-ply,SBD,M
Junior Varsity,74.84,1,Sergio Villarreal,Castroville Medina Valley,73.94,179.17,104.33,188.24,471.74,Single-ply,SBD,M
Junior Varsity,74.84,2,Eric Gonzales #2,Carrizo Springs,72.3,154.22,88.45,179.17,421.84,Single-ply,SBD,M
Junior Varsity,74.84,3,Noah Brogdon,Devine,74.03,158.76,111.13,149.69,419.57,Single-ply,SBD,M
Junior Varsity,74.84,4,Tyler Pearson,Jourdanton,72.03,165.56,86.18,161.03,412.77,Single-ply,SBD,M
Junior Varsity,74.84,5,Joseph Martinez,Somerset,73.48,140.61,70.31,158.76,369.68,Single-ply,SBD,M
Junior Varsity,74.84,6,Matthew Benedetti,Marion,67.4,122.47,77.11,149.69,349.27,Single-ply,SBD,M
Junior Varsity,74.84,7,Joey Cardenas,Carrizo Springs,67.86,102.06,63.5,145.15,310.71,Single-ply,SBD,M
Junior Varsity,74.84,DQ,Robert Turner,Castroville Medina Valley,73.03,,,,,Single-ply,SBD,M
Junior Varsity,74.84,DQ,Abel Flores,Somerset,70.31,147.42,,,,Single-ply,SBD,M
Junior Varsity,82.1,1,Isaac Ramos,Jourdanton,81.37,188.24,102.06,163.29,453.59,Single-ply,SBD,M
Junior Varsity,82.1,2,Reagan Brown,Devine,78.56,142.88,108.86,136.08,387.82,Single-ply,SBD,M
Junior Varsity,82.1,3,Christian Gonzalez,Jourdanton,80.1,86.18,95.25,151.95,333.39,Single-ply,SBD,M
Junior Varsity,82.1,4,Wayne Willette,Jourdanton,79.74,70.31,43.09,79.38,192.78,Single-ply,SBD,M
Junior Varsity,82.1,DQ,Richard Andrade,Castroville Medina Valley,82.1,102.06,,,,Single-ply,SBD,M
Junior Varsity,89.81,1,Robert Guzman,Somerset,89.36,174.63,124.74,179.17,478.54,Single-ply,SBD,M
Junior Varsity,89.81,2,Abel Villarreal,Somerset,88.31,188.24,97.52,190.51,476.27,Single-ply,SBD,M
Junior Varsity,89.81,3,Lukas Aranda,Somerset,85.73,170.1,92.99,167.83,430.91,Single-ply,SBD,M
Junior Varsity,89.81,4,Joshua Tinahero,Somerset,84.82,149.69,90.72,167.83,408.23,Single-ply,SBD,M
Junior Varsity,89.81,5,Ernie Rangel,Castroville Medina Valley,83.55,129.27,74.84,174.63,378.75,Single-ply,SBD,M
Junior Varsity,89.81,6,Juan Oyervidez,Carrizo Springs,87.18,131.54,70.31,151.95,353.8,Single-ply,SBD,M
Junior Varsity,89.81,7,Fred Chong,Carrizo Springs,82.46,111.13,72.57,165.56,349.27,Single-ply,SBD,M
Junior Varsity,89.81,8,Tanner Hardcastle,Devine,84.82,113.4,74.84,124.74,312.98,Single-ply,SBD,M
Junior Varsity,89.81,9,Tristin Cruz,Devine,89.81,113.4,,,113.4,Single-ply,S,M
Junior Varsity,89.81,DQ,Braxton Mckinney,Jourdanton,87.09,156.49,,,,Single-ply,SBD,M
Junior Varsity,99.79,1,Jose Garcia,Somerset,94.35,226.8,90.72,197.31,514.83,Single-ply,SBD,M
Junior Varsity,99.79,2,Cruz Montez,Carrizo Springs,99.79,188.24,117.93,176.9,483.08,Single-ply,SBD,M
Junior Varsity,99.79,3,Jeffrey De Leon,Carrizo Springs,96.07,172.37,106.59,195.04,474,Single-ply,SBD,M
Junior Varsity,99.79,4,George Perez,Somerset,97.52,163.29,124.74,183.7,471.74,Single-ply,SBD,M
Junior Varsity,99.79,5,Rafael Salinas,Somerset,92.99,176.9,90.72,197.31,464.93,Single-ply,SBD,M
Junior Varsity,99.79,6,Reno Garza,Somerset,99.79,183.7,104.33,172.37,460.4,Single-ply,SBD,M
Junior Varsity,99.79,7,Vicente Abundes,Somerset,96.39,151.95,113.4,167.83,433.18,Single-ply,SBD,M
Junior Varsity,99.79,8,Phillip Herrera,San Antonio Southwest,91.17,133.81,104.33,151.95,390.09,Single-ply,SBD,M
Junior Varsity,99.79,DQ,Earnest Cade,Somerset,99.79,,,,,Single-ply,SBD,M
Junior Varsity,99.79,DQ,Bridgar Netting,Castroville Medina Valley,99.79,170.1,,,,Single-ply,SBD,M
Junior Varsity,109.77,1,Jason Carillo,Rocksprings,107.77,136.08,92.99,142.88,371.95,Single-ply,SBD,M
Junior Varsity,109.77,2,Jarod Rodriguez,Carrizo Springs,106.41,127.01,81.65,142.88,351.53,Single-ply,SBD,M
Junior Varsity,124.74,1,Matthew Castro,Carrizo Springs,123.38,233.6,117.93,226.8,578.33,Single-ply,SBD,M
Junior Varsity,124.74,2,Dylan Carroll,Castroville Medina Valley,117.84,151.95,111.13,170.1,433.18,Single-ply,SBD,M
Junior Varsity,124.74,3,Christian Arredondo,Devine,113.67,165.56,120.2,138.35,424.11,Single-ply,SBD,M
Junior Varsity,124.74,4,Jesus Mendoza,San Antonio Southwest,117.93,147.42,108.86,154.22,410.5,Single-ply,SBD,M
Junior Varsity,124.74,5,Jose Murrillo,San Antonio Southwest,117.39,154.22,83.91,156.49,394.63,Single-ply,SBD,M
Junior Varsity,124.74,6,Jonah Barrow,Castroville Medina Valley,110.59,102.06,79.38,120.2,301.64,Single-ply,SBD,M
Junior Varsity,124.74+,1,Isaiah Reyna,Somerset,140.61,170.1,72.57,185.97,428.64,Single-ply,SBD,M
Junior Varsity,124.74+,2,Moses Flores,Castroville Medina Valley,128.37,147.42,102.06,158.76,408.23,Single-ply,SBD,M
Junior Varsity,124.74+,3,George Ortiz,San Antonio Southwest,133.27,133.81,83.91,154.22,371.95,Single-ply,SBD,M
Junior Varsity,,NS,Elvan Valencia,San Antonio Southwest,,99.79,,,,Single-ply,SBD,M
Junior Varsity,,NS,Joshua Jones,San Antonio Southwest,,145.15,,,,Single-ply,SBD,M
Junior Varsity,,NS,Jacob Vargas,San Antonio Southwest,,138.35,,,,Single-ply,SBD,M
Junior Varsity,,NS,Alex Garcia,San Antonio Southwest,,83.91,,,,Single-ply,SBD,M
Junior Varsity,,NS,Martin Torres,San Antonio Southwest,,102.06,,,,Single-ply,SBD,M
Junior Varsity,,NS,Miguel Galvez,Somerset,,,,,,Single-ply,SBD,M
Junior Varsity,,NS,Mario Menbez,Carrizo springs,,,,,,Single-ply,SBD,M
Junior Varsity,,NS,Da'von Simmons,Carrizo springs,,,,,,Single-ply,SBD,M
Junior Varsity,,NS,Jerry Flores,Jourdanton,,,,,,Single-ply,SBD,M
Junior Varsity,,NS,Cody Polk,Jourdanton,,,,,,Single-ply,SBD,M
Junior Varsity,,NS,Josh Tapp,Jourdanton,,,,,,Single-ply,SBD,M
Junior Varsity,,NS,Rico Martinez,Jourdanton,,,,,,Single-ply,SBD,M
Junior Varsity,,NS,Steven Adams,Jourdanton,,,,,,Single-ply,SBD,M
Freshmen,51.71,1,Silverio Mendoza,Crystal City,50.98,106.59,52.16,129.27,288.03,Single-ply,SBD,M
Freshmen,51.71,2,Julian Hughes,San Antonio Southwest,51.17,74.84,52.16,104.33,231.33,Single-ply,SBD,M
Freshmen,55.79,1,Alex Gallegos,Carrizo Springs,52.71,83.91,54.43,111.13,249.48,Single-ply,SBD,M
Freshmen,59.87,1,Juan Guzman,Crystal City,59.78,120.2,68.04,129.27,317.51,Single-ply,SBD,M
Freshmen,59.87,2,Hunter Young,Marion,58.15,74.84,56.7,95.25,226.8,Single-ply,SBD,M
Freshmen,59.87,3,Jose Tovar,Somerset,58.97,68.04,47.63,90.72,206.38,Single-ply,SBD,M
Freshmen,67.13,1,Jon Michael Lemas,Crystal City,65.23,151.95,58.97,136.08,347,Single-ply,SBD,M
Freshmen,67.13,2,Leif Griffin,San Antonio Southwest,65.86,120.2,74.84,122.47,317.51,Single-ply,SBD,M
Freshmen,67.13,3,Tomas Montellano,Crystal City,65.32,111.13,63.5,124.74,299.37,Single-ply,SBD,M
Freshmen,67.13,4,Cody Moreno,Somerset,64.86,104.33,65.77,111.13,281.23,Single-ply,SBD,M
Freshmen,67.13,5,Israel Munoz,Crystal City,61.78,70.31,47.63,102.06,219.99,Single-ply,SBD,M
Freshmen,74.84,1,Jarrett Wallen,Marion,72.76,115.67,122.47,142.88,381.02,Single-ply,SBD,M
Freshmen,74.84,2,Tayler Mills,Marion,72.67,127.01,70.31,149.69,347,Single-ply,SBD,M
Freshmen,82.1,1,Edward Kirkstead,San Antonio Southwest,80.74,170.1,97.52,185.97,453.59,Single-ply,SBD,M
Freshmen,82.1,2,Nicholas Propst,San Antonio Southwest,79.83,133.81,74.84,136.08,344.73,Single-ply,SBD,M
Freshmen,82.1,3,Francis Sanchez,Somerset,79.83,113.4,83.91,136.08,333.39,Single-ply,SBD,M
Freshmen,82.1,4,Damian Rivas,San Antonio Southwest,80.38,111.13,58.97,117.93,288.03,Single-ply,SBD,M
Freshmen,89.81,1,Joseph Bueno,Somerset,88.9,165.56,83.91,183.7,433.18,Single-ply,SBD,M
Freshmen,89.81,2,David Castro,Carrizo Springs,83.19,136.08,83.91,124.74,344.73,Single-ply,SBD,M
Freshmen,89.81,3,John Angel Banda,Somerset,83.91,104.33,83.91,142.88,331.12,Single-ply,SBD,M
Freshmen,89.81,4,Lino Castro,Crystal City,89.72,117.93,65.77,120.2,303.91,Single-ply,SBD,M
Freshmen,99.79,1,Francisco Duran,Marion,92.9,156.49,102.06,172.37,430.91,Single-ply,SBD,M
Freshmen,109.77,1,Fransisco Uhl,San Antonio Southwest,106.23,142.88,108.86,170.1,421.84,Single-ply,SBD,M
Freshmen,109.77,2,Patino Christian,Somerset,108.86,142.88,92.99,154.22,390.09,Single-ply,SBD,M
Freshmen,109.77,3,Kagan Weikle,Somerset,104.33,117.93,68.04,124.74,310.71,Single-ply,SBD,M
Freshmen,109.77,DQ,Devon Moyet,San Antonio Southside,101.51,,,,,Single-ply,SBD,M
Freshmen,124.74,1,Louis Rico,Somerset,124.65,172.37,122.47,156.49,451.32,Single-ply,SBD,M
Freshmen,124.74,2,Luciano Nava,San Antonio Southside,118.93,147.42,81.65,133.81,362.87,Single-ply,SBD,M
Freshmen,124.74,3,Arturo Lopez,San Antonio Southwest,110.04,129.27,79.38,142.88,351.53,Single-ply,SBD,M
Freshmen,124.74+,1,Sebastian Ramirez,Somerset,136.08,170.1,88.45,195.04,453.59,Single-ply,SBD,M
Freshmen,,NS,Roberto Martínez,Somerset,,,,,,Single-ply,SBD,M
Freshmen,,NS,Christian Adame,San Antonio Southwest,,136.08,,,,Single-ply,SBD,M
Freshmen,,NS,Jaime Calmona,Somerset,,,,,,Single-ply,SBD,M
Freshmen,,NS,Jesus Cortez,Somerset,,,,,,Single-ply,SBD,M
Freshmen,,NS,Tucker Walters,Marion,,122.47,,,,Single-ply,SBD,M
Freshmen,,NS,Samson Montoya,Marion,,122.47,,,,Single-ply,SBD,M
