Division,WeightClassKg,Place,Name,Team,BodyweightKg,Best3SquatKg,Best3BenchKg,Best3DeadliftKg,TotalKg,Equipment,Event,Sex
Boys,51.71,1,Brandon Fernandez,Poteet,49.26,151.95,83.91,147.42,383.29,Single-ply,SBD,M
Boys,51.71,2,Joey Longoria,Pearsall,51.71,145.15,74.84,151.95,371.95,Single-ply,SBD,M
Boys,51.71,3,Rudy Sanchez,Somerset,51.44,136.08,79.38,147.42,362.87,Single-ply,SBD,M
Boys,51.71,4,Deonte Duhart,Ingleside,51.07,120.2,68.04,145.15,333.39,Single-ply,SBD,M
Boys,51.71,5,Brian Lazo,Crystal City,51.71,120.2,63.5,131.54,315.25,Single-ply,SBD,M
Boys,51.71,6,Hisaac Guerrero,Rio Hondo,47.9,104.33,74.84,127.01,306.17,Single-ply,SBD,M
Boys,51.71,7,Gabriel Bejeran,Sinton,50.44,117.93,56.7,120.2,294.84,Single-ply,SBD,M
Boys,51.71,8,Chris Edwards,Aransas Pass,47.54,111.13,61.23,115.67,288.03,Single-ply,SBD,M
Boys,51.71,9,Lucas DeBord,Cuero,51.71,104.33,61.23,104.33,269.89,Single-ply,SBD,M
Boys,51.71,10,Ricardo Martinez,Pearsall,49.17,97.52,52.16,102.06,251.74,Single-ply,SBD,M
Boys,55.79,1,Jose Hernandez,Corpus Christi West Oso,55.79,170.1,81.65,185.97,437.72,Single-ply,SBD,M
Boys,55.79,2,Daniel Jeronimo,Hidalgo Early College,55.61,161.03,90.72,179.17,430.91,Single-ply,SBD,M
Boys,55.79,3,Chris Anderson,Ingleside,55.79,161.03,92.99,176.9,430.91,Single-ply,SBD,M
Boys,55.79,4,Dalton Opperman,Columbus,55.79,142.88,88.45,142.88,374.21,Single-ply,SBD,M
Boys,55.79,5,Diego Esquivel,La Feria,55.43,142.88,79.38,147.42,369.68,Single-ply,SBD,M
Boys,55.79,6,Anthony Trevino,Rio Grande City Grulla,54.61,115.67,74.84,145.15,335.66,Single-ply,SBD,M
Boys,55.79,7,Justin Galvez,Sinton,53.98,111.13,72.57,147.42,331.12,Single-ply,SBD,M
Boys,55.79,8,Cristian Martinez,Hondo,54.43,127.01,70.31,131.54,328.85,Single-ply,SBD,M
Boys,55.79,9,Eric LaCourse,Columbus,55.34,117.93,72.57,136.08,326.59,Single-ply,SBD,M
Boys,55.79,10,Orlando Mata,Crystal City,54.34,113.4,65.77,133.81,312.98,Single-ply,SBD,M
Boys,55.79,DQ,Zechariah Segovia,Beeville Jones,55.79,156.49,,,,Single-ply,SBD,M
Boys,55.79,DQ,Danny Ruiz,Zapata,55.25,206.38,,,,Single-ply,SBD,M
Boys,59.87,1,Marcus Capetillo,Raymondville,59.87,217.72,115.67,197.31,530.7,Single-ply,SBD,M
Boys,59.87,2,Noe Herrera,Kingsville King,59.15,179.17,99.79,192.78,471.74,Single-ply,SBD,M
Boys,59.87,3,Eduardo Elizondo,Rio Grande City Grulla,58.69,165.56,108.86,183.7,458.13,Single-ply,SBD,M
Boys,59.87,4,Zeke Rocha,Rio Hondo,59.69,170.1,117.93,158.76,446.79,Single-ply,SBD,M
Boys,59.87,5,Elijah Ramirez,Port Isabel,59.69,174.63,88.45,176.9,439.98,Single-ply,SBD,M
Boys,59.87,6,Frank Hernandez,Rio Hondo,59.78,154.22,104.33,170.1,428.64,Single-ply,SBD,M
Boys,59.87,7,Silverio Mendoza,Crystal City,59.24,156.49,102.06,149.69,408.23,Single-ply,SBD,M
Boys,59.87,8,Kaleb Zertuche,Devine,59.6,140.61,97.52,170.1,408.23,Single-ply,SBD,M
Boys,59.87,9,Drake Moya,Beeville Jones,57.52,138.35,79.38,165.56,383.29,Single-ply,SBD,M
Boys,59.87,10,Brandon Aguilar,Somerset,59.87,124.74,90.72,124.74,340.19,Single-ply,SBD,M
Boys,59.87,DQ,Eli Luna,Somerset,59.51,,,,,Single-ply,SBD,M
Boys,59.87,DQ,Aj Sayas,Raymondville,59.87,133.81,81.65,,,Single-ply,SBD,M
Boys,67.13,1,Tyler Bush,Rio Hondo,66.95,215.46,147.42,204.12,566.99,Single-ply,SBD,M
Boys,67.13,2,Orlando Gutierrez,Crystal City,66.86,240.4,102.06,210.92,553.38,Single-ply,SBD,M
Boys,67.13,3,Roman Ornelaz,San Antonio Holy Cross,64.95,201.85,117.93,224.53,544.31,Single-ply,SBD,M
Boys,67.13,4,Chance Marler,Victoria St. Joseph,65.14,217.72,108.86,217.72,544.31,Single-ply,SBD,M
Boys,67.13,5,Chris Velasquez,Geronimo Navarro,61.6,217.72,120.2,188.24,526.17,Single-ply,SBD,M
Boys,67.13,6,Isaac Rodriguez,Rio Hondo,66.22,192.78,115.67,195.04,503.49,Single-ply,SBD,M
Boys,67.13,7,Julian Rico,Somerset,64.95,195.04,108.86,183.7,487.61,Single-ply,SBD,M
Boys,67.13,8,Antonio Garcia,Somerset,65.41,170.1,102.06,208.65,480.81,Single-ply,SBD,M
Boys,67.13,9,Trey Hernandez,Beeville Jones,66.86,190.51,102.06,183.7,476.27,Single-ply,SBD,M
Boys,67.13,10,Cesar Uribe,Zapata,66.95,167.83,111.13,195.04,474,Single-ply,SBD,M
Boys,67.13,11,Mario Cabrera,Somerset,65.59,181.44,97.52,185.97,464.93,Single-ply,SBD,M
Boys,67.13,12,David Ortega,Lytle,67.13,158.76,97.52,208.65,464.93,Single-ply,SBD,M
Boys,74.84,1,Steven Ramirez,Devine,73.39,256.28,161.03,229.06,646.37,Single-ply,SBD,M
Boys,74.84,2,Dominic Ramos,Rio Hondo,74.39,222.26,174.63,213.19,610.08,Single-ply,SBD,M
Boys,74.84,3,Cesar Gonzalez,Somerset,72.67,229.06,117.93,229.06,576.06,Single-ply,SBD,M
Boys,74.84,4,Chris Ceballos,Rockport-Fulton,74.57,215.46,127.01,204.12,546.58,Single-ply,SBD,M
Boys,74.84,5,Roel Gomez,Zapata,73.66,192.78,122.47,199.58,514.83,Single-ply,SBD,M
Boys,74.84,6,Seth Ruff,Ingleside,72.76,197.31,106.59,208.65,512.56,Single-ply,SBD,M
Boys,74.84,7,Jacob Warren,Ingleside,73.84,181.44,113.4,190.51,485.34,Single-ply,SBD,M
Boys,74.84,8,Josue Orozco,Port Isabel,71.85,181.44,104.33,192.78,478.54,Single-ply,SBD,M
Boys,74.84,9,Troy de la Garza,La Feria,73.21,172.37,111.13,192.78,476.27,Single-ply,SBD,M
Boys,74.84,10,Cesar Franco,Crystal City,74.84,170.1,86.18,185.97,442.25,Single-ply,SBD,M
Boys,74.84,DQ,Patrick Prieto,Beeville Jones,74.03,,,,,Single-ply,SBD,M
Boys,82.1,1,Ismael Franco,Crystal City,75.93,260.82,165.56,254.01,680.39,Single-ply,SBD,M
Boys,82.1,2,Lucas Byrd,Devine,80.1,265.35,151.95,244.94,662.24,Single-ply,SBD,M
Boys,82.1,3,Roy DeLeon,Somerset,77.02,240.4,154.22,238.14,632.76,Single-ply,SBD,M
Boys,82.1,4,Eric Gonzalez,Carrizo Springs,79.83,247.21,145.15,233.6,625.96,Single-ply,SBD,M
Boys,82.1,5,Dagan Wise,Port Isabel,81.92,238.14,138.35,235.87,612.35,Single-ply,SBD,M
Boys,82.1,6,David Saldana,Zapata,79.83,192.78,113.4,217.72,523.9,Single-ply,SBD,M
Boys,82.1,7,Nelson Mejia,Port Isabel,79.56,204.12,124.74,192.78,521.63,Single-ply,SBD,M
Boys,82.1,DQ,Nathaniel Dnofre,San Antonio Holy Cross,80.01,226.8,133.81,204.12,,Single-ply,SBD,M
Boys,82.1,DQ,Elijah Valencia,Orange Grove,82.01,281.23,145.15,,,Single-ply,SBD,M
Boys,82.1,DQ,Patrick Williams,Ingleside,77.93,224.53,145.15,,,Single-ply,SBD,M
Boys,82.1,DQ,Dayton Ball,Cuero,80.83,,,,,Single-ply,SBD,M
Boys,82.1,DQ,Euler de Leon,Geronimo Navarro,80.2,217.72,138.35,,,Single-ply,SBD,M
Boys,89.81,1,Luis Perales,Carrizo Springs,89.54,265.35,204.12,244.94,714.41,Single-ply,SBD,M
Boys,89.81,2,Daniel Gonzalez,Kingsville King,87.91,281.23,158.76,263.08,703.07,Single-ply,SBD,M
Boys,89.81,3,Joseph Bueno,Somerset,87.91,267.62,154.22,263.08,684.92,Single-ply,SBD,M
Boys,89.81,4,Joseph Perez,Lytle,82.19,249.48,136.08,224.53,610.08,Single-ply,SBD,M
Boys,89.81,5,Zack Pulido,Rockport-Fulton,84.64,226.8,131.54,231.33,589.67,Single-ply,SBD,M
Boys,89.81,6,Rudy Tijerina,Raymondville,85,229.06,124.74,219.99,573.79,Single-ply,SBD,M
Boys,89.81,7,Erik Pizzaro,Rio Hondo,86.73,192.78,151.95,215.46,560.19,Single-ply,SBD,M
Boys,89.81,8,Tyler Law,Geronimo Navarro,84.19,192.78,142.88,222.26,557.92,Single-ply,SBD,M
Boys,89.81,9,Elias Torres,Somerset,86.64,219.99,138.35,195.04,553.38,Single-ply,SBD,M
Boys,89.81,10,Michael Gomez,Poteet,87.27,217.72,122.47,204.12,544.31,Single-ply,SBD,M
Boys,89.81,11,Josiah Marquez,Pearsall,86,219.99,111.13,201.85,532.97,Single-ply,SBD,M
Boys,89.81,DQ,Michael Gonzalez,Somerset,83.1,,,,,Single-ply,SBD,M
Boys,99.79,1,Franco Arce,Zapata,98.97,303.91,156.49,254.01,714.41,Single-ply,SBD,M
Boys,99.79,2,Justin Flores,Rio Hondo,95.62,290.3,176.9,233.6,700.8,Single-ply,SBD,M
Boys,99.79,3,Gilbert Arriaga,Kingsville King,98.61,260.82,158.76,263.08,682.66,Single-ply,SBD,M
Boys,99.79,4,Manuel Garcia,Somerset,94.17,288.03,140.61,233.6,662.24,Single-ply,SBD,M
Boys,99.79,5,Raul Fernandez,Rockport-Fulton,96.98,272.16,140.61,247.21,659.98,Single-ply,SBD,M
Boys,99.79,6,Jake Martinez,Rio Hondo,97.98,242.67,183.7,226.8,653.17,Single-ply,SBD,M
Boys,99.79,7,Mario Mendoza,Carrizo Springs,96.71,254.01,163.29,215.46,632.76,Single-ply,SBD,M
Boys,99.79,8,Jt Esparza,Gonzales,98.07,226.8,147.42,226.8,601.01,Single-ply,SBD,M
Boys,99.79,9,Freddy Lozano,La Feria,92.8,215.46,133.81,195.04,544.31,Single-ply,SBD,M
Boys,99.79,DQ,Neyfis Castellanos,Port Isabel,98.34,,,,,Single-ply,SBD,M
Boys,99.79,DQ,Arturo Alvarado,La Feria,98.34,,,,,Single-ply,SBD,M
Boys,99.79,DQ,Luke Michael,Rockport-Fulton,96.62,260.82,,,,Single-ply,SBD,M
Boys,109.77,1,Eddie Moreno,Somerset,109.59,308.44,201.85,265.35,775.64,Single-ply,SBD,M
Boys,109.77,2,Ismael Gonzalez,Kingsville King,107.77,278.96,161.03,231.33,671.32,Single-ply,SBD,M
Boys,109.77,3,Josh Almond,Comal Canyon Lake,104.33,244.94,158.76,229.06,632.76,Single-ply,SBD,M
Boys,109.77,4,Miguel Salazar,Rio Grande City Grulla,107.77,240.4,129.27,226.8,596.47,Single-ply,SBD,M
Boys,109.77,5,Marcus Avitia,Ingleside,103.69,231.33,165.56,192.78,589.67,Single-ply,SBD,M
Boys,109.77,6,Anthony Rogers,Ingleside,106.87,235.87,154.22,185.97,576.06,Single-ply,SBD,M
Boys,109.77,7,Joe Gutierrez,Crystal City,102.69,235.87,124.74,204.12,564.72,Single-ply,SBD,M
Boys,109.77,DQ,Alex Tijerina,Ingleside,108.59,,,,,Single-ply,SBD,M
Boys,109.77,DQ,Vincente Reyna,Gonzales,103.42,,,,,Single-ply,SBD,M
Boys,109.77,DQ,Mark Puente,Crystal City,100.06,,,,,Single-ply,SBD,M
Boys,109.77,DQ,Nick Searcy,Cuero,109.77,215.46,,,,Single-ply,SBD,M
Boys,124.74,1,Dylan Hatfield,Geronimo Navarro,124.28,285.76,188.24,229.06,703.07,Single-ply,SBD,M
Boys,124.74,2,Troy Macias,Rio Hondo,122.92,260.82,183.7,238.14,682.66,Single-ply,SBD,M
Boys,124.74,3,Juan Licea,Gonzales,122.74,272.16,151.95,242.67,666.78,Single-ply,SBD,M
Boys,124.74,4,Jermayne Miller,Beeville Jones,120.47,240.4,158.76,242.67,641.83,Single-ply,SBD,M
Boys,124.74,5,Mario Cano,Beeville Jones,121.56,258.55,167.83,213.19,639.57,Single-ply,SBD,M
Boys,124.74,6,Christian Arredondo,Devine,110.77,258.55,163.29,208.65,630.49,Single-ply,SBD,M
Boys,124.74,7,Logan Crane,Bandera,116.66,249.48,158.76,215.46,623.69,Single-ply,SBD,M
Boys,124.74,8,Cameron Ngo,Rockport-Fulton,119.48,249.48,138.35,229.06,616.89,Single-ply,SBD,M
Boys,124.74,9,Brandon Orosco,Carrizo Springs,119.39,258.55,140.61,213.19,612.35,Single-ply,SBD,M
Boys,124.74,10,Jarez Gonzalez,Hidalgo Early College,116.66,235.87,138.35,226.8,601.01,Single-ply,SBD,M
Boys,124.74,DQ,Nick Ramirez,Gonzales,124.65,,,,,Single-ply,SBD,M
Boys,124.74,DQ,Jorge Melgoza,Cuero,123.2,,,,,Single-ply,SBD,M
Boys,124.74+,1,Oscar Castillo,Pleasanton,134.72,308.44,201.85,249.48,759.77,Single-ply,SBD,M
Boys,124.74+,2,Daniel Martinez,Beeville Jones,139.34,265.35,185.97,235.87,687.19,Single-ply,SBD,M
Boys,124.74+,3,Ben Flores,Rio Hondo,135.71,256.28,170.1,210.92,637.3,Single-ply,SBD,M
Boys,124.74+,4,Sergio Hernandez,Geronimo Navarro,147.87,219.99,183.7,233.6,637.3,Single-ply,SBD,M
Boys,124.74+,5,Sebastian Ramirez,Somerset,136.62,265.35,158.76,210.92,635.03,Single-ply,SBD,M
Boys,124.74+,6,Will Atwood,Orange Grove,146.24,233.6,149.69,231.33,614.62,Single-ply,SBD,M
Boys,124.74+,7,Mike Moreno,Zapata,130.18,238.14,163.29,204.12,605.55,Single-ply,SBD,M
Boys,124.74+,8,Ivan Tejada,La Feria,134.44,238.14,127.01,226.8,591.94,Single-ply,SBD,M
Boys,124.74+,9,Jaden Brooks,Raymondville,167.65,215.46,124.74,215.46,555.65,Single-ply,SBD,M
Boys,124.74+,10,Isaiah Reyna,Somerset,143.61,238.14,120.2,176.9,535.24,Single-ply,SBD,M
Boys,124.74+,11,Rolando Zuniga,Rio Hondo,150.86,170.1,151.95,204.12,526.17,Single-ply,SBD,M
Boys,124.74+,DQ,Caleb Hargraves,Geronimo Navarro,128.09,224.53,133.81,,,Single-ply,SBD,M
