Division,WeightClassKg,Place,Name,Team,BodyweightKg,Best3SquatKg,Best3BenchKg,Best3DeadliftKg,TotalKg,Equipment,Event,Sex
Boys,51.71,1,Daniel Palamaros,Center,51.66,104.33,74.84,138.35,317.51,Single-ply,SBD,M
Boys,51.71,2,Ashton Lockhart,Woodville,50.35,102.06,54.43,113.4,269.89,Single-ply,SBD,M
Boys,51.71,3,Alan Cripps,Buna,44,92.99,61.23,111.13,265.35,Single-ply,SBD,M
Boys,51.71,4,Aaron Garress,Woodville,51.71,95.25,58.97,108.86,263.08,Single-ply,SBD,M
Boys,51.71,5,Karson Childress,Buna,51.48,97.52,56.7,106.59,260.82,Single-ply,SBD,M
Boys,55.79,6,Michael Shaddock,Hemphill,51.89,74.84,54.43,108.86,238.14,Single-ply,SBD,M
Boys,51.71,7,Jacob Couey,Newton,43.54,68.04,31.75,83.91,183.7,Single-ply,SBD,M
Boys,51.71,8,Cody Carmen,Jasper,45.36,43.09,24.95,56.7,124.74,Single-ply,SBD,M
Boys,59.87,1,Shannon Davis,Kirbyville,56.02,124.74,81.65,154.22,360.61,Single-ply,SBD,M
Boys,55.79,2,Braden Richardson,Jasper,54.43,113.4,58.97,111.13,283.5,Single-ply,SBD,M
Boys,55.79,DQ,Corey Frazier,Jasper,52.62,,,,,Single-ply,SBD,M
Boys,59.87,1,Armando Robles,Joaquin,59.87,149.69,95.25,183.7,428.64,Single-ply,SBD,M
Boys,59.87,2,Gerard Rhodes,Newton,58.51,151.95,79.38,156.49,387.82,Single-ply,SBD,M
Boys,59.87,3,Mason Carmello,Colmesneil,59.1,124.74,95.25,154.22,374.21,Single-ply,SBD,M
Boys,59.87,4,Riley Shaw,Woodville,59.42,142.88,74.84,151.95,369.68,Single-ply,SBD,M
Boys,67.13,5,Cadelro Frank,Kirbyville,60.1,131.54,65.77,140.61,337.93,Single-ply,SBD,M
Boys,67.13,6,Dakota Jordan,Kirbyville,60.1,102.06,70.31,124.74,297.1,Single-ply,SBD,M
Boys,59.87,7,Omar Richards,Jasper,59.42,97.52,49.9,136.08,283.5,Single-ply,SBD,M
Boys,59.87,DQ,H Watts,San Augustine,59.87,,,,,Single-ply,SBD,M
Boys,67.13,1,Deroddrick Hadnot,Jasper,65.32,208.65,124.74,208.65,542.04,Single-ply,SBD,M
Boys,67.13,2,Raylin Davis,Newton,67.13,188.24,97.52,190.51,476.27,Single-ply,SBD,M
Boys,67.13,3,Jaron Hanks,Newton,64.86,165.56,86.18,161.03,412.77,Single-ply,SBD,M
Boys,67.13,4,Alonzo Simmons,Jasper,66.22,147.42,95.25,163.29,405.97,Single-ply,SBD,M
Boys,67.13,5,Tavioun Fillyaw,Jasper,66.22,151.95,90.72,163.29,405.97,Single-ply,SBD,M
Boys,67.13,6,Charles Fentress,Woodville,63.5,158.76,97.52,145.15,401.43,Single-ply,SBD,M
Boys,67.13,7,Aaron Shaddock,Hemphill,62.6,142.88,88.45,165.56,396.89,Single-ply,SBD,M
Boys,67.13,8,Bo Woods,Newton,63.5,149.69,70.31,156.49,376.48,Single-ply,SBD,M
Boys,67.13,9,Jacob Watts,Woodville,65.77,151.95,72.57,145.15,369.68,Single-ply,SBD,M
Boys,67.13,10,Bobby Bass,Newton,62.6,127.01,88.45,151.95,367.41,Single-ply,SBD,M
Boys,67.13,11,Luke Simpson,Hemphill,62.05,124.74,88.45,145.15,358.34,Single-ply,SBD,M
Boys,67.13,12,Josh Hensarling,Woodville,65.32,131.54,65.77,140.61,337.93,Single-ply,SBD,M
Boys,74.84,1,Jace Thomas,Newton,74.84,199.58,122.47,247.21,569.26,Single-ply,SBD,M
Boys,74.84,2,Garrett Stanley,Center,74.53,219.99,117.93,226.8,564.72,Single-ply,SBD,M
Boys,74.84,3,Brycton Hughey,Kirbyville,73.75,167.83,106.59,208.65,483.08,Single-ply,SBD,M
Boys,74.84,4,Doughton Reeves,Buna,69.85,181.44,106.59,170.1,458.13,Single-ply,SBD,M
Boys,74.84,5,Calvin Thomas,Jasper,74.39,161.03,86.18,183.7,430.91,Single-ply,SBD,M
Boys,74.84,6,Matthew Peveto,Newton,74.84,154.22,70.31,188.24,412.77,Single-ply,SBD,M
Boys,74.84,7,Jordan Holsonback,Kirbyville,70.35,129.27,92.99,167.83,390.09,Single-ply,SBD,M
Boys,74.84,8,Lawrence Mays,Jasper,68.04,154.22,79.38,142.88,376.48,Single-ply,SBD,M
Boys,74.84,9,Dustin Willett,Kirbyville,67.95,129.27,92.99,145.15,367.41,Single-ply,SBD,M
Boys,74.84,10,Cameron Brewster,Kirbyville,71.94,106.59,52.16,113.4,272.16,Single-ply,SBD,M
Boys,74.84,DQ,Darius Brumley,Jasper,70.31,,,,,Single-ply,SBD,M
Boys,74.84,DQ,Jahlil Brown,Jasper,72.57,,,,,Single-ply,SBD,M
Boys,74.84,DQ,T. Berry,San Augustine,74.84,138.35,,,,Single-ply,SBD,M
Boys,74.84,DQ,Phillip Noble,Woodville,73.94,,,,,Single-ply,SBD,M
Boys,82.1,1,Brandon Johnson,Newton,80.29,249.48,133.81,244.94,628.23,Single-ply,SBD,M
Boys,82.1,2,Markeith Cauley,Jasper,81.65,208.65,117.93,192.78,519.36,Single-ply,SBD,M
Boys,82.1,3,J. Berry,San Augustine,82.1,183.7,102.06,195.04,480.81,Single-ply,SBD,M
Boys,82.1,4,Devon Brumley,Jasper,81.65,124.74,92.99,163.29,381.02,Single-ply,SBD,M
Boys,82.1,5,Alan Williams,Woodville,80.74,129.27,70.31,136.08,335.66,Single-ply,SBD,M
Boys,82.1,6,Jason London,Jasper,77.11,106.59,79.38,127.01,312.98,Single-ply,SBD,M
Boys,82.1,DQ,Dalton Phillips,Kirbyville,78.06,161.03,,,,Single-ply,SBD,M
Boys,82.1,DQ,Deadrian Rawls,Kirbyville,80.2,145.15,,,,Single-ply,SBD,M
Boys,82.1,DQ,Mackenzie Dochens,Center,81.92,197.31,136.08,,,Single-ply,SBD,M
Boys,82.1,DQ,Alex Renfro,San Augustine,82.1,,,,,Single-ply,SBD,M
Boys,89.81,1,Chedrick Hanks,Newton,88.9,219.99,147.42,240.4,607.81,Single-ply,SBD,M
Boys,89.81,2,Zack Conner,Newton,87.54,188.24,117.93,226.8,532.97,Single-ply,SBD,M
Boys,89.81,3,Tyler Cutrer,Colmesneil,87.54,215.46,122.47,188.24,526.17,Single-ply,SBD,M
Boys,89.81,4,Garrett Derouen,Woodville,88.9,190.51,136.08,197.31,523.9,Single-ply,SBD,M
Boys,89.81,5,Kal Metcalf,Shelbyville,89.36,192.78,104.33,206.38,503.49,Single-ply,SBD,M
Boys,89.81,6,John Kirbow,Kirbyville,85.28,170.1,104.33,183.7,458.13,Single-ply,SBD,M
Boys,89.81,7,Dillon Kroner,Kirbyville,83.55,163.29,92.99,188.24,444.52,Single-ply,SBD,M
Boys,89.81,8,Cody Mitchell,Jasper,87.09,136.08,97.52,190.51,424.11,Single-ply,SBD,M
Boys,89.81,9,Nethaniel Martinez,Jasper,84.82,145.15,92.99,181.44,419.57,Single-ply,SBD,M
Boys,99.79,10,Keith Long,Kirbyville,89.86,142.88,111.13,156.49,410.5,Single-ply,SBD,M
Boys,89.81,DQ,Blaine Rhodes,Kirbyville,86.82,,,,,Single-ply,SBD,M
Boys,99.79,1,Terrence Cuney,Jasper,97.98,249.48,181.44,254.01,684.92,Single-ply,SBD,M
Boys,99.79,2,Shawn Jones,Jasper,99.79,247.21,138.35,254.01,639.57,Single-ply,SBD,M
Boys,99.79,3,Trea'Von Davis,Newton,93.44,210.92,136.08,185.97,532.97,Single-ply,SBD,M
Boys,99.79,4,Isiah Myers,Newton,93.44,183.7,136.08,206.38,526.17,Single-ply,SBD,M
Boys,99.79,5,Adam Mason,Joaquin,99.79,192.78,124.74,183.7,501.22,Single-ply,SBD,M
Boys,99.79,6,Gregory Miller,Hemphill,94.89,183.7,113.4,197.31,494.42,Single-ply,SBD,M
Boys,99.79,7,Robert Woods,Newton,94.8,174.63,95.25,183.7,453.59,Single-ply,SBD,M
Boys,99.79,8,Keenan Myers,Newton,92.99,172.37,106.59,154.22,433.18,Single-ply,SBD,M
Boys,109.77,9,Clay Landry,Hemphill,100.02,136.08,88.45,147.42,371.95,Single-ply,SBD,M
Boys,99.79,10,Bradley Hardin,Jasper,96.62,90.72,56.7,115.67,263.08,Single-ply,SBD,M
Boys,99.79,DQ,Lavariss Carter,Jasper,98.43,,,,,Single-ply,SBD,M
Boys,109.77,1,DeAnthony Cuney,Jasper,102.06,235.87,151.95,249.48,637.3,Single-ply,SBD,M
Boys,109.77,2,Kevin Houston,Jasper,103.42,226.8,147.42,226.8,601.01,Single-ply,SBD,M
Boys,109.77,3,Anthony Orr-Wade,Jasper,107.95,208.65,136.08,163.29,508.02,Single-ply,SBD,M
Boys,109.77,4,Daylen Nichols,Kirbyville,102.15,195.04,113.4,170.1,478.54,Single-ply,SBD,M
Boys,109.77,5,Jarrod Brooks,Kirbyville,105.51,174.63,97.52,185.97,458.13,Single-ply,SBD,M
Boys,109.77,6,Dalton Wheless,Joaquin,109.77,174.63,92.99,147.42,415.04,Single-ply,SBD,M
Boys,109.77,7,Joshua London,Jasper,109.77,115.67,74.84,142.88,333.39,Single-ply,SBD,M
Boys,109.77,DQ,Tyler Martin,Kirbyville,100.79,149.69,92.99,,,Single-ply,SBD,M
Boys,109.77,DQ,Zach Fairchild,Kirbyville,105.14,,,,,Single-ply,SBD,M
Boys,109.77,DQ,Daniel Caldwell,Jasper,104.33,,,,,Single-ply,SBD,M
Boys,124.74,1,Ashton Limbrick,Jasper,124.74,226.8,142.88,249.48,619.15,Single-ply,SBD,M
Boys,124.74,2,Dave Lewis,Newton,115.67,247.21,151.95,204.12,603.28,Single-ply,SBD,M
Boys,124.74,3,Jose Valejo,Center,119.61,229.06,131.54,219.99,580.6,Single-ply,SBD,M
Boys,124.74,4,Jason Cochran,Newton,120.2,183.7,92.99,183.7,460.4,Single-ply,SBD,M
Boys,124.74,5,Jordan Garms,Buna,111.58,174.63,92.99,174.63,442.25,Single-ply,SBD,M
Boys,124.74,6,Michael Matthews,Newton,114.31,174.63,106.59,154.22,435.45,Single-ply,SBD,M
Boys,124.74+,7,Trent Smith,Kirbyville,124.87,154.22,117.93,163.29,435.45,Single-ply,SBD,M
Boys,124.74,8,Quinn Mutters,Hemphill,111.04,151.95,90.72,176.9,419.57,Single-ply,SBD,M
Boys,124.74,9,Emmanuel Hadnot,Jasper,122.47,158.76,92.99,151.95,403.7,Single-ply,SBD,M
Boys,124.74,10,Caleb Smith,Newton,119.75,151.95,86.18,133.81,371.95,Single-ply,SBD,M
Boys,124.74,DQ,Terrell Cuney,Jasper,117.93,,,,,Single-ply,SBD,M
Boys,124.74,DQ,Cardrae Brown,Joaquin,124.74,190.51,,,,Single-ply,SBD,M
Boys,124.74,DQ,Cody Cook,Kirbyville,113.22,,,,,Single-ply,SBD,M
Boys,124.74+,1,Tyandre Cooper,Kirbyville,130.45,190.51,136.08,217.72,544.31,Single-ply,SBD,M
Boys,124.74+,2,Lincoln Herrington,Newton,132,190.51,124.74,188.24,503.49,Single-ply,SBD,M
Boys,124.74+,3,Daniel Ogrodowicz,Woodville,125.65,204.12,106.59,181.44,492.15,Single-ply,SBD,M
Boys,124.74+,4,Brent Simmons,Newton,127.01,183.7,95.25,199.58,478.54,Single-ply,SBD,M
Boys,124.74+,5,Logan McCoy,Woodville,125.19,195.04,113.4,156.49,464.93,Single-ply,SBD,M
Boys,124.74+,6,Tommy Jones,Buna,137.44,151.95,113.4,179.17,444.52,Single-ply,SBD,M
Boys,124.74+,7,Ryan Ford,Kirbyville,125.55,161.03,92.99,142.88,396.89,Single-ply,SBD,M
Boys,124.74+,DQ,Zach Quick,Jasper,138.35,,,,,Single-ply,SBD,M
Boys,124.74+,DQ,Rhett Golden,Joaquin,136.08,260.82,,,,Single-ply,SBD,M
Boys,124.74+,DQ,Ethan Cole,Kirbyville,140.52,,,,,Single-ply,SBD,M
