Division,WeightClassKg,Place,Name,Team,BodyweightKg,Best3SquatKg,Best3BenchKg,Best3DeadliftKg,TotalKg,Equipment,Event,Sex
Boys,51.71,1,Cody Juarez,Alice,51.71,192.78,115.67,165.56,474,Single-ply,SBD,M
Boys,51.71,2,Adrian Campos,Freer,51.71,138.35,92.99,136.08,367.41,Single-ply,SBD,M
Boys,51.71,3,Arnold Pena,Benavides,50.8,140.61,61.23,145.15,347,Single-ply,SBD,M
Boys,51.71,4,AJ Perez,Ben Bolt-Palito Blanco,51.17,115.67,81.65,131.54,328.85,Single-ply,SBD,M
Boys,51.71,5,Rogelio Hernandez,Ben Bolt-Palito Blanco,49.99,113.4,70.31,136.08,319.78,Single-ply,SBD,M
Boys,51.71,6,Trevor Carmona,Alice,51.53,124.74,58.97,129.27,312.98,Single-ply,SBD,M
Boys,51.71,7,Javier Cantu,San Diego,51.71,106.59,54.43,136.08,297.1,Single-ply,SBD,M
Boys,51.71,8,Gabriel Collins,Orange Grove,51.26,115.67,61.23,106.59,283.5,Single-ply,SBD,M
Boys,51.71,9,Victor Vasquez,San Diego,49.44,102.06,58.97,117.93,278.96,Single-ply,SBD,M
Boys,51.71,10,Miguel Gonzalez,Alice,40.82,102.06,36.29,92.99,231.33,Single-ply,SBD,M
Boys,51.71,DQ,Isaac Martinez,Sinton,50.35,111.13,111.13,,,Single-ply,SBD,M
Boys,55.79,1,Jeremy Martinez,Robstown,53.52,163.29,83.91,185.97,433.18,Single-ply,SBD,M
Boys,55.79,2,Brandon Canales,Benavides,54.34,154.22,77.11,163.29,394.63,Single-ply,SBD,M
Boys,55.79,3,Rj Garcia,Agua Dulce,52.34,149.69,88.45,136.08,374.21,Single-ply,SBD,M
Boys,55.79,4,Niko Munoz,Falfurrias,54.88,127.01,92.99,145.15,365.14,Single-ply,SBD,M
Boys,55.79,5,Austin Castillo,Sinton,55.25,122.47,81.65,161.03,365.14,Single-ply,SBD,M
Boys,55.79,6,Marcus Schuessler,Freer,55.79,117.93,61.23,142.88,322.05,Single-ply,SBD,M
Boys,55.79,7,Nocona Taylor,Orange Grove,54.16,108.86,63.5,145.15,317.51,Single-ply,SBD,M
Boys,55.79,8,Jacob Martinez,Hebbronville,54.16,108.86,65.77,133.81,308.44,Single-ply,SBD,M
Boys,55.79,9,Austin Gonzalez,Robstown,55.61,108.86,74.84,111.13,294.84,Single-ply,SBD,M
Boys,59.87,1,Alejandro Ramirez,Falfurrias,59.6,154.22,88.45,185.97,428.64,Single-ply,SBD,M
Boys,59.87,2,Miguel Ramirez,Agua Dulce,56.43,149.69,72.57,147.42,369.68,Single-ply,SBD,M
Boys,59.87,3,Tristen Perez,Benavides,57.79,136.08,65.77,147.42,349.27,Single-ply,SBD,M
Boys,59.87,4,Tony De La Rosa,Santa Gertrudis Academy,58.88,115.67,72.57,133.81,322.05,Single-ply,SBD,M
Boys,59.87,5,Aiden Chavez,Agua Dulce,56.43,120.2,54.43,142.88,317.51,Single-ply,SBD,M
Boys,59.87,6,Ryan Elizondo,Santa Gertrudis Academy,58.24,97.52,63.5,120.2,281.23,Single-ply,SBD,M
Boys,59.87,7,Ethan Vasquez,Alice,59.42,92.99,54.43,104.33,251.74,Single-ply,SBD,M
Boys,59.87,DQ,Felix Del Rio,Robstown,58.51,145.15,81.65,,,Single-ply,SBD,M
Boys,67.13,1,Ramiro Gonzalez,Falfurrias,65.86,192.78,113.4,204.12,510.29,Single-ply,SBD,M
Boys,67.13,2,Nathaniel McRae,Hebbronville,66.68,174.63,102.06,201.85,478.54,Single-ply,SBD,M
Boys,67.13,3,Jacob Loera,Alice,67.13,158.76,108.86,192.78,460.4,Single-ply,SBD,M
Boys,67.13,4,Jose Maldonado,Falfurrias,61.23,163.29,102.06,183.7,449.06,Single-ply,SBD,M
Boys,67.13,5,Ryan Saenz,Hebbronville,61.6,176.9,88.45,176.9,442.25,Single-ply,SBD,M
Boys,67.13,6,Brandon Carballo,Hebbronville,62.69,163.29,83.91,163.29,410.5,Single-ply,SBD,M
Boys,67.13,7,Ryan Villareal,Santa Gertrudis Academy,66.77,145.15,92.99,158.76,396.89,Single-ply,SBD,M
Boys,67.13,8,Ryan Frasham,Orange Grove,62.05,142.88,68.04,161.03,371.95,Single-ply,SBD,M
Boys,67.13,9,Damon Diaz,Hebbronville,65.41,142.88,70.31,147.42,360.61,Single-ply,SBD,M
Boys,67.13,10,Zechariah Segovia,Beeville Jones,64.68,129.27,74.84,129.27,333.39,Single-ply,SBD,M
Boys,67.13,11,Gio Savedra,Taft,66.68,124.74,74.84,120.2,319.78,Single-ply,SBD,M
Boys,74.84,1,Alex Gonzales,Alice,72.67,247.21,108.86,226.8,582.87,Single-ply,SBD,M
Boys,74.84,2,Derrick Carroll,Beeville Jones,73.21,219.99,106.59,210.92,537.51,Single-ply,SBD,M
Boys,74.84,3,Dustin Torres,Beeville Jones,67.68,206.38,108.86,185.97,501.22,Single-ply,SBD,M
Boys,74.84,4,Ilias Rodriguez,Three Rivers,73.21,188.24,102.06,204.12,494.42,Single-ply,SBD,M
Boys,74.84,5,Arin Saenz,Freer,72.76,192.78,102.06,188.24,483.08,Single-ply,SBD,M
Boys,74.84,6,AJ Moreno,Alice,73.48,190.51,108.86,172.37,471.74,Single-ply,SBD,M
Boys,74.84,7,Ethan Almendarez,Three Rivers,73.84,181.44,83.91,176.9,442.25,Single-ply,SBD,M
Boys,74.84,8,Dennis Guajardo,Benavides,73.03,170.1,95.25,172.37,437.72,Single-ply,SBD,M
Boys,74.84,9,Dylan Sharp,Sinton,69.94,140.61,108.86,185.97,435.45,Single-ply,SBD,M
Boys,74.84,10,Seth Mesa,Santa Gertrudis Academy,70.76,156.49,104.33,170.1,430.91,Single-ply,SBD,M
Boys,74.84,11,Jason Cadena,Three Rivers,70.85,154.22,83.91,158.76,396.89,Single-ply,SBD,M
Boys,74.84,12,Cody Prather,Ben Bolt-Palito Blanco,67.86,138.35,70.31,154.22,362.87,Single-ply,SBD,M
Boys,74.84,13,Gabriel Rivera,Robstown,72.21,149.69,81.65,127.01,358.34,Single-ply,SBD,M
Boys,74.84,14,Raul Puig,Hebbronville,68.13,113.4,68.04,142.88,324.32,Single-ply,SBD,M
Boys,74.84,15,Rey Perales,Benavides,74.03,124.74,65.77,124.74,315.25,Single-ply,SBD,M
Boys,82.1,1,Elijah Valencia,Orange Grove,81.1,249.48,131.54,226.8,607.81,Single-ply,SBD,M
Boys,82.1,2,Joshua Olivarez,Falfurrias,79.83,226.8,122.47,244.94,594.21,Single-ply,SBD,M
Boys,82.1,3,Rudy Casarez,Beeville Jones,81.37,222.26,124.74,240.4,587.4,Single-ply,SBD,M
Boys,82.1,4,Patrick Prieto,Beeville Jones,79.47,231.33,127.01,219.99,578.33,Single-ply,SBD,M
Boys,82.1,5,Jared Fuhrken,Orange Grove,79.29,226.8,111.13,226.8,564.72,Single-ply,SBD,M
Boys,82.1,6,Isaac Bueno,Alice,78.93,217.72,127.01,217.72,562.45,Single-ply,SBD,M
Boys,82.1,7,Oscar Perez,Ben Bolt-Palito Blanco,78.65,213.19,129.27,208.65,551.11,Single-ply,SBD,M
Boys,82.1,8,Jacob Prather,Three Rivers,81.19,174.63,102.06,183.7,460.4,Single-ply,SBD,M
Boys,82.1,9,Rudy Cantu,Robstown,76.66,131.54,102.06,142.88,376.48,Single-ply,SBD,M
Boys,82.1,10,Charles Johnson,Three Rivers,80.38,124.74,65.77,149.69,340.19,Single-ply,SBD,M
Boys,82.1,11,Ethan Juarez,Santa Gertrudis Academy,77.93,92.99,61.23,136.08,290.3,Single-ply,SBD,M
Boys,82.1,12,Joseph Dominguez,Taft,80.83,97.52,63.5,124.74,285.76,Single-ply,SBD,M
Boys,82.1,DQ,Joel Salinas,Falfurrias,80.47,174.63,,,,Single-ply,SBD,M
Boys,82.1,DQ,Bo Surber,Agua Dulce,79.2,181.44,95.25,,,Single-ply,SBD,M
Boys,82.1,DQ,Tristan Perez,Ben Bolt-Palito Blanco,76.29,183.7,,,,Single-ply,SBD,M
Boys,89.81,1,Chris Madrigal,Beeville Jones,86.82,256.28,174.63,256.28,687.19,Single-ply,SBD,M
Boys,89.81,2,Ryan De Los Santos,Robstown,89.36,201.85,108.86,217.72,528.44,Single-ply,SBD,M
Boys,89.81,3,Matthew Olivarri,Alice,83.91,183.7,124.74,201.85,510.29,Single-ply,SBD,M
Boys,89.81,4,Chris Swartz,Agua Dulce,86.64,190.51,115.67,192.78,498.95,Single-ply,SBD,M
Boys,89.81,5,Jacob Arredondo,Beeville Jones,86.64,183.7,106.59,183.7,474,Single-ply,SBD,M
Boys,89.81,6,Carlos Huerta,Hebbronville,88.54,181.44,102.06,188.24,471.74,Single-ply,SBD,M
Boys,89.81,7,Heron Tamez,Falfurrias,83.37,136.08,81.65,147.42,365.14,Single-ply,SBD,M
Boys,89.81,8,Johnathan Gonzales,Taft,88.63,117.93,77.11,154.22,349.27,Single-ply,SBD,M
Boys,89.81,9,Mark Gentry,Three Rivers,87.27,129.27,79.38,124.74,333.39,Single-ply,SBD,M
Boys,89.81,10,Aaron Caserez,Three Rivers,89.72,131.54,70.31,131.54,333.39,Single-ply,SBD,M
Boys,89.81,11,Sebastian Mosely,Santa Gertrudis Academy,85,99.79,79.38,140.61,319.78,Single-ply,SBD,M
Boys,89.81,12,Vicente Zavala,Santa Gertrudis Academy,83.55,97.52,65.77,124.74,288.03,Single-ply,SBD,M
Boys,89.81,13,Mark Morin,Taft,82.83,83.91,70.31,113.4,267.62,Single-ply,SBD,M
Boys,89.81,DQ,Daniel Ramos,Ben Bolt-Palito Blanco,86.09,158.76,,,,Single-ply,SBD,M
Boys,89.81,DQ,Ivan Naranjo,Robstown,86.55,,,,,Single-ply,SBD,M
Boys,89.81,DQ,Beaux Ardoin,Orange Grove,84.1,129.27,,,,Single-ply,SBD,M
Boys,99.79,1,Nick Galvan,Beeville Jones,95.35,276.69,165.56,249.48,691.73,Single-ply,SBD,M
Boys,99.79,2,Freddy Martinez,Robstown,92.99,199.58,108.86,174.63,483.08,Single-ply,SBD,M
Boys,99.79,3,Victor Vera,Sinton,93.35,149.69,122.47,183.7,455.86,Single-ply,SBD,M
Boys,99.79,4,Fred De La Rosa,Sinton,95.44,163.29,120.2,170.1,453.59,Single-ply,SBD,M
Boys,99.79,5,Michael Esquivel,Taft,97.43,145.15,79.38,136.08,360.61,Single-ply,SBD,M
Boys,99.79,6,Adrian Salinas,Three Rivers,89.99,124.74,65.77,127.01,317.51,Single-ply,SBD,M
Boys,99.79,7,Alfonso Montiel,Alice,95.25,111.13,72.57,131.54,315.25,Single-ply,SBD,M
Boys,99.79,DQ,Eric Gutierrez,Robstown,98.97,,,,,Single-ply,SBD,M
Boys,109.77,1,Michael Salaiz,San Diego,107.14,272.16,147.42,235.87,655.44,Single-ply,SBD,M
Boys,109.77,2,Jose Marquez,Hebbronville,109.68,256.28,142.88,238.14,637.3,Single-ply,SBD,M
Boys,109.77,3,Osbaldo Gonzalez,Alice,108.86,231.33,115.67,215.46,562.45,Single-ply,SBD,M
Boys,109.77,4,Austin Kennemer,Agua Dulce,103.42,226.8,129.27,195.04,551.11,Single-ply,SBD,M
Boys,109.77,5,Joey Garza,Falfurrias,107.05,235.87,108.86,204.12,548.85,Single-ply,SBD,M
Boys,109.77,6,Mario Cano,Beeville Jones,107.68,183.7,102.06,174.63,460.4,Single-ply,SBD,M
Boys,109.77,7,Jakob Encinia,Sinton,104.69,158.76,122.47,158.76,439.98,Single-ply,SBD,M
Boys,109.77,8,Jaime Gonzalez,Taft,106.14,142.88,88.45,149.69,381.02,Single-ply,SBD,M
Boys,109.77,9,Jonathan Garza,San Diego,104.51,136.08,81.65,154.22,371.95,Single-ply,SBD,M
Boys,109.77,10,Leslie Tummons,Taft,104.69,104.33,68.04,142.88,315.25,Single-ply,SBD,M
Boys,124.74,1,Jose Soliz,Orange Grove,112.04,317.51,226.8,226.8,771.11,Single-ply,SBD,M
Boys,124.74,2,Steve Covarrubias,Robstown,112.49,249.48,133.81,219.99,603.28,Single-ply,SBD,M
Boys,124.74,3,Abel Tunchez,San Diego,114.76,265.35,136.08,199.58,601.01,Single-ply,SBD,M
Boys,124.74,4,David Mendez,Taft,122.65,224.53,122.47,204.12,551.11,Single-ply,SBD,M
Boys,124.74,5,Pete Dominguez,Hebbronville,112.04,147.42,88.45,183.7,419.57,Single-ply,SBD,M
Boys,124.74+,1,Angel Salinas,Orange Grove,168.46,294.84,181.44,226.8,703.07,Single-ply,SBD,M
Boys,124.74+,2,Dustin Ramos,Sinton,127.64,235.87,156.49,226.8,619.15,Single-ply,SBD,M
Boys,124.74+,3,Daniel Martinez,Beeville Jones,133.81,206.38,158.76,206.38,571.53,Single-ply,SBD,M
Boys,124.74+,4,Ej Carrera,Taft,126.64,195.04,124.74,192.78,512.56,Single-ply,SBD,M
Boys,124.74+,5,Chris Lytle,Benavides,134.54,192.78,102.06,210.92,505.76,Single-ply,SBD,M
Boys,124.74+,6,Jonathan Rodriguez,Agua Dulce,128.37,185.97,124.74,165.56,476.27,Single-ply,SBD,M
Boys,124.74+,7,Aaron Flores,Santa Gertrudis Academy,135.99,167.83,72.57,163.29,403.7,Single-ply,SBD,M
Boys,124.74+,DQ,Will Atwood,Orange Grove,134.44,,,,,Single-ply,SBD,M
Boys,,NS,Drake Moya,Beeville Jones,,,,,,Single-ply,SBD,M
Boys,,NS,Joshua Vernon,Orange Grove,,,,,,Single-ply,SBD,M
Boys,,NS,Jose Heard,Orange Grove,,,,,,Single-ply,SBD,M
Boys,,NS,Patrick Hernandez,Robstown,,,,,,Single-ply,SBD,M
Boys,,NS,John Roboli,Robstown,,,,,,Single-ply,SBD,M
Boys,,NS,Luis Díaz,Three Rivers,,,,,,Single-ply,SBD,M
Boys,,NS,Trevor McClendon,Three Rivers,,,,,,Single-ply,SBD,M
Boys,,NS,John Carrillo,Three Rivers,,,,,,Single-ply,SBD,M
Boys,,NS,Miguel Gonzalez,Agua Dulce,,,,,,Single-ply,SBD,M
Boys,,NS,Goliath Garcia,Agua Dulce,,,,,,Single-ply,SBD,M
Boys,,NS,Angel Hernandez,Ben Bolt-Palito Blanco,,,,,,Single-ply,SBD,M
Boys,,NS,John Paul Pruneda,Ben Bolt-Palito Blanco,,,,,,Single-ply,SBD,M
Boys,,NS,Jesus Martinez,Robstown,,,,,,Single-ply,SBD,M
Boys,,NS,Jaime Rosas,Falfurrias,,,,,,Single-ply,SBD,M
Boys,,NS,Daniel Vela,Falfurrias,,,,,,Single-ply,SBD,M
Boys,,NS,Nico Perez,Benavides,,,,,,Single-ply,SBD,M
Boys,,NS,Andy Saenz,Benavides,,,,,,Single-ply,SBD,M
Boys,,NS,Jacob Salinas,Agua Dulce,,,,,,Single-ply,SBD,M
Boys,,NS,Jon Rodriguez,Agua Dulce,,,,,,Single-ply,SBD,M
Boys,,NS,Austin Longoria,Taft,,,,,,Single-ply,SBD,M
Boys,,NS,Chris Montemayor,Taft,,,,,,Single-ply,SBD,M
Boys,,NS,Brian Garza,Falfurrias,,,,,,Single-ply,SBD,M
Boys,,NS,Danny Guerra,Hebbronville,,,,,,Single-ply,SBD,M
Boys,,NS,Tristan Plata,Taft,,,,,,Single-ply,SBD,M
Boys,,NS,Marcus Gaza,Alice,,,,,,Single-ply,SBD,M
