Division,WeightClassKg,Place,Name,Team,BodyweightKg,Best3SquatKg,Best3BenchKg,Best3DeadliftKg,TotalKg,Equipment,Event,Sex
Boys,51.71,1,Misael Marquez,Brownsville Veterans Memorial,51.71,138.35,92.99,117.93,349.27,Single-ply,SBD,M
Boys,51.71,2,Bradley Salinas,Brownsville Porter,51.71,117.93,79.38,145.15,342.46,Single-ply,SBD,M
Boys,51.71,3,Ray Martinez,Santa Rosa,49.08,95.25,61.23,136.08,292.57,Single-ply,SBD,M
Boys,55.79,4,Anthony Sorian,Brownsville Porter,51.8,108.86,56.7,113.4,278.96,Single-ply,SBD,M
Boys,55.79,1,Julian Ortega,Rio Hondo,54.88,165.56,104.33,183.7,453.59,Single-ply,SBD,M
Boys,55.79,2,Marcos Chavez,Lyford,55.52,111.13,65.77,145.15,322.05,Single-ply,SBD,M
Boys,59.87,1,Marty Capetillo,Raymondville,59.6,170.1,92.99,179.17,442.25,Single-ply,SBD,M
Boys,67.13,2,Elliot Chavez,Raymondville,60.1,161.03,102.06,165.56,428.64,Single-ply,SBD,M
Boys,59.87,3,Jonathan Rocha,Brownsville Porter,56.61,147.42,79.38,142.88,369.68,Single-ply,SBD,M
Boys,59.87,4,Alex Zapata,Rio Hondo,59.42,151.95,,,151.95,Single-ply,S,M
Boys,59.87,5,Jose Martinez,Raymondville,56.06,147.42,,,147.42,Single-ply,S,M
Boys,67.13,1,Alan Alfaro,Rio Hondo,67.13,208.65,140.61,240.4,589.67,Single-ply,SBD,M
Boys,67.13,2,Heliseo Guerrero,Rio Hondo,66.59,215.46,145.15,222.26,582.87,Single-ply,SBD,M
Boys,67.13,3,Eric Tong,Brownsville Hanna,66.68,215.46,111.13,219.99,546.58,Single-ply,SBD,M
Boys,74.84,4,Julian Flores,Rio Hondo,67.31,192.78,136.08,206.38,535.24,Single-ply,SBD,M
Boys,67.13,5,Daniel Coronado,La Feria,67.13,181.44,115.67,213.19,510.29,Single-ply,SBD,M
Boys,74.84,6,Rick Gonzalez,Brownsville Hanna,67.36,204.12,106.59,174.63,485.34,Single-ply,SBD,M
Boys,67.13,7,Jonathon Elizondo,Santa Rosa,66.41,147.42,95.25,181.44,424.11,Single-ply,SBD,M
Boys,67.13,8,Albert Garcia-Vasquez,La Feria,66.68,158.76,90.72,170.1,419.57,Single-ply,SBD,M
Boys,67.13,9,Joseph Esparza,Lyford,63.14,154.22,86.18,127.01,367.41,Single-ply,SBD,M
Boys,67.13,10,Augustine Espinoza,Santa Rosa,63.5,113.4,68.04,124.74,306.17,Single-ply,SBD,M
Boys,67.13,11,Eric Grant,Brownsville Veterans Memorial,65.5,133.81,,,133.81,Single-ply,S,M
Boys,82.1,1,Roel Benitez,Rio Hondo,74.93,201.85,142.88,192.78,537.51,Single-ply,SBD,M
Boys,74.84,2,Arturo Mancias,Brownsville Hanna,73.39,210.92,115.67,206.38,532.97,Single-ply,SBD,M
Boys,74.84,3,Luciano Ramos,Brownsville Porter,70.67,174.63,97.52,185.97,458.13,Single-ply,SBD,M
Boys,74.84,4,Mike Adameit,Lyford,71.4,185.97,92.99,174.63,453.59,Single-ply,SBD,M
Boys,74.84,5,Francisco Moreno,Lyford,72.12,156.49,90.72,156.49,403.7,Single-ply,SBD,M
Boys,74.84,6,Homer Gonzalez,Santa Rosa,71.21,181.44,,,181.44,Single-ply,S,M
Boys,89.81,1,Abram Ramirez,Rio Hondo,82.33,226.8,156.49,240.4,623.69,Single-ply,SBD,M
Boys,82.1,2,Daniel Flores,Rio Hondo,81.1,249.48,136.08,222.26,607.81,Single-ply,SBD,M
Boys,82.1,3,Alex Chairez,Brownsville Veterans Memorial,81.01,219.99,127.01,226.8,573.79,Single-ply,SBD,M
Boys,82.1,4,Ramon Delgado,Brownsville Hanna,81.01,226.8,120.2,215.46,562.45,Single-ply,SBD,M
Boys,82.1,5,Sam Longoria,Brownsville Hanna,79.11,238.14,120.2,192.78,551.11,Single-ply,SBD,M
Boys,82.1,6,Joe Castillo,Santa Rosa,80.65,163.29,108.86,158.76,430.91,Single-ply,SBD,M
Boys,82.1,7,Salvador Mendoza,La Feria,79.47,181.44,83.91,163.29,428.64,Single-ply,SBD,M
Boys,89.81,8,José Saldaña,La Feria,82.19,158.76,79.38,170.1,408.23,Single-ply,SBD,M
Boys,99.79,1,Erick Vazquez,Brownsville Veterans Memorial,89.99,242.67,151.95,242.67,637.3,Single-ply,SBD,M
Boys,89.81,2,Cordero Castro,Lyford,85.91,238.14,122.47,233.6,594.21,Single-ply,SBD,M
Boys,89.81,3,Anthony Ruiz,Brownsville Porter,88.27,226.8,122.47,226.8,576.06,Single-ply,SBD,M
Boys,89.81,4,Omar Leal,Brownsville Hanna,89.63,238.14,129.27,208.65,576.06,Single-ply,SBD,M
Boys,99.79,5,Javier Skinner,Rio Hondo,89.99,204.12,129.27,226.8,560.19,Single-ply,SBD,M
Boys,89.81,6,Matthew Felix,La Villa,88.36,188.24,136.08,174.63,498.95,Single-ply,SBD,M
Boys,89.81,7,Jacob Martinez,Rio Hondo,88.36,174.63,127.01,181.44,483.08,Single-ply,SBD,M
Boys,89.81,8,Juan Delgado,Rio Hondo,88.99,165.56,111.13,170.1,446.79,Single-ply,SBD,M
Boys,89.81,9,Jovany Mendez,Lyford,83.19,149.69,104.33,161.03,415.04,Single-ply,SBD,M
Boys,89.81,10,Isaiah Heredia,Rio Hondo,88.9,249.48,,,249.48,Single-ply,S,M
Boys,99.79,DQ,Stephen Dorado,Rio Hondo,90.04,,,,,Single-ply,S,M
Boys,99.79,1,Alex Valadez,Brownsville Hanna,97.43,233.6,154.22,233.6,621.42,Single-ply,SBD,M
Boys,99.79,2,John Wayne Mendez,Lyford,98.52,183.7,111.13,170.1,464.93,Single-ply,SBD,M
Boys,99.79,3,Christian Badillo,Santa Rosa,92.08,138.35,83.91,181.44,403.7,Single-ply,SBD,M
Boys,99.79,DQ,Victor Garza,Santa Rosa,99.79,,,,,Single-ply,SBD,M
Boys,109.77,1,Marco Gutierrez,La Feria,102.33,249.48,151.95,240.4,641.83,Single-ply,SBD,M
Boys,109.77,2,Israel Torres,La Feria,106.59,233.6,156.49,233.6,623.69,Single-ply,SBD,M
Boys,109.77,3,Bryan Lawrence,Brownsville Veterans Memorial,100.79,235.87,136.08,231.33,603.28,Single-ply,SBD,M
Boys,109.77,4,Rodney Morales,Brownsville Hanna,108.14,242.67,136.08,222.26,601.01,Single-ply,SBD,M
Boys,109.77,5,Sammy DeLeon,Brownsville Veterans Memorial,108.95,206.38,133.81,199.58,539.77,Single-ply,SBD,M
Boys,109.77,6,Robert De Leon,Lyford,109.32,226.8,115.67,195.04,537.51,Single-ply,SBD,M
Boys,109.77,7,Eliseo Garza,Santa Rosa,102.97,154.22,81.65,142.88,378.75,Single-ply,SBD,M
Boys,124.74,1,Bobby Gonzales,Raymondville,121.29,362.87,249.48,272.16,884.51,Single-ply,SBD,M
Boys,124.74,2,Robert Anthony Cervantes,Raymondville,117.3,306.17,172.37,231.33,709.87,Single-ply,SBD,M
Boys,124.74,3,Jesse Guzman,Brownsville Veterans Memorial,117.48,272.16,158.76,249.48,680.39,Single-ply,SBD,M
Boys,124.74,4,Flavio Anguiano,Lyford,123.56,263.08,138.35,215.46,616.89,Single-ply,SBD,M
Boys,124.74,5,Adrian Arredondo,Brownsville Hanna,113.49,226.8,129.27,201.85,557.92,Single-ply,SBD,M
Boys,124.74,6,Arturo Guevara,La Feria,111.22,167.83,92.99,158.76,419.57,Single-ply,SBD,M
Boys,124.74+,1,Jimmy DeLeon,Brownsville Veterans Memorial,159.66,317.51,167.83,242.67,728.02,Single-ply,SBD,M
Boys,124.74+,2,Gage Rivas,Brownsville Veterans Memorial,146.51,306.17,204.12,188.24,698.53,Single-ply,SBD,M
Boys,124.74+,3,Armando Ruvio,Rio Hondo,143.52,294.84,151.95,238.14,684.92,Single-ply,SBD,M
Boys,124.74+,4,Mario DeLeon,La Feria,147.87,292.57,156.49,229.06,678.12,Single-ply,SBD,M
Boys,124.74+,5,Nathan Lopez,Raymondville,130.91,247.21,151.95,244.94,644.1,Single-ply,SBD,M
Boys,124.74+,6,Emilio Villacana,Lyford,130.82,219.99,95.25,181.44,496.68,Single-ply,SBD,M
