Division,WeightClassKg,Place,Name,Team,BodyweightKg,Best3SquatKg,Best3BenchKg,Best3DeadliftKg,TotalKg,Equipment,Event,Sex
Boys,51.71,1,Taylor Nowlin,Leonard,51.62,188.24,88.45,158.76,435.45,Single-ply,SBD,M
Boys,51.71,2,John Clerihew,Olney,51.53,138.35,70.31,140.61,349.27,Single-ply,SBD,M
Boys,51.71,3,Devin Johnson,Henrietta,49.99,129.27,79.38,127.01,335.66,Single-ply,SBD,M
Boys,51.71,4,Jonathan Esquivel,Melissa,49.71,117.93,65.77,117.93,301.64,Single-ply,SBD,M
Boys,55.79,5,Christian Privitt,Henrietta,51.89,113.4,74.84,111.13,299.37,Single-ply,SBD,M
Boys,51.71,6,Brian Esquivel,Melissa,48.99,99.79,65.77,117.93,283.5,Single-ply,SBD,M
Boys,51.71,7,Cole Doughty,Pilot Point,50.8,106.59,58.97,117.93,283.5,Single-ply,SBD,M
Boys,51.71,8,Trevor Richard,Chico,51.53,108.86,49.9,117.93,276.69,Single-ply,SBD,M
Boys,51.71,9,Jimmy Coffman,Paradise,51.26,102.06,61.23,111.13,274.42,Single-ply,SBD,M
Boys,51.71,10,Trent Bell,Aubrey,50.71,99.79,54.43,117.93,272.16,Single-ply,SBD,M
Boys,51.71,11,Tyler Byers,Chico,51.71,92.99,54.43,111.13,258.55,Single-ply,SBD,M
Boys,55.79,1,Larry Cribbs,Olney,55.7,181.44,86.18,170.1,437.72,Single-ply,SBD,M
Boys,55.79,2,Vincent Torrefranco,Sadler S & S Cons,55.52,156.49,79.38,195.04,430.91,Single-ply,SBD,M
Boys,55.79,3,Luke Parrish,Tom Bean,55.16,142.88,88.45,140.61,371.95,Single-ply,SBD,M
Boys,55.79,4,Jd Franke,Henrietta,54.88,140.61,74.84,138.35,353.8,Single-ply,SBD,M
Boys,59.87,5,Charlie Radford,Aubrey,56.02,120.2,72.57,147.42,340.19,Single-ply,SBD,M
Boys,55.79,6,Brandon Gee,Ponder,55.16,138.35,70.31,129.27,337.93,Single-ply,SBD,M
Boys,55.79,7,Josiah Cansler,Perrin-Whitt,54.79,136.08,58.97,133.81,328.85,Single-ply,SBD,M
Boys,55.79,8,Luis Flores,Chico,55.7,111.13,68.04,129.27,308.44,Single-ply,SBD,M
Boys,59.87,9,Ben Spruiell,Nocona,55.88,92.99,68.04,131.54,292.57,Single-ply,SBD,M
Boys,55.79,10,Kaleb Fuller,Nocona,53.34,90.72,54.43,104.33,249.48,Single-ply,SBD,M
Boys,67.13,1,Payton Ward,Pilot Point,59.96,204.12,142.88,197.31,544.31,Single-ply,SBD,M
Boys,59.87,2,Walt Harden,Peaster,58.88,181.44,102.06,185.97,469.47,Single-ply,SBD,M
Boys,67.13,3,Jeremy Croney,Sadler S & S Cons,60.1,181.44,90.72,181.44,453.59,Single-ply,SBD,M
Boys,59.87,4,Zack Remily,Bowie,57.52,176.9,92.99,165.56,435.45,Single-ply,SBD,M
Boys,59.87,5,Cole Clouse,Archer City,58.6,161.03,81.65,165.56,408.23,Single-ply,SBD,M
Boys,59.87,6,Taylor Ross,Nocona,59.33,154.22,90.72,163.29,408.23,Single-ply,SBD,M
Boys,59.87,7,Alex Greene,Henrietta,57.42,170.1,79.38,147.42,396.89,Single-ply,SBD,M
Boys,59.87,8,Brey Sweek,Santo,58.97,161.03,83.91,151.95,396.89,Single-ply,SBD,M
Boys,59.87,9,Zane Schrader,Olney,58.97,158.76,86.18,151.95,396.89,Single-ply,SBD,M
Boys,59.87,10,Brad Crudup,Oakridge School,58.79,131.54,63.5,149.69,344.73,Single-ply,SBD,M
Boys,67.13,1,Garrett Truong,Oakridge School,63.14,199.58,97.52,204.12,501.22,Single-ply,SBD,M
Boys,74.84,2,Ben Song,Oakridge School,67.36,188.24,129.27,183.7,501.22,Single-ply,SBD,M
Boys,74.84,3,Scott Belland,Santo,67.31,190.51,111.13,183.7,485.34,Single-ply,SBD,M
Boys,67.13,4,Laramie Stone,Bowie,65.86,181.44,108.86,181.44,471.74,Single-ply,SBD,M
Boys,67.13,5,Landon Page,Leonard,66.77,190.51,102.06,179.17,471.74,Single-ply,SBD,M
Boys,74.84,6,Robert Cooper,Whitewright,67.36,149.69,102.06,204.12,455.86,Single-ply,SBD,M
Boys,67.13,7,Garrett Syfert,Pottsboro,65.14,181.44,99.79,172.37,453.59,Single-ply,SBD,M
Boys,67.13,8,Mitchell Erp,Aubrey,65.68,165.56,108.86,179.17,453.59,Single-ply,SBD,M
Boys,67.13,9,Don Fauver,Henrietta,67.13,161.03,90.72,163.29,415.04,Single-ply,SBD,M
Boys,74.84,10,Randy Tucker,Perrin-Whitt,67.36,158.76,90.72,163.29,412.77,Single-ply,SBD,M
Boys,74.84,1,Colton Redman,Alvord,71.58,215.46,127.01,231.33,573.79,Single-ply,SBD,M
Boys,74.84,2,Carlos Villagran,Olney,73.03,222.26,140.61,206.38,569.26,Single-ply,SBD,M
Boys,74.84,3,Marcus Vera,Howe,72.57,235.87,102.06,210.92,548.85,Single-ply,SBD,M
Boys,74.84,4,Tyler Ross,Howe,74.48,217.72,117.93,213.19,548.85,Single-ply,SBD,M
Boys,74.84,5,Jacob Herring,Henrietta,74.66,219.99,115.67,199.58,535.24,Single-ply,SBD,M
Boys,74.84,6,Norman James,Wichita Falls City View,74.21,183.7,129.27,192.78,505.76,Single-ply,SBD,M
Boys,74.84,7,Stoney Newberry,Henrietta,72.85,181.44,122.47,197.31,501.22,Single-ply,SBD,M
Boys,82.1,8,Dru Hull,Sadler S & S Cons,75.02,192.78,113.4,192.78,498.95,Single-ply,SBD,M
Boys,74.84,9,Reggie Robinson,Leonard,73.03,213.19,104.33,172.37,489.88,Single-ply,SBD,M
Boys,74.84,10,Michael Hohn,Oakridge School,74.84,165.56,92.99,229.06,487.61,Single-ply,SBD,M
Boys,74.84,11,Sawyer Heugatter,Bowie,74.39,210.92,102.06,172.37,485.34,Single-ply,SBD,M
Boys,82.1,1,Seth Wolfe,Callisburg,76.75,235.87,136.08,240.4,612.35,Single-ply,SBD,M
Boys,89.81,2,Cameron Medford,Pilot Point,82.19,231.33,174.63,206.38,612.35,Single-ply,SBD,M
Boys,82.1,3,Tevin Daniels,Leonard,77.56,219.99,136.08,219.99,576.06,Single-ply,SBD,M
Boys,82.1,4,Terence Jackson,Wichita Falls City View,81.92,206.38,113.4,251.74,571.53,Single-ply,SBD,M
Boys,82.1,5,Miles Wilson,Oakridge School,79.2,219.99,111.13,215.46,546.58,Single-ply,SBD,M
Boys,82.1,6,Cody Cossman,Ponder,79.83,213.19,127.01,199.58,539.77,Single-ply,SBD,M
Boys,82.1,7,Cody Morrison,Callisburg,80.1,181.44,113.4,226.8,521.63,Single-ply,SBD,M
Boys,82.1,8,Brandon Love,Pottsboro,81.74,226.8,99.79,181.44,508.02,Single-ply,SBD,M
Boys,82.1,9,Tyler Cobb,Paradise,77.56,185.97,111.13,181.44,478.54,Single-ply,SBD,M
Boys,82.1,10,Colton Carnes,Archer City,78.38,188.24,102.06,181.44,471.74,Single-ply,SBD,M
Boys,82.1,11,Caiden Fenoglio,Nocona,80.1,165.56,111.13,167.83,444.52,Single-ply,SBD,M
Boys,89.81,1,Curt Allen,Oakridge School,88.72,281.23,181.44,249.48,712.14,Single-ply,SBD,M
Boys,89.81,2,Jacob Heuring,Wichita Falls City View,86.09,251.74,138.35,238.14,628.23,Single-ply,SBD,M
Boys,99.79,3,James Miller,Strawn,90.04,226.8,163.29,224.53,614.62,Single-ply,SBD,M
Boys,89.81,4,Wesley Hayes,Oakridge School,87.09,226.8,136.08,235.87,598.74,Single-ply,SBD,M
Boys,89.81,5,Justin Griffin,Aubrey,85.18,213.19,145.15,213.19,571.53,Single-ply,SBD,M
Boys,89.81,6,T R Hodnett,Leonard,88.99,222.26,138.35,199.58,560.19,Single-ply,SBD,M
Boys,99.79,7,Brad Barker,Peaster,89.99,204.12,138.35,210.92,553.38,Single-ply,SBD,M
Boys,89.81,8,Kyle Saunders,Peaster,83.46,210.92,115.67,215.46,542.04,Single-ply,SBD,M
Boys,89.81,9,Matthew Scarborough,Oakridge School,85.18,192.78,122.47,213.19,528.44,Single-ply,SBD,M
Boys,89.81,10,Joseph Costa,Henrietta,88.36,204.12,133.81,190.51,528.44,Single-ply,SBD,M
Boys,99.79,1,Eduardo Webber,Howe,94.26,294.84,145.15,215.46,655.44,Single-ply,SBD,M
Boys,99.79,2,Eric Avalos,Olney,94.17,242.67,127.01,215.46,585.13,Single-ply,SBD,M
Boys,99.79,3,Keith Jones,Pilot Point,98.16,226.8,140.61,217.72,585.13,Single-ply,SBD,M
Boys,99.79,4,Taylor Robinson,Whitewright,90.26,215.46,140.61,199.58,555.65,Single-ply,SBD,M
Boys,99.79,5,Brad Shatto,Sadler S & S Cons,98.88,226.8,120.2,185.97,532.97,Single-ply,SBD,M
Boys,99.79,6,Harry Perdomo,Melissa,99.06,183.7,138.35,204.12,526.17,Single-ply,SBD,M
Boys,99.79,7,Clay Futch,Ponder,98.52,204.12,136.08,181.44,521.63,Single-ply,SBD,M
Boys,99.79,8,Anthony Garcia,Wichita Falls City View,96.34,197.31,115.67,195.04,508.02,Single-ply,SBD,M
Boys,99.79,9,Mark Eastin,Leonard,98.16,192.78,124.74,185.97,503.49,Single-ply,SBD,M
Boys,99.79,10,David Whited,Wichita Falls City View,99.7,204.12,113.4,181.44,498.95,Single-ply,SBD,M
Boys,99.79,11,Jeff Bybee,Santo,98.07,192.78,104.33,192.78,489.88,Single-ply,SBD,M
Boys,109.77,1,Thanh Hoang,Wichita Falls City View,105.69,290.3,131.54,276.69,698.53,Single-ply,SBD,M
Boys,109.77,2,Corgan Andrews,Paradise,101.33,285.76,170.1,240.4,696.26,Single-ply,SBD,M
Boys,109.77,3,Clayton Pittman,Paradise,107.77,260.82,147.42,249.48,657.71,Single-ply,SBD,M
Boys,109.77,4,Sam Powers,Henrietta,108.86,249.48,127.01,229.06,605.55,Single-ply,SBD,M
Boys,109.77,5,Kelton Brewer,Melissa,108.23,231.33,151.95,208.65,591.94,Single-ply,SBD,M
Boys,109.77,6,Tyler Ashman,Ponder,107.86,233.6,113.4,165.56,512.56,Single-ply,SBD,M
Boys,109.77,DQ,Matt Poursoltani,Pilot Point,106.32,190.51,,,,Single-ply,SBD,M
Boys,109.77,DQ,Justin Givens,Wichita Falls City View,106.87,235.87,,,,Single-ply,SBD,M
Boys,109.77,DQ,Matt Morrison,Gunter,103.15,,,,,Single-ply,SBD,M
Boys,109.77,DQ,Austin Accettura,Pilot Point,102.06,263.08,,,,Single-ply,SBD,M
Boys,124.74,1,Jackson Cunningham,Paradise,114.67,283.5,181.44,258.55,723.48,Single-ply,SBD,M
Boys,124.74,2,Jakob Riley,Leonard,123.47,285.76,167.83,244.94,698.53,Single-ply,SBD,M
Boys,124.74,3,Damon Hinrichs,Millsap,121.11,240.4,156.49,208.65,605.55,Single-ply,SBD,M
Boys,124.74,4,Jacob Barton,Callisburg,115.48,244.94,142.88,195.04,582.87,Single-ply,SBD,M
Boys,124.74,5,Feyi Oyewole,Oakridge School,117.75,208.65,127.01,208.65,544.31,Single-ply,SBD,M
Boys,124.74,6,Randel Furey,Sadler S & S Cons,115.3,215.46,115.67,176.9,508.02,Single-ply,SBD,M
Boys,124.74,7,Boone Feldt,Pilot Point,111.58,188.24,113.4,204.12,505.76,Single-ply,SBD,M
Boys,124.74,8,Brice Goracke,Bells,114.94,190.51,117.93,197.31,505.76,Single-ply,SBD,M
Boys,124.74,DQ,Alex Delgado,Chico,117.21,,,,,Single-ply,SBD,M
Boys,124.74+,1,Sam Whisenhunt,Leonard,125.01,267.62,158.76,235.87,662.24,Single-ply,SBD,M
Boys,124.74+,2,Dillon Archer,Bells,125.65,249.48,136.08,247.21,632.76,Single-ply,SBD,M
Boys,124.74+,3,Travis Bienicewicz,Wichita Falls City View,156.13,260.82,156.49,215.46,632.76,Single-ply,SBD,M
Boys,124.74+,4,Keith Gooden,Oakridge School,129.91,231.33,129.27,233.6,594.21,Single-ply,SBD,M
Boys,124.74+,5,Kolton Moore,Millsap,125.74,242.67,136.08,213.19,591.94,Single-ply,SBD,M
Boys,124.74+,6,Scott Buerger,Archer City,128.91,229.06,124.74,204.12,557.92,Single-ply,SBD,M
Boys,124.74+,7,Dylan Simpson,Bells,130.63,233.6,129.27,195.04,557.92,Single-ply,SBD,M
