Division,WeightClassKg,Place,Name,Team,BodyweightKg,Best3SquatKg,Best3BenchKg,Best3DeadliftKg,TotalKg,Equipment,Event,Sex
Boys,51.71,1,Charles Rogers,Crowley,49.26,120.2,61.23,113.4,294.84,Single-ply,SBD,M
Boys,51.71,2,Austin Schlattweiler,Red Oak,50.98,88.45,47.63,81.65,217.72,Single-ply,SBD,M
Boys,51.71,DQ,Greg Satchell,Crowley,47.81,,,,,Single-ply,SBD,M
Boys,55.79,1,Josh Lambatan,Mansfield Summit,55.61,113.4,72.57,136.08,322.05,Single-ply,SBD,M
Boys,55.79,2,Jonah Whitlock,Mansfield,53.52,117.93,58.97,129.27,306.17,Single-ply,SBD,M
Boys,59.87,1,De'Neric Pinson,Mansfield Lake Ridge,58.6,161.03,86.18,145.15,392.36,Single-ply,SBD,M
Boys,59.87,2,Alex Huggins,Mansfield,57.7,122.47,65.77,120.2,308.44,Single-ply,SBD,M
Boys,59.87,3,Andrew Alcala,Mansfield Timberview,57.42,127.01,58.97,108.86,294.84,Single-ply,SBD,M
Boys,67.13,1,E'Darion Williams,Cedar Hill,67.04,183.7,97.52,190.51,471.74,Single-ply,SBD,M
Boys,67.13,2,Joseph Terrance,Mansfield Timberview,63.87,158.76,115.67,149.69,424.11,Single-ply,SBD,M
Boys,67.13,3,Jaylon Weston,Mansfield Lake Ridge,66.04,165.56,97.52,161.03,424.11,Single-ply,SBD,M
Boys,67.13,4,Kortlon Erskine,Red Oak,66.13,165.56,79.38,170.1,415.04,Single-ply,SBD,M
Boys,67.13,5,Joseph Cates,Mansfield Summit,60.87,147.42,99.79,165.56,412.77,Single-ply,SBD,M
Boys,67.13,6,Richard Adontee,Red Oak,65.68,142.88,90.72,147.42,381.02,Single-ply,SBD,M
Boys,67.13,7,Josh Ferguson,Mansfield,66.86,113.4,72.57,131.54,317.51,Single-ply,SBD,M
Boys,67.13,DQ,Brandon Blond,Mansfield Timberview,66.32,199.58,,,,Single-ply,SBD,M
Boys,74.84,1,Uzo Odu,Cedar Hill,69.22,195.04,102.06,210.92,508.02,Single-ply,SBD,M
Boys,74.84,2,Cartraven Walker,Mansfield Lake Ridge,69.67,190.51,108.86,195.04,494.42,Single-ply,SBD,M
Boys,74.84,3,Kyland Tyler,Cedar Hill,74.12,183.7,95.25,188.24,467.2,Single-ply,SBD,M
Boys,74.84,4,Courtney Ogilvie,Cedar Hill,71.03,163.29,83.91,204.12,451.32,Single-ply,SBD,M
Boys,74.84,5,Marquis Kiner,Mansfield Timberview,70.31,163.29,102.06,174.63,439.98,Single-ply,SBD,M
Boys,74.84,6,Blake Powell,Mansfield Lake Ridge,74.66,158.76,108.86,161.03,428.64,Single-ply,SBD,M
Boys,82.1,1,Steven Lucas,Mansfield Timberview,80.29,192.78,124.74,217.72,535.24,Single-ply,SBD,M
Boys,82.1,2,David Saunders,Cedar Hill,81.01,183.7,131.54,208.65,523.9,Single-ply,SBD,M
Boys,82.1,3,Samuel Adedire,Mansfield Summit,80.47,151.95,117.93,226.8,496.68,Single-ply,SBD,M
Boys,82.1,4,Sir'Mann Tolliver,Mansfield Summit,77.11,195.04,108.86,188.24,492.15,Single-ply,SBD,M
Boys,82.1,5,Cam Jones,Cedar Hill,79.38,188.24,92.99,181.44,462.66,Single-ply,SBD,M
Boys,82.1,6,John Hines,Red Oak,81.83,176.9,92.99,188.24,458.13,Single-ply,SBD,M
Boys,82.1,7,Bailey Smith,Mansfield Timberview,75.48,158.76,97.52,181.44,437.72,Single-ply,SBD,M
Boys,82.1,8,Landon Hawkins,Mansfield Legacy,79.02,142.88,97.52,156.49,396.89,Single-ply,SBD,M
Boys,82.1,9,Ethan Holmes,Mansfield,79.92,115.67,81.65,142.88,340.19,Single-ply,SBD,M
Boys,82.1,10,Julian Garza,Mansfield,79.2,108.86,68.04,138.35,315.25,Single-ply,SBD,M
Boys,82.1,DQ,Damas Green,Mansfield Lake Ridge,80.2,,,,,Single-ply,SBD,M
Boys,89.81,1,Kolby Williams,Mansfield Timberview,88.63,183.7,124.74,222.26,530.7,Single-ply,SBD,M
Boys,89.81,2,Michael Allison,Mansfield Summit,88.72,183.7,120.2,226.8,530.7,Single-ply,SBD,M
Boys,89.81,3,Chris Boone,Red Oak,88.45,204.12,124.74,195.04,523.9,Single-ply,SBD,M
Boys,89.81,4,Bronson Links,Red Oak,89.81,213.19,120.2,188.24,521.63,Single-ply,SBD,M
Boys,89.81,5,Korian Culton,Cedar Hill,87.72,206.38,113.4,197.31,517.1,Single-ply,SBD,M
Boys,89.81,6,Anthony Perales,Red Oak,88.45,201.85,111.13,199.58,512.56,Single-ply,SBD,M
Boys,89.81,7,Nigel Brobbey,Mansfield Summit,89.54,190.51,117.93,195.04,503.49,Single-ply,SBD,M
Boys,89.81,8,Jayden Williams,Mansfield Lake Ridge,89.72,190.51,120.2,181.44,492.15,Single-ply,SBD,M
Boys,89.81,9,Frank Ramirez,Mansfield Lake Ridge,86.27,181.44,136.08,161.03,478.54,Single-ply,SBD,M
Boys,89.81,10,Jyron Russell,Mansfield Timberview,86.82,165.56,102.06,183.7,451.32,Single-ply,SBD,M
Boys,89.81,DQ,Michale Wetherby,Mansfield,87.36,,,,,Single-ply,SBD,M
Boys,89.81,DQ,Cody Pettit,Mansfield Summit,86.09,208.65,,,,Single-ply,SBD,M
Boys,99.79,1,Stanford Lewis,Mansfield Lake Ridge,97.43,192.78,138.35,185.97,517.1,Single-ply,SBD,M
Boys,99.79,2,Dillon Bowling,Crowley,95.89,188.24,131.54,179.17,498.95,Single-ply,SBD,M
Boys,99.79,3,Max Sweet,Mansfield,98.97,174.63,113.4,206.38,494.42,Single-ply,SBD,M
Boys,99.79,4,Reid Steele,Crowley,92.8,192.78,113.4,183.7,489.88,Single-ply,SBD,M
Boys,99.79,5,Blake Sheppard,Mansfield Timberview,98.16,154.22,124.74,181.44,460.4,Single-ply,SBD,M
Boys,99.79,6,Demario Harris,Mansfield Timberview,90.63,158.76,102.06,172.37,433.18,Single-ply,SBD,M
Boys,99.79,7,Matthew Garis,Mansfield Lake Ridge,99.06,174.63,83.91,174.63,433.18,Single-ply,SBD,M
Boys,99.79,DQ,Swinton Jackson,Red Oak,94.08,204.12,,,,Single-ply,SBD,M
Boys,109.77,1,Jaylon Manigo,Mansfield Timberview,104.05,204.12,163.29,240.4,607.81,Single-ply,SBD,M
Boys,109.77,2,Derrick Salter,Mansfield Summit,109.68,213.19,113.4,204.12,530.7,Single-ply,SBD,M
Boys,109.77,3,Prince Omorogbe,Mansfield Summit,102.15,208.65,124.74,192.78,526.17,Single-ply,SBD,M
Boys,109.77,4,Mike Womack,Mansfield Lake Ridge,102.87,197.31,138.35,170.1,505.76,Single-ply,SBD,M
Boys,109.77,5,Malik Babaa,Mansfield Legacy,102.24,138.35,83.91,142.88,365.14,Single-ply,SBD,M
Boys,109.77,DQ,Demondrick Jones,Cedar Hill,106.87,,,,,Single-ply,SBD,M
Boys,124.74,1,Azeez Yussuf,Mansfield Summit,121.93,242.67,140.61,240.4,623.69,Single-ply,SBD,M
Boys,124.74,2,Jacob Brown,Mansfield Timberview,114.12,208.65,145.15,217.72,571.53,Single-ply,SBD,M
Boys,124.74,3,Quanard Carter,Mansfield Summit,110.86,206.38,131.54,215.46,553.38,Single-ply,SBD,M
Boys,124.74,4,Layton Earnst,Mansfield,117.21,197.31,124.74,219.99,542.04,Single-ply,SBD,M
Boys,124.74,5,Izaac Banuelos,Mansfield Timberview,121.2,181.44,113.4,195.04,489.88,Single-ply,SBD,M
Boys,124.74,DQ,Tyler Needham,Mansfield,122.11,181.44,,,,Single-ply,SBD,M
Boys,124.74,DQ,Conner Parsons,Mansfield,124.01,199.58,,,,Single-ply,SBD,M
Boys,124.74+,1,Tate Heitmeier,Mansfield Lake Ridge,144.51,229.06,136.08,192.78,557.92,Single-ply,SBD,M
Boys,124.74+,2,Josh Gilliam,Mansfield Timberview,143.15,208.65,136.08,181.44,526.17,Single-ply,SBD,M
Boys,124.74+,3,Cameron Preston,Crowley,127.82,204.12,120.2,199.58,523.9,Single-ply,SBD,M
Boys,124.74+,4,Anthony Harris,Mansfield Timberview,159.48,188.24,102.06,185.97,476.27,Single-ply,SBD,M
Boys,124.74+,5,Payton McClain,Red Oak,125.1,165.56,120.2,176.9,462.66,Single-ply,SBD,M
Boys,124.74+,6,Joey Milburn,Mansfield Legacy,149.32,161.03,129.27,170.1,460.4,Single-ply,SBD,M
Boys,124.74+,7,Evin Molway,Mansfield,129.09,156.49,115.67,185.97,458.13,Single-ply,SBD,M
Boys,124.74+,8,Kristien Curl,Cedar Hill,129.73,156.49,102.06,174.63,433.18,Single-ply,SBD,M
Boys,124.74+,9,Chris Coleman,Cedar Hill,136.8,154.22,102.06,176.9,433.18,Single-ply,SBD,M
Boys,124.74+,10,Maurice Washington,Cedar Hill,125.74,163.29,92.99,151.95,408.23,Single-ply,SBD,M
