Division,WeightClassKg,Place,Name,Team,BodyweightKg,Best3SquatKg,Best3BenchKg,Best3DeadliftKg,TotalKg,Equipment,Event,Sex
Boys,51.71,1,Jesus Gomez,Somerset,51.71,129.27,72.57,117.93,319.78,Single-ply,SBD,M
Boys,51.71,2,Angel Bermudez,Poteet,51.71,83.91,72.57,102.06,258.55,Single-ply,SBD,M
Boys,55.79,1,Ricky Guerra,Poteet,55.79,149.69,102.06,149.69,401.43,Single-ply,SBD,M
Boys,55.79,2,Mauricio Galarza,San Antonio East Central,55.7,136.08,86.18,149.69,371.95,Single-ply,SBD,M
Boys,55.79,3,Paul Arocha,Devine,52.34,120.2,83.91,136.08,340.19,Single-ply,SBD,M
Boys,55.79,4,Chaz Graham,Lytle,53.61,106.59,58.97,129.27,294.84,Single-ply,SBD,M
Boys,55.79,5,Robbert Tappen,Comfort,54.61,92.99,63.5,102.06,258.55,Single-ply,SBD,M
Boys,59.87,1,Darion McMahan,Stockdale,59.87,206.38,138.35,199.58,544.31,Single-ply,SBD,M
Boys,59.87,2,Oscar de Leon,Somerset,59.42,129.27,81.65,142.88,353.8,Single-ply,SBD,M
Boys,59.87,3,Luis Flores,Poteet,59.87,142.88,63.5,147.42,353.8,Single-ply,SBD,M
Boys,59.87,4,John Dominguez,Somerset,56.06,136.08,63.5,145.15,344.73,Single-ply,SBD,M
Boys,59.87,5,Ricky Rios,Devine,59.6,142.88,83.91,115.67,342.46,Single-ply,SBD,M
Boys,59.87,6,Nathan Medrano,Lytle,59.42,122.47,74.84,136.08,333.39,Single-ply,SBD,M
Boys,59.87,7,Nathan Pringle,Lytle,57.88,120.2,74.84,133.81,328.85,Single-ply,SBD,M
Boys,59.87,8,Joseph Soria,Lytle,59.69,120.2,70.31,127.01,317.51,Single-ply,SBD,M
Boys,59.87,9,Wyatt Scheff,Devine,57.33,113.4,65.77,127.01,306.17,Single-ply,SBD,M
Boys,59.87,10,Sabastian Estrada,Somerset,56.06,95.25,52.16,117.93,265.35,Single-ply,SBD,M
Boys,59.87,11,Xavier Huerta,Lytle,57.33,90.72,52.16,108.86,251.74,Single-ply,SBD,M
Boys,67.13,1,Matt Valadez,Stockdale,67.13,183.7,113.4,195.04,492.15,Single-ply,SBD,M
Boys,67.13,2,Michael Davis,San Antonio East Central,66.77,174.63,99.79,188.24,462.66,Single-ply,SBD,M
Boys,67.13,3,Ozzy Gonzalez,Somerset,67.04,188.24,86.18,174.63,449.06,Single-ply,SBD,M
Boys,67.13,4,Mj Rodriguez,San Antonio East Central,60.87,176.9,90.72,172.37,439.98,Single-ply,SBD,M
Boys,67.13,5,Adam Austin,Del Rio,63.68,163.29,88.45,176.9,428.64,Single-ply,SBD,M
Boys,74.84,6,Issac Villerreal,Del Rio,67.36,142.88,102.06,149.69,394.63,Single-ply,SBD,M
Boys,67.13,7,Taylor Carrillo,Lytle,66.22,131.54,90.72,165.56,387.82,Single-ply,SBD,M
Boys,67.13,8,Josh Ramos,Somerset,67.13,183.7,61.23,142.88,387.82,Single-ply,SBD,M
Boys,67.13,9,Alex Jiminez,Agua Dulce,61.42,131.54,90.72,163.29,385.55,Single-ply,SBD,M
Boys,67.13,10,Frank Ramirez,Del Rio,61.78,133.81,90.72,142.88,367.41,Single-ply,SBD,M
Boys,67.13,11,Adrian Valdez,Lytle,64.95,117.93,97.52,149.69,365.14,Single-ply,SBD,M
Boys,67.13,12,Joseph Rios,San Antonio Kennedy,62.41,131.54,90.72,140.61,362.87,Single-ply,SBD,M
Boys,67.13,13,Demetri Molina,Somerset,64.14,129.27,74.84,142.88,347,Single-ply,SBD,M
Boys,67.13,14,Jj Aguinaga,Lytle,64.77,117.93,63.5,149.69,331.12,Single-ply,SBD,M
Boys,67.13,15,Conner Thayn,Comfort,65.5,117.93,65.77,136.08,319.78,Single-ply,SBD,M
Boys,67.13,16,Chris Taylor,Comfort,64.86,113.4,63.5,129.27,306.17,Single-ply,SBD,M
Boys,74.84,1,Pedro Molina,Somerset,74.84,226.8,122.47,235.87,585.13,Single-ply,SBD,M
Boys,74.84,2,Matt Ritch,San Antonio East Central,70.03,195.04,127.01,181.44,503.49,Single-ply,SBD,M
Boys,74.84,3,Masen Lindner,Comfort,73.12,172.37,127.01,181.44,480.81,Single-ply,SBD,M
Boys,74.84,4,Austin Gonzles,San Antonio Southside,74.21,170.1,113.4,176.9,460.4,Single-ply,SBD,M
Boys,74.84,5,Loggan Pennycook,Del Rio,70.94,158.76,102.06,192.78,453.59,Single-ply,SBD,M
Boys,74.84,6,Dylan Aguinaga,Lytle,73.75,145.15,90.72,181.44,417.3,Single-ply,SBD,M
Boys,74.84,7,Michael Chaves,Devine,73.39,151.95,90.72,172.37,415.04,Single-ply,SBD,M
Boys,74.84,8,Orlando Medrano,Lytle,71.3,149.69,95.25,147.42,392.36,Single-ply,SBD,M
Boys,74.84,9,Chase Lindner,Comfort,72.85,136.08,102.06,147.42,385.55,Single-ply,SBD,M
Boys,74.84,10,Hanz Torres,Bandera,68.49,142.88,90.72,147.42,381.02,Single-ply,SBD,M
Boys,74.84,11,John Santos,Lytle,72.48,131.54,79.38,163.29,374.21,Single-ply,SBD,M
Boys,74.84,12,Justin Faulkner,Comfort,69.76,129.27,83.91,147.42,360.61,Single-ply,SBD,M
Boys,74.84,13,Dominic Cruz,Jourdanton,74.21,131.54,74.84,147.42,353.8,Single-ply,SBD,M
Boys,74.84,14,Francisco Martinez,Poteet,67.77,129.27,90.72,127.01,347,Single-ply,SBD,M
Boys,74.84,15,Jonny Salazar,Somerset,74.84,92.99,95.25,154.22,342.46,Single-ply,SBD,M
Boys,74.84,16,Xavier Reyes,Poteet,74.84,88.45,68.04,127.01,283.5,Single-ply,SBD,M
Boys,82.1,1,Joe Estrada,Jourdanton,78.38,231.33,149.69,199.58,580.6,Single-ply,SBD,M
Boys,82.1,2,Justin Quesada,Somerset,82.1,215.46,136.08,219.99,571.53,Single-ply,SBD,M
Boys,82.1,3,Rueben Hinojosa,Lytle,77.75,204.12,127.01,208.65,539.77,Single-ply,SBD,M
Boys,82.1,4,Matt Marrs,Bandera,78.56,210.92,106.59,204.12,521.63,Single-ply,SBD,M
Boys,82.1,5,Jacob Gonzalez,San Antonio East Central,79.47,204.12,108.86,195.04,508.02,Single-ply,SBD,M
Boys,82.1,6,Christian Rodriguez,Stockdale,82.1,176.9,102.06,192.78,471.74,Single-ply,SBD,M
Boys,82.1,7,Zack Bosquez,Comfort,78.83,170.1,106.59,188.24,464.93,Single-ply,SBD,M
Boys,82.1,8,Daniel Ramirez,San Antonio Kennedy,75.75,170.1,102.06,172.37,444.52,Single-ply,SBD,M
Boys,82.1,9,John Valdez,Somerset,82.1,142.88,102.06,170.1,415.04,Single-ply,SBD,M
Boys,82.1,10,Thomas Rodriguez,Somerset,82.1,142.88,102.06,147.42,392.36,Single-ply,SBD,M
Boys,82.1,11,Rowdy Souter,Comfort,79.11,129.27,70.31,136.08,335.66,Single-ply,SBD,M
Boys,82.1,12,Brian Gutierrez,Lytle,81.28,120.2,58.97,149.69,328.85,Single-ply,SBD,M
Boys,89.81,1,Carlos Carrillo,Lytle,88.18,226.8,131.54,217.72,576.06,Single-ply,SBD,M
Boys,89.81,2,Brian Steffens,Del Rio,84.73,199.58,117.93,213.19,530.7,Single-ply,SBD,M
Boys,89.81,3,Mark Bocanegra,Jourdanton,88.18,204.12,120.2,183.7,508.02,Single-ply,SBD,M
Boys,89.81,4,Matt Gamez,Poteet,88.9,185.97,111.13,188.24,485.34,Single-ply,SBD,M
Boys,89.81,5,Bichael Bustamante,Somerset,89.81,172.37,104.33,170.1,446.79,Single-ply,SBD,M
Boys,89.81,6,Rd McCarrell,Jourdanton,85.09,170.1,86.18,181.44,437.72,Single-ply,SBD,M
Boys,89.81,7,Rudy Pena,San Antonio Kennedy,87.36,170.1,86.18,181.44,437.72,Single-ply,SBD,M
Boys,89.81,8,Nick Andreas,Bandera,85,161.03,97.52,158.76,417.3,Single-ply,SBD,M
Boys,89.81,9,Julian Valdovinos,Bandera,85.82,136.08,97.52,158.76,392.36,Single-ply,SBD,M
Boys,89.81,10,Obdel Altakrouri,Bandera,85.37,154.22,92.99,136.08,383.29,Single-ply,SBD,M
Boys,89.81,11,Jesus Zendejas,Del Rio,84.28,124.74,92.99,163.29,381.02,Single-ply,SBD,M
Boys,89.81,12,Jesus Pilado,Somerset,89.81,124.74,92.99,138.35,356.07,Single-ply,SBD,M
Boys,99.79,1,Santos Dominguez,San Antonio East Central,91.26,240.4,140.61,235.87,616.89,Single-ply,SBD,M
Boys,99.79,2,Joe Hernandez,San Antonio East Central,96.25,249.48,127.01,213.19,589.67,Single-ply,SBD,M
Boys,99.79,3,Henry Vasquez,San Antonio East Central,96.43,247.21,124.74,206.38,578.33,Single-ply,SBD,M
Boys,99.79,4,Leo Perez,Devine,98.61,226.8,113.4,185.97,526.17,Single-ply,SBD,M
Boys,109.77,5,Izzy Hayes,Bandera,99.88,174.63,106.59,181.44,462.66,Single-ply,SBD,M
Boys,99.79,6,Joe Tovar,Somerset,99.43,165.56,92.99,172.37,430.91,Single-ply,SBD,M
Boys,99.79,7,Bryce Sandoval,Poteet,99.79,142.88,99.79,136.08,378.75,Single-ply,SBD,M
Boys,99.79,8,Trey Mann,Agua Dulce,94.26,104.33,104.33,158.76,367.41,Single-ply,SBD,M
Boys,99.79,9,Joshua Macat,Lytle,99.52,145.15,77.11,145.15,367.41,Single-ply,SBD,M
Boys,109.77,1,Sal Marines,Somerset,109.77,319.78,136.08,274.42,730.28,Single-ply,SBD,M
Boys,109.77,2,Enrique Lugo,Jourdanton,106.78,251.74,172.37,238.14,662.24,Single-ply,SBD,M
Boys,109.77,3,Chris McCumber,San Antonio East Central,107.32,272.16,156.49,233.6,662.24,Single-ply,SBD,M
Boys,109.77,4,Israel Aguero,Jourdanton,108.23,222.26,136.08,208.65,566.99,Single-ply,SBD,M
Boys,109.77,4,Andy Villadaolid,Somerset,102.97,235.87,122.47,158.76,517.1,Single-ply,SBD,M
Boys,109.77,5,Aaron Herrera,Del Rio,104.96,226.8,113.4,204.12,544.31,Single-ply,SBD,M
Boys,109.77,6,Adrian Contreras,Poteet,109.77,181.44,120.2,204.12,505.76,Single-ply,SBD,M
Boys,109.77,7,Bj Frida,Somerset,109.77,174.63,115.67,174.63,464.93,Single-ply,SBD,M
Boys,109.77,8,Marc Hubbard,Comfort,105.32,163.29,102.06,188.24,453.59,Single-ply,SBD,M
Boys,109.77,9,Paul Mesta,Del Rio,101.51,156.49,113.4,181.44,451.32,Single-ply,SBD,M
Boys,109.77,10,Adairn Valdez,Del Rio,100.33,170.1,83.91,181.44,435.45,Single-ply,SBD,M
Boys,109.77,11,Jeremy Ybarra,San Antonio Kennedy,101.88,149.69,104.33,181.44,435.45,Single-ply,SBD,M
Boys,109.77,12,Duke Aguirre,San Antonio Kennedy,107.95,127.01,113.4,181.44,421.84,Single-ply,SBD,M
Boys,109.77,13,Andrew Padilla,Poteet,109.77,170.1,92.99,158.76,421.84,Single-ply,SBD,M
Boys,109.77,14,Joe Reshman,Somerset,107.59,145.15,104.33,158.76,408.23,Single-ply,SBD,M
Boys,109.77,15,Gary La Rue,San Antonio Kennedy,100.06,129.27,70.31,163.29,362.87,Single-ply,SBD,M
Boys,109.77,16,Michaekl Salazar,Somerset,109.77,111.13,63.5,149.69,324.32,Single-ply,SBD,M
Boys,109.77,17,Jared Vidales,Somerset,105.51,65.77,52.16,111.13,229.06,Single-ply,SBD,M
Boys,124.74,1,Eddie Lopez,San Antonio East Central,117.21,281.23,167.83,231.33,680.39,Single-ply,SBD,M
Boys,124.74,2,Joe Aguero,Somerset,124.74,324.32,142.88,213.19,680.39,Single-ply,SBD,M
Boys,124.74,3,Esteven Balderrama,Devine,124.56,263.08,149.69,226.8,639.57,Single-ply,SBD,M
Boys,124.74,4,Pat Rodriguez,Devine,117.03,235.87,172.37,195.04,603.28,Single-ply,SBD,M
Boys,124.74,5,Gabriel Garza,Somerset,124.74,249.48,158.76,195.04,603.28,Single-ply,SBD,M
Boys,124.74,6,Jacob Guerra,San Antonio Southside,117.75,249.48,102.06,219.99,571.53,Single-ply,SBD,M
Boys,124.74,7,Bryce Dowda,Bandera,110.68,190.51,120.2,190.51,501.22,Single-ply,SBD,M
Boys,124.74,8,Adam Gonzalez,San Antonio Kennedy,116.57,181.44,129.27,188.24,498.95,Single-ply,SBD,M
Boys,124.74,9,Larry Valdes,Somerset,124.74,161.03,117.93,195.04,474,Single-ply,SBD,M
Boys,124.74,10,Noah Ramirez,Comfort,117.12,174.63,95.25,167.83,437.72,Single-ply,SBD,M
Boys,124.74,11,Joseph Garcia,Del Rio,113.76,151.95,88.45,170.1,410.5,Single-ply,SBD,M
Boys,124.74,12,Josh Silva,Somerset,124.74,142.88,106.59,142.88,392.36,Single-ply,SBD,M
Boys,124.74,13,Brandon Williams,Del Rio,111.04,138.35,74.84,142.88,356.07,Single-ply,SBD,M
Boys,124.74,14,Zach Torrez,Somerset,124.74,136.08,72.57,102.06,310.71,Single-ply,SBD,M
Boys,124.74,15,Stormy Smith,Somerset,116.21,102.06,63.5,102.06,267.62,Single-ply,SBD,M
Boys,124.74+,1,Manuel Tijerina,Jourdanton,128.46,276.69,156.49,260.82,694,Single-ply,SBD,M
Boys,124.74+,2,Mark Alarcon,San Antonio East Central,133.72,267.62,183.7,226.8,678.12,Single-ply,SBD,M
Boys,124.74+,3,Tyler Verette,Jourdanton,133.81,222.26,149.69,222.26,594.21,Single-ply,SBD,M
Boys,124.74+,5,Jacob Ortiz,Agua Dulce,129.09,206.38,117.93,192.78,517.1,Single-ply,SBD,M
Boys,124.74+,6,Zac Moore,Comfort,127.5,158.76,74.84,174.63,408.23,Single-ply,SBD,M
Boys,124.74+,7,Chris Frank,Del Rio,132.54,142.88,106.59,147.42,396.89,Single-ply,SBD,M
