Division,WeightClassKg,Place,Name,Team,BodyweightKg,Best3SquatKg,Best3BenchKg,Best3DeadliftKg,TotalKg,Equipment,Event,Sex
Boys,51.71,1,Leo Martinez,Rio Grande City,51.17,154.22,102.06,167.83,424.11,Single-ply,SBD,M
Boys,51.71,2,Javier Farias,Mission,50.8,165.56,68.04,185.97,419.57,Single-ply,SBD,M
Boys,51.71,3,Jesus Puente,La Joya Palmview,51.35,142.88,74.84,142.88,360.61,Single-ply,SBD,M
Boys,55.79,1,Anthony Trevino,Rio Grande City Grulla,55.34,115.67,68.04,136.08,319.78,Single-ply,SBD,M
Boys,59.87,1,Robert Saenz,Sharyland Pioneer,58.69,201.85,133.81,204.12,539.77,Single-ply,SBD,M
Boys,59.87,2,Chris Rios,Rio Grande City,59.24,188.24,117.93,192.78,498.95,Single-ply,SBD,M
Boys,59.87,3,Eduardo Elizondo,Rio Grande City Grulla,59.87,172.37,106.59,185.97,464.93,Single-ply,SBD,M
Boys,59.87,4,Ismael Talamante,Rio Grande City,58.24,170.1,102.06,161.03,433.18,Single-ply,SBD,M
Boys,59.87,5,Jason Penaflor,Mission Veterans Memorial,59.42,111.13,70.31,106.59,288.03,Single-ply,SBD,M
Boys,67.13,1,Ricardo Pena,Rio Grande City,66.5,222.26,131.54,219.99,573.79,Single-ply,SBD,M
Boys,67.13,2,Adrian Leija,Mission Veterans Memorial,67.13,147.42,102.06,165.56,415.04,Single-ply,SBD,M
Boys,67.13,3,Erik Castro,Mission Veterans Memorial,64.59,142.88,74.84,151.95,369.68,Single-ply,SBD,M
Boys,67.13,4,Abraham Salinas,Rio Grande City Grulla,66.68,131.54,95.25,131.54,358.34,Single-ply,SBD,M
Boys,67.13,5,LeonardoP Perez,Mission,64.41,113.4,72.57,158.76,344.73,Single-ply,SBD,M
Boys,67.13,DQ,Carlos Gonzalez,Sharyland Pioneer,66.86,,,,,Single-ply,SBD,M
Boys,67.13,DQ,Coy Burrows,Sharyland Pioneer,66.04,,,,,Single-ply,SBD,M
Boys,74.84,1,Jonathan Casarez,Rio Grande City,72.03,206.38,140.61,222.26,569.26,Single-ply,SBD,M
Boys,74.84,2,Adam Pena,La Joya,74.84,163.29,106.59,176.9,446.79,Single-ply,SBD,M
Boys,74.84,DQ,Eduardo Fraire,La Joya Palmview,74.21,181.44,,,,Single-ply,SBD,M
Boys,82.1,1,Robert Farias,Mission Sharyland,80.38,251.74,136.08,208.65,596.47,Single-ply,SBD,M
Boys,82.1,2,Oscar Mendoza,La Joya Palmview,82.01,235.87,151.95,204.12,591.94,Single-ply,SBD,M
Boys,82.1,3,Mauricio Gonzalez,Mission,82.1,240.4,136.08,201.85,578.33,Single-ply,SBD,M
Boys,82.1,4,Miguel Rendon,Mission,80.38,208.65,117.93,215.46,542.04,Single-ply,SBD,M
Boys,82.1,5,Edgar Escobedo,Mission,80.74,183.7,113.4,208.65,505.76,Single-ply,SBD,M
Boys,82.1,6,Eriberto Villareal,Mission Veterans Memorial,78.38,179.17,108.86,183.7,471.74,Single-ply,SBD,M
Boys,82.1,DQ,Juan Zurita,Rio Grande City,76.2,204.12,,,,Single-ply,SBD,M
Boys,89.81,1,Albert Monroy,Mission Veterans Memorial,87.72,256.28,115.67,224.53,596.47,Single-ply,SBD,M
Boys,89.81,DQ,Quan Nguyen,Mission,89.63,,,,,Single-ply,SBD,M
Boys,89.81,DQ,Luis Garza,La Joya,84.82,240.4,122.47,,,Single-ply,SBD,M
Boys,89.81,DQ,Danny Vasquez,La Joya Palmview,89.54,,,,,Single-ply,SBD,M
Boys,89.81,DQ,Miguel de Hoyos,La Joya Palmview,86.36,251.74,142.88,,,Single-ply,SBD,M
Boys,89.81,DQ,Obed Hernandez,Sharyland Pioneer,87.82,,,,,Single-ply,SBD,M
Boys,99.79,1,Daniel Villarreal,La Joya,91.9,272.16,136.08,240.4,648.64,Single-ply,SBD,M
Boys,99.79,2,Eduardo Garcia,Rio Grande City,95.62,208.65,140.61,233.6,582.87,Single-ply,SBD,M
Boys,99.79,3,Derek Solis,Rio Grande City Grulla,94.89,201.85,129.27,219.99,551.11,Single-ply,SBD,M
Boys,99.79,4,Ivan Garcia,Rio Grande City Grulla,95.89,158.76,92.99,176.9,428.64,Single-ply,SBD,M
Boys,99.79,5,Isreal Campos,Mission,98.43,90.72,72.57,124.74,288.03,Single-ply,SBD,M
Boys,99.79,DQ,Bryan Rosales,Mission,97.98,,,,,Single-ply,SBD,M
Boys,99.79,DQ,Eric Gutierrez,Mission,98.43,219.99,,,,Single-ply,SBD,M
Boys,109.77,1,Jaime Gomez,Rio Grande City,103.69,210.92,145.15,233.6,589.67,Single-ply,SBD,M
Boys,109.77,2,Gonzalo Montalvo,Rio Grande City Grulla,101.97,170.1,108.86,142.88,421.84,Single-ply,SBD,M
Boys,109.77,DQ,Arturo Pena,La Joya Palmview,103.96,,,,,Single-ply,SBD,M
Boys,124.74,1,Luis Salinas,Rio Grande City,122.92,283.5,176.9,297.1,757.5,Single-ply,SBD,M
Boys,124.74,2,Joshua Williams,Mission Sharyland,122.83,272.16,158.76,249.48,680.39,Single-ply,SBD,M
Boys,124.74,3,Steven Alvarez,Mission,119.02,240.4,149.69,224.53,614.62,Single-ply,SBD,M
Boys,124.74,4,Miguel Salazar,Rio Grande City Grulla,112.49,240.4,136.08,224.53,601.01,Single-ply,SBD,M
Boys,124.74,5,Luis Garcia,Rio Grande City Grulla,117.75,224.53,136.08,188.24,548.85,Single-ply,SBD,M
Boys,124.74,6,Damion Gomez,Mission Veterans Memorial,112.67,197.31,92.99,183.7,474,Single-ply,SBD,M
Boys,124.74,7,Julian Becerra,Mission,116.12,163.29,90.72,183.7,437.72,Single-ply,SBD,M
Boys,124.74,DQ,Juan Rivas,La Joya Palmview,117.84,,,,,Single-ply,SBD,M
Boys,124.74,DQ,Juan Rodriguez,Rio Grande City,118.75,260.82,140.61,,,Single-ply,SBD,M
Boys,124.74+,1,Alex Rodriguez,La Joya,157.4,294.84,163.29,215.46,673.58,Single-ply,SBD,M
Boys,124.74+,2,Victor Anzaldua,Mission Veterans Memorial,144.79,278.96,124.74,242.67,646.37,Single-ply,SBD,M
Boys,124.74+,3,Carlos Martinez,Mission,132.81,170.1,102.06,124.74,396.89,Single-ply,SBD,M
