Name,Sex,WeightClassKg,Best3SquatKg,Best3BenchKg,Bench4Kg,Best3DeadliftKg,Deadlift4Kg,TotalKg,Event,Equipment,Division,Place
J. Wusy,F,44,95,42.5,,107.5,,245,SBD,Single-ply,Open,1
J. Howlett,F,48,117.5,47.5,,127.5,,292.5,SBD,Single-ply,Open,1
J. Zolles,F,48,92.5,50,,115,,257.5,SBD,Single-ply,Open,2
Pam Cutjar,F,48,77.5,32.5,,92.5,,202.5,SBD,Single-ply,Open,3
Sue Jordan,F,52,157.5,77.5,,165,170,400,SBD,Single-ply,Open,1
Christine Saunders,F,52,125,67.5,,130,,322.5,SBD,Single-ply,Open,2
D. Holdrich,F,52,102.5,52.5,,130,,285,SBD,Single-ply,Open,3
Kerry Boyce,F,52,105,47.5,,117.5,,270,SBD,Single-ply,Open,4
Carol Scott-Todd,F,52,85,50,,125,,260,SBD,Single-ply,Open,5
Linda Bird,F,56,125,72.5,,140,,337.5,SBD,Single-ply,Open,1
L. Swift,F,56,97.5,45,,125,,267.5,SBD,Single-ply,Open,2
Julie Ann Holmes,F,60,142.5,82.5,,150,,375,SBD,Single-ply,Open,1
S. Jackson,F,60,125,60,,150,,335,SBD,Single-ply,Open,2
K. Blower,F,60,112.5,45,,140,,297.5,SBD,Single-ply,Open,3
Joy Dobson,F,67.5,137.5,82.5,,200,,420,SBD,Single-ply,Open,1
M. Rigby,F,67.5,135,72.5,,165,,372.5,SBD,Single-ply,Open,2
K. Amor,F,67.5,135,70,,135,,340,SBD,Single-ply,Open,3
T. Childs,F,67.5,130,52.5,,137.5,,320,SBD,Single-ply,Open,4
J. Nokelainen,F,67.5,115,55,,150,,320,SBD,Single-ply,Open,5
Heidi Wittesch,F,75,190,107.5,,195,,492.5,SBD,Single-ply,Open,1
Pam Matthews,F,75,150,90,,180,,420,SBD,Single-ply,Open,2
A. Green,F,75,135,60,,155,,350,SBD,Single-ply,Open,3
Tracy Spizzo,F,82.5,135,75,,165,,375,SBD,Single-ply,Open,1
C. Tew,F,82.5,125,65,,130,,320,SBD,Single-ply,Open,2
C. Allan,M,56,170,102.5,,207.5,,480,SBD,Single-ply,Open,1
J. Taylor,M,56,150,70,,182.5,,402.5,SBD,Single-ply,Open,2
B. Dixon,M,60,210,130,,227.5,,567.5,SBD,Single-ply,Open,1
C. Cook,M,60,170,87.5,,207.5,,465,SBD,Single-ply,Open,3
T. Lewis,M,60,175,100,,200,,475,SBD,Single-ply,Open,2
T. Boydon,M,60,157.5,100,,175,,432.5,SBD,Single-ply,Open,4
Charles Coleiro,M,67.5,275,145,,280,,700,SBD,Single-ply,Open,1
R. Brown,M,67.5,210,140,,220,,570,SBD,Single-ply,Open,2
Courtney Boyce,M,67.5,200,132.5,,220,,552.5,SBD,Single-ply,Open,3
M. Blower,M,67.5,215,110,,205,,530,SBD,Single-ply,Open,4
Glen Waszkiel,M,75,300,162.5,,290,,752.5,SBD,Single-ply,Open,1
Wayne Scarffe,M,75,247.5,130,,275,,652.5,SBD,Single-ply,Open,2
A. Granerni,M,75,225,155,,245,,625,SBD,Single-ply,Open,3
C. O'Brien,M,75,225,125,,252.5,,602.5,SBD,Single-ply,Open,4
D. Leonard,M,75,237.5,147.5,,215,,600,SBD,Single-ply,Open,5
Bruce Waddell,M,82.5,307.5,170,,282.5,,760,SBD,Single-ply,Open,1
Laurie Butler,M,82.5,295,177.5,,265,,737.5,SBD,Single-ply,Open,2
Geoff Pavey,M,82.5,240,135,,272.5,,647.5,SBD,Single-ply,Open,3
David Boyce,M,82.5,230,145,,252.5,,627.5,SBD,Single-ply,Open,4
R. Deluho,M,82.5,217.5,152.5,,245,,615,SBD,Single-ply,Open,5
M. Newitt,M,82.5,222.5,120,,257.5,,600,SBD,Single-ply,Open,6
C. Freeman,M,82.5,220,117.5,,230,,567.5,SBD,Single-ply,Open,7
A. Curtis,M,82.5,230,122.5,,215,,567.5,SBD,Single-ply,Open,8
Michael Hubon,M,90,300,187.5,197.5,272.5,,760,SBD,Single-ply,Open,1
Mason Jardine,M,90,297.5,160,,270,,727.5,SBD,Single-ply,Open,2
L. Cordone,M,90,267.5,160,,280,,707.5,SBD,Single-ply,Open,3
A. Wilson,M,90,245,142.5,,267.5,,655,SBD,Single-ply,Open,4
M. James,M,90,250,165,,230,,645,SBD,Single-ply,Open,5
G. Byrne,M,90,245,125,,270,,640,SBD,Single-ply,Open,6
S. Cook,M,90,240,137.5,,260,,637.5,SBD,Single-ply,Open,7
J. Koplin,M,90,217.5,132.5,,277.5,,627.5,SBD,Single-ply,Open,8
K. Nasarenko,M,90,215,137.5,,232.5,,585,SBD,Single-ply,Open,9
Dino Toci,M,100,312.5,195,,340,,847.5,SBD,Single-ply,Open,2
Shane Blood,M,100,335,205,,315,,855,SBD,Single-ply,Open,1
Vince Simonetta,M,100,320,180,,335,,835,SBD,Single-ply,Open,3
L. Hook,M,100,295,162.5,,290,,747.5,SBD,Single-ply,Open,4
Barry Murray,M,100,295,177.5,,272.5,,745,SBD,Single-ply,Open,5
Geoff Barclay,M,100,285,165,,290,,740,SBD,Single-ply,Open,6
I. Shaw,M,100,240,145,,262.5,,647.5,SBD,Single-ply,Open,7
S. Kraljen,M,100,247.5,130,,257.5,,635,SBD,Single-ply,Open,8
Wulff Breitsameter,M,100,255,135,,235,,625,SBD,Single-ply,Open,9
A. Carpenter,M,100,125,130,,250,,505,SBD,Single-ply,Open,10
Joe McGowan,M,110,330,202.5,,327.5,,860,SBD,Single-ply,Open,1
Bruce Rigby,M,110,322.5,165,,300,,787.5,SBD,Single-ply,Open,2
Robert Wilks,M,110,302.5,177.5,,295,,775,SBD,Single-ply,Open,3
I. King,M,110,267.5,172.5,,245,,685,SBD,Single-ply,Open,4
J. McAlister,M,110,250,150,,240,,640,SBD,Single-ply,Open,5
Terry Lonsdale,M,125,345,215,217.5,310,,870,SBD,Single-ply,Open,1
Fred Hermann,M,125,337.5,195,,307.5,,840,SBD,Single-ply,Open,2
N. Marriott,M,125,300,197.5,,320,,817.5,SBD,Single-ply,Open,3
Stan Pianko,M,125,295,185,,250,,730,SBD,Single-ply,Open,4
Alex Kapica,M,125+,365,180,,320,,865,SBD,Single-ply,Open,1
B. Sharp,M,125+,260,165,,255,,680,SBD,Single-ply,Open,2
