Division,WeightClassKg,Place,Name,Team,BodyweightKg,Best3SquatKg,Best3BenchKg,Best3DeadliftKg,TotalKg,Equipment,Event,Sex
Boys,55.79,1,Isaiah Lucio,Pearsall,51.8,142.88,97.52,156.49,396.89,Single-ply,SBD,M
Boys,55.79,1,Dimas Tenorio,Crystal City,55.38,195.04,111.13,195.04,501.22,Single-ply,SBD,M
Boys,55.79,2,Jaime Rodriguez,Jourdanton,55.79,188.24,72.57,158.76,419.57,Single-ply,SBD,M
Boys,55.79,3,Luke Torres,Devine,55.16,140.61,83.91,156.49,381.02,Single-ply,SBD,M
Boys,55.79,4,Rudy Rios,Devine,55.79,131.54,79.38,151.95,362.87,Single-ply,SBD,M
Boys,55.79,5,Manny Arellano,Pearsall,53.16,102.06,92.99,136.08,331.12,Single-ply,SBD,M
Boys,59.87,6,Jaime Ramirez,Rocksprings,55.84,115.67,70.31,122.47,308.44,Single-ply,SBD,M
Boys,59.87,1,Rodney Garcia,Carrizo Springs,59.47,181.44,97.52,170.1,449.06,Single-ply,SBD,M
Boys,59.87,2,Garrison Kindred,Castroville Medina Valley,59.15,140.61,83.91,147.42,371.95,Single-ply,SBD,M
Boys,59.87,3,Diego Pérez,Rocksprings,59.51,124.74,72.57,136.08,333.39,Single-ply,SBD,M
Boys,59.87,4,Lucas Byrd,Devine,59.42,113.4,68.04,120.2,301.64,Single-ply,SBD,M
Boys,59.87,5,Marco Gomez,Crystal City,59.6,92.99,70.31,102.06,265.35,Single-ply,SBD,M
Boys,59.87,DQ,Ben Uribe,Jourdanton,58.97,142.88,,,,Single-ply,SBD,M
Boys,67.13,1,Colton Rodriguez,Jourdanton,63.55,213.19,108.86,190.51,512.56,Single-ply,SBD,M
Boys,67.13,2,Gil Garcia,Crystal City,66.95,167.83,97.52,204.12,469.47,Single-ply,SBD,M
Boys,67.13,3,Rene Rodriguez,Pearsall,67.13,174.63,102.06,192.78,469.47,Single-ply,SBD,M
Boys,67.13,4,Paul Santana,Devine,64.91,183.7,102.06,174.63,460.4,Single-ply,SBD,M
Boys,67.13,5,Luis Perales,Carrizo Springs,66.27,170.1,102.06,188.24,460.4,Single-ply,SBD,M
Boys,67.13,6,Juergen Lapham,Center Point,66.72,127.01,65.77,140.61,333.39,Single-ply,SBD,M
Boys,67.13,7,Ismael Franco,Crystal City,64.86,113.4,83.91,133.81,331.12,Single-ply,SBD,M
Boys,67.13,8,Jose Fargason,Devine,61.28,120.2,72.57,133.81,326.59,Single-ply,SBD,M
Boys,67.13,9,Francisco Arenas,Crystal City,66.77,108.86,65.77,142.88,317.51,Single-ply,SBD,M
Boys,67.13,DQ,Chase Dubose,Devine,63.41,122.47,,,,Single-ply,SBD,M
Boys,74.84,1,Nate Garcia,Jourdanton,74.43,244.94,115.67,242.67,603.28,Single-ply,SBD,M
Boys,74.84,2,Matt Fanno,Jourdanton,70.76,183.7,106.59,195.04,485.34,Single-ply,SBD,M
Boys,74.84,3,Jaaziel Buenrostro,Carrizo Springs,73.53,176.9,106.59,197.31,480.81,Single-ply,SBD,M
Boys,74.84,4,John Reyes,Pearsall,69.31,138.35,97.52,222.26,458.13,Single-ply,SBD,M
Boys,74.84,5,Fabian Reyna,Jourdanton,71.71,190.51,113.4,149.69,453.59,Single-ply,SBD,M
Boys,74.84,6,Coltin Bentley,Devine,73.48,174.63,102.06,174.63,451.32,Single-ply,SBD,M
Boys,74.84,7,Martin Delgado,Pearsall,69.22,154.22,102.06,176.9,433.18,Single-ply,SBD,M
Boys,74.84,8,Rene Romero,Crystal City,74.48,170.1,92.99,163.29,426.38,Single-ply,SBD,M
Boys,74.84,9,Eduardo Medrano,Uvalde,73.48,188.24,88.45,147.42,424.11,Single-ply,SBD,M
Boys,74.84,10,Jacob Mies,Castroville Medina Valley,67.63,167.83,104.33,147.42,419.57,Single-ply,SBD,M
Boys,74.84,11,Eric Gonzalez,Carrizo Springs,73.98,117.93,68.04,163.29,349.27,Single-ply,SBD,M
Boys,74.84,12,Lorenzo Camacho,Uvalde,72.17,45.36,47.63,90.72,183.7,Single-ply,SBD,M
Boys,74.84,DQ,Daniel Montalvo,Carrizo Springs,70.58,124.74,,,,Single-ply,SBD,M
Boys,82.1,1,Steve Medrano,Dilley,81.37,231.33,136.08,213.19,580.6,Single-ply,SBD,M
Boys,82.1,2,Tristin Burwell,Devine,82.1,208.65,145.15,172.37,526.17,Single-ply,SBD,M
Boys,82.1,3,Mark Sustaita,Castroville Medina Valley,80.74,192.78,117.93,206.38,517.1,Single-ply,SBD,M
Boys,82.1,4,Zach Vyvlecka,Jourdanton,76.11,183.7,106.59,199.58,489.88,Single-ply,SBD,M
Boys,82.1,5,Albert Gomez,Uvalde,81.19,172.37,99.79,183.7,455.86,Single-ply,SBD,M
Boys,82.1,6,Louie Salazar,Carrizo Springs,75.39,163.29,99.79,179.17,442.25,Single-ply,SBD,M
Boys,82.1,7,Sergio Villarreal,Castroville Medina Valley,76.2,163.29,97.52,179.17,439.98,Single-ply,SBD,M
Boys,82.1,8,Richard Andrade,Castroville Medina Valley,78.06,99.79,74.84,165.56,340.19,Single-ply,SBD,M
Boys,99.79,1,Jared McHazlett,Burnet,89.9,238.14,129.27,240.4,607.81,Single-ply,SBD,M
Boys,89.81,2,Ed Ruiz,Jourdanton,88,265.35,124.74,204.12,594.21,Single-ply,SBD,M
Boys,89.81,3,Daniel Mann,Devine,88.5,222.26,151.95,217.72,591.94,Single-ply,SBD,M
Boys,89.81,4,Tony Rivas,Brackettville Brackett,89.81,229.06,106.59,201.85,537.51,Single-ply,SBD,M
Boys,89.81,5,Derek Garcia,Uvalde,84.87,174.63,131.54,190.51,496.68,Single-ply,SBD,M
Boys,89.81,6,Manuel Vacca,Jourdanton,88.5,204.12,117.93,165.56,487.61,Single-ply,SBD,M
Boys,89.81,7,Ethan Chapa,Center Point,89.4,172.37,106.59,167.83,446.79,Single-ply,SBD,M
Boys,89.81,8,Josh Cooper,Center Point,83.05,163.29,111.13,156.49,430.91,Single-ply,SBD,M
Boys,89.81,9,Ariel Perez,Crystal City,88.18,122.47,83.91,142.88,349.27,Single-ply,SBD,M
Boys,89.81,10,Aaron Gaitan,Jourdanton,84.37,113.4,77.11,133.81,324.32,Single-ply,SBD,M
Boys,89.81,11,Juan Oyevirdez,Carrizo Springs,86.23,111.13,52.16,140.61,303.91,Single-ply,SBD,M
Boys,89.81,DQ,Steven Musquiz,Crystal City,88.27,88.45,,,,Single-ply,SBD,M
Boys,89.81,DQ,Jonathan Alvarado,Crystal City,87.63,127.01,102.06,,,Single-ply,SBD,M
Boys,89.81,DQ,AJ Camacho,Hondo,84.41,,,,,Single-ply,SBD,M
Boys,99.79,1,Aaron Jupe,Jourdanton,93.35,249.48,133.81,206.38,589.67,Single-ply,SBD,M
Boys,99.79,2,Eli Rejino,Devine,95.8,208.65,145.15,197.31,551.11,Single-ply,SBD,M
Boys,99.79,3,Joshua Cuevas,Pearsall,94.85,165.56,104.33,217.72,487.61,Single-ply,SBD,M
Boys,99.79,4,Anthony Garcia,Uvalde,92.08,176.9,95.25,204.12,476.27,Single-ply,SBD,M
Boys,99.79,5,Emilio Alvarado,Crystal City,97.89,174.63,133.81,167.83,476.27,Single-ply,SBD,M
Boys,99.79,6,Travis McGeehee,Center Point,96.16,154.22,102.06,170.1,426.38,Single-ply,SBD,M
Boys,99.79,7,Alejandro Gonzalez,Crystal City,91.63,161.03,95.25,156.49,412.77,Single-ply,SBD,M
Boys,99.79,8,Ray Mendoza,Crystal City,99.38,147.42,83.91,156.49,387.82,Single-ply,SBD,M
Boys,99.79,9,Cruz Montez,Carrizo Springs,94.39,129.27,97.52,156.49,383.29,Single-ply,SBD,M
Boys,99.79,DQ,Antonio Ramirez,Crystal City,99.16,190.51,,,,Single-ply,SBD,M
Boys,99.79,DQ,Dylan Lutz,Hondo,98.79,142.88,,,,Single-ply,SBD,M
Boys,109.77,1,Zachary Zavala,Crystal City,107.95,222.26,113.4,172.37,508.02,Single-ply,SBD,M
Boys,109.77,2,Jason Gallegos,Carrizo Springs,109.5,156.49,81.65,158.76,396.89,Single-ply,SBD,M
Boys,109.77,DQ,Jp Ortiz,Devine,109.77,254.01,,,,Single-ply,SBD,M
Boys,109.77,DQ,Brian Hernandez,Brackettville Brackett,106.96,183.7,86.18,,,Single-ply,SBD,M
Boys,109.77,DQ,Josh Alderete,Uvalde,105.69,117.93,70.31,,,Single-ply,SBD,M
Boys,109.77,DQ,Ray Palomeque,Pearsall,107.05,217.72,142.88,,,Single-ply,SBD,M
Boys,124.74,1,Justin Brister,Jourdanton,124.74,290.3,165.56,265.35,721.21,Single-ply,SBD,M
Boys,124.74,2,Michael Garza,Crystal City,123.83,263.08,124.74,213.19,601.01,Single-ply,SBD,M
Boys,124.74,3,Nathan Pearson,Brackettville Brackett,122.06,151.95,97.52,192.78,442.25,Single-ply,SBD,M
Boys,124.74,4,Jose Morales,Crystal City,117.12,154.22,92.99,149.69,396.89,Single-ply,SBD,M
Boys,124.74,DQ,Austin Soto,Devine,117.75,,,,,Single-ply,SBD,M
Boys,124.74,DQ,Matthew Castro,Carrizo Springs,116.21,210.92,,,,Single-ply,SBD,M
Boys,124.74,DQ,Migel Garcia,Uvalde,118.89,,,,,Single-ply,SBD,M
Boys,124.74+,1,Mario Chavez,Carrizo Springs,181.44,224.53,179.17,224.53,628.23,Single-ply,SBD,M
Boys,124.74+,2,Leo Martinez,Center Point,126.6,244.94,154.22,222.26,621.42,Single-ply,SBD,M
Boys,124.74+,3,Mark Garcia,Brackettville Brackett,125.46,254.01,142.88,215.46,612.35,Single-ply,SBD,M
Boys,124.74+,4,Edward Gonzalez,Crystal City,131.72,251.74,142.88,190.51,585.13,Single-ply,SBD,M
Boys,124.74+,DQ,Rolando DeLuna,Castroville Medina Valley,125.19,226.8,106.59,,,Single-ply,SBD,M
Boys,124.74+,DQ,Mike Kessler,Castroville Medina Valley,132.45,204.12,,,,Single-ply,SBD,M
