Division,WeightClassKg,Place,Name,Team,BodyweightKg,Best3SquatKg,Best3BenchKg,Best3DeadliftKg,TotalKg,Equipment,Event,Sex
Boys,51.71,1,Levi Goudeau,Anderson-Shiro,51.71,111.13,63.5,115.67,290.3,Single-ply,SBD,M
Boys,51.71,2,Nick Turner,Mexia,48.08,86.18,61.23,95.25,242.67,Single-ply,SBD,M
Boys,51.71,3,Ryan Wisnoski,Anderson-Shiro,48.35,92.99,43.09,104.33,240.4,Single-ply,SBD,M
Boys,55.79,1,Diego Rivera,Mexia,55.52,199.58,113.4,190.51,503.49,Single-ply,SBD,M
Boys,55.79,2,ZaQuavion Golden,Hearne,55.79,156.49,77.11,163.29,396.89,Single-ply,SBD,M
Boys,55.79,3,Michael Hill,Normangee,53.43,127.01,83.91,140.61,351.53,Single-ply,SBD,M
Boys,55.79,4,Hunter Dudley,Normangee,55.25,124.74,74.84,122.47,322.05,Single-ply,SBD,M
Boys,55.79,5,Kellen Hapes,College Station,55.25,131.54,72.57,113.4,317.51,Single-ply,SBD,M
Boys,55.79,6,Brandon Renteria,Buffalo,55.34,117.93,70.31,127.01,315.25,Single-ply,SBD,M
Boys,55.79,7,Santos Moya,College Station A&M Cons,54.88,113.4,65.77,124.74,303.91,Single-ply,SBD,M
Boys,59.87,1,Cory Price,College Station A&M Cons,56.43,192.78,113.4,208.65,514.83,Single-ply,SBD,M
Boys,59.87,2,Cannon Churchman,Palestine Westwood,59.15,172.37,86.18,145.15,403.7,Single-ply,SBD,M
Boys,59.87,3,Logan Heller,Mexia,59.24,129.27,74.84,133.81,337.93,Single-ply,SBD,M
Boys,59.87,4,Bryce Roundtree,Madisonville,58.69,122.47,68.04,113.4,303.91,Single-ply,SBD,M
Boys,59.87,5,Gavin Kirkland,Burton,59.87,106.59,58.97,122.47,288.03,Single-ply,SBD,M
Boys,59.87,6,Jack Benton,College Station A&M Cons,58.33,108.86,49.9,106.59,265.35,Single-ply,SBD,M
Boys,59.87,DQ,Lukas Dekavitch,Burton,59.42,122.47,,133.81,,Single-ply,SBD,M
Boys,59.87,DQ,Jailil Wright,Mexia,59.87,,65.77,165.56,,Single-ply,SBD,M
Boys,67.13,1,Alex Flores,Anderson-Shiro,65.86,174.63,102.06,183.7,460.4,Single-ply,SBD,M
Boys,67.13,2,Harris Sherrod,Jewett Leon,61.33,183.7,77.11,181.44,442.25,Single-ply,SBD,M
Boys,67.13,3,Chase Gibson,College Station A&M Cons,63.23,154.22,90.72,151.95,396.89,Single-ply,SBD,M
Boys,67.13,4,Celestino Rubio,Bryan Rudder,60.96,149.69,70.31,170.1,390.09,Single-ply,SBD,M
Boys,67.13,5,Mekye Kao,College Station A&M Cons,62.69,149.69,90.72,147.42,387.82,Single-ply,SBD,M
Boys,67.13,6,Quan Williams,College Station A&M Cons,61.05,145.15,63.5,136.08,344.73,Single-ply,SBD,M
Boys,67.13,7,Hayden Eoff,College Station A&M Cons,61.87,129.27,81.65,133.81,344.73,Single-ply,SBD,M
Boys,67.13,8,Matthew Eason,Madisonville,64.68,120.2,92.99,131.54,344.73,Single-ply,SBD,M
Boys,67.13,9,Cooper Fedora,College Station A&M Cons,66.86,127.01,72.57,145.15,344.73,Single-ply,SBD,M
Boys,67.13,10,Nick Hrncir,Franklin,64.14,129.27,68.04,131.54,328.85,Single-ply,SBD,M
Boys,67.13,11,David Pearson,College Station A&M Cons,65.95,131.54,72.57,124.74,328.85,Single-ply,SBD,M
Boys,67.13,12,Dakota Newton,College Station A&M Cons,60.51,124.74,63.5,115.67,303.91,Single-ply,SBD,M
Boys,74.84,1,Joshua Beachum,Mexia,72.85,204.12,104.33,195.04,503.49,Single-ply,SBD,M
Boys,74.84,2,Zach Morrow,Palestine Westwood,67.59,195.04,113.4,185.97,494.42,Single-ply,SBD,M
Boys,74.84,3,Myron Phillips,Mexia,71.49,195.04,106.59,179.17,480.81,Single-ply,SBD,M
Boys,74.84,4,Jake Chandler,Burton,74.62,174.63,111.13,190.51,476.27,Single-ply,SBD,M
Boys,74.84,5,Jeremy Flake,Jewett Leon,72.85,176.9,102.06,181.44,460.4,Single-ply,SBD,M
Boys,74.84,6,Zaccarius Haynes,Anderson-Shiro,74.84,181.44,90.72,181.44,453.59,Single-ply,SBD,M
Boys,74.84,7,Charlie Reyes,Burton,68.95,163.29,92.99,195.04,451.32,Single-ply,SBD,M
Boys,74.84,8,Asa Surface,Madisonville,72.57,158.76,83.91,190.51,433.18,Single-ply,SBD,M
Boys,74.84,9,Kolbee Lee,Normangee,74.66,163.29,90.72,158.76,412.77,Single-ply,SBD,M
Boys,74.84,10,Willam Ellers,Hearne,67.86,147.42,74.84,176.9,399.16,Single-ply,SBD,M
Boys,74.84,11,Chase Dudley,Madisonville,69.04,136.08,83.91,147.42,367.41,Single-ply,SBD,M
Boys,74.84,12,Victor Cabrera,Bryan Rudder,73.84,104.33,72.57,136.08,312.98,Single-ply,SBD,M
Boys,74.84,13,Bennett Hutchins,College Station A&M Cons,71.49,115.67,61.23,122.47,299.37,Single-ply,SBD,M
Boys,74.84,DQ,Landon Stem,Anderson-Shiro,74.66,,95.25,127.01,,Single-ply,SBD,M
Boys,82.1,1,Hector Dominguez,Buffalo,81.65,254.01,124.74,226.8,605.55,Single-ply,SBD,M
Boys,82.1,2,Garrett Golla,College Station A&M Cons,76.11,161.03,95.25,181.44,437.72,Single-ply,SBD,M
Boys,82.1,3,Terrance Smith,Jewett Leon,77.93,167.83,74.84,195.04,437.72,Single-ply,SBD,M
Boys,82.1,4,Jp Hucklebridge,Palestine Westwood,76.2,165.56,88.45,181.44,435.45,Single-ply,SBD,M
Boys,82.1,5,Dj Offing,Anderson-Shiro,75.93,163.29,104.33,161.03,428.64,Single-ply,SBD,M
Boys,82.1,6,Cameron Aldridge,Jewett Leon,78.38,154.22,88.45,181.44,424.11,Single-ply,SBD,M
Boys,82.1,7,Joe Squiers,Franklin,75.57,149.69,90.72,161.03,401.43,Single-ply,SBD,M
Boys,82.1,8,Curtis Stanford,Jewett Leon,78.29,138.35,95.25,158.76,392.36,Single-ply,SBD,M
Boys,82.1,9,Ashton Ferguson,Franklin,80.56,147.42,83.91,161.03,392.36,Single-ply,SBD,M
Boys,82.1,10,Jer'Tavius Brown,Madisonville,75.48,151.95,86.18,149.69,387.82,Single-ply,SBD,M
Boys,82.1,11,Antonio Cardenas,College Station A&M Cons,75.57,145.15,86.18,154.22,385.55,Single-ply,SBD,M
Boys,82.1,12,Gerardo Flores,College Station A&M Cons,76.66,133.81,102.06,142.88,378.75,Single-ply,SBD,M
Boys,82.1,13,Asher Ward,Franklin,75.84,131.54,81.65,163.29,376.48,Single-ply,SBD,M
Boys,82.1,14,Patrick Brazzell,Madisonville,79.2,138.35,83.91,142.88,365.14,Single-ply,SBD,M
Boys,82.1,15,Isaac Suarez,Franklin,78.74,136.08,74.84,149.69,360.61,Single-ply,SBD,M
Boys,82.1,16,Nicholas Eggbrect,College Station A&M Cons,75.84,145.15,68.04,133.81,347,Single-ply,SBD,M
Boys,82.1,17,Joseph Perez,College Station A&M Cons,80.65,131.54,70.31,145.15,347,Single-ply,SBD,M
Boys,82.1,DQ,Tanner Burroughs,Jewett Leon,75.84,117.93,,129.27,,Single-ply,SBD,M
Boys,82.1,DQ,Bladen Reaves,Bryan Rudder,81.83,176.9,,,,Single-ply,SBD,M
Boys,89.81,1,Ben Wolz,College Station,89.27,247.21,122.47,240.4,610.08,Single-ply,SBD,M
Boys,89.81,2,Dre'Vaun Cooper,Mexia,89.54,244.94,124.74,206.38,576.06,Single-ply,SBD,M
Boys,89.81,3,Chad Roebuck,Anderson-Shiro,87.82,219.99,138.35,188.24,546.58,Single-ply,SBD,M
Boys,89.81,4,Will Harris,College Station A&M Cons,88,201.85,104.33,206.38,512.56,Single-ply,SBD,M
Boys,89.81,5,Micheil Harrell,Madisonville,89.27,188.24,106.59,197.31,492.15,Single-ply,SBD,M
Boys,89.81,6,Walter Beltran,Jewett Leon,82.83,185.97,102.06,199.58,487.61,Single-ply,SBD,M
Boys,89.81,7,LaJuan Davis,Palestine Westwood,86.55,170.1,102.06,199.58,471.74,Single-ply,SBD,M
Boys,89.81,8,Kolbe Cashion,College Station,84.37,172.37,97.52,181.44,451.32,Single-ply,SBD,M
Boys,89.81,9,Benjamin Zapalac,Burton,89.54,183.7,83.91,158.76,426.38,Single-ply,SBD,M
Boys,89.81,10,Victor Huerta,New Waverly,89.81,154.22,74.84,158.76,387.82,Single-ply,SBD,M
Boys,89.81,11,Joseph Vega,Franklin,82.74,149.69,81.65,149.69,381.02,Single-ply,SBD,M
Boys,89.81,12,Cade Colwell,Madisonville,84.1,149.69,70.31,158.76,378.75,Single-ply,SBD,M
Boys,89.81,13,Keegan Wilson,Franklin,85.37,149.69,77.11,138.35,365.14,Single-ply,SBD,M
Boys,99.79,1,Corbin Rodriguez,Madisonville,93.44,254.01,145.15,244.94,644.1,Single-ply,SBD,M
Boys,99.79,2,Mason Cochran,College Station,94.8,215.46,113.4,208.65,537.51,Single-ply,SBD,M
Boys,99.79,3,Cameron Riggins,Burton,94.35,201.85,106.59,192.78,501.22,Single-ply,SBD,M
Boys,99.79,4,Caleb Garner,College Station A&M Cons,97.07,190.51,120.2,185.97,496.68,Single-ply,SBD,M
Boys,99.79,5,Colten McClosky,Mexia,95.89,179.17,129.27,161.03,469.47,Single-ply,SBD,M
Boys,99.79,6,Luke Miles,College Station,91.53,172.37,104.33,183.7,460.4,Single-ply,SBD,M
Boys,99.79,7,Tim Swonke,Madisonville,94.89,174.63,97.52,167.83,439.98,Single-ply,SBD,M
Boys,99.79,DQ,Desmond Murphy,Bryan Rudder,99.79,215.46,,,,Single-ply,SBD,M
Boys,109.77,1,Devarian Guyton,College Station A&M Cons,101.79,263.08,147.42,283.5,694,Single-ply,SBD,M
Boys,109.77,2,Truce Tumlinson,College Station,103.78,254.01,129.27,240.4,623.69,Single-ply,SBD,M
Boys,109.77,3,Jordan Rios,Mexia,107.23,242.67,142.88,210.92,596.47,Single-ply,SBD,M
Boys,109.77,4,Vince Sheffield,College Station A&M Cons,107.59,235.87,129.27,188.24,553.38,Single-ply,SBD,M
Boys,109.77,5,Caleb Hill,Bryan Rudder,108.41,195.04,124.74,195.04,514.83,Single-ply,SBD,M
Boys,109.77,6,Lance Hamm,Hearne,103.69,181.44,111.13,172.37,464.93,Single-ply,SBD,M
Boys,109.77,7,Jalen Thierry,Bryan Rudder,106.14,195.04,97.52,154.22,446.79,Single-ply,SBD,M
Boys,109.77,8,Zane Moriarty,Anderson-Shiro,102.24,158.76,86.18,165.56,410.5,Single-ply,SBD,M
Boys,109.77,9,Kyle Greer,College Station A&M Cons,106.59,163.29,95.25,147.42,405.97,Single-ply,SBD,M
Boys,109.77,10,Cody Tilson,Franklin,107.59,158.76,79.38,158.76,396.89,Single-ply,SBD,M
Boys,109.77,11,Neal Wilson,College Station A&M Cons,100.52,90.72,58.97,102.06,251.74,Single-ply,SBD,M
Boys,109.77,DQ,Asa Henson,Buffalo,106.32,163.29,,,,Single-ply,SBD,M
Boys,109.77,DQ,Issac Almaraz,College Station,103.42,,,,,Single-ply,SBD,M
Boys,124.74,1,Clifford Chambers,Bryan Rudder,122.92,324.32,163.29,226.8,714.41,Single-ply,SBD,M
Boys,124.74,2,Crispin Salinas,Chilton,113.58,226.8,142.88,238.14,607.81,Single-ply,SBD,M
Boys,124.74,3,Dylan Woods,Hearne,116.39,256.28,120.2,199.58,576.06,Single-ply,SBD,M
Boys,124.74,4,Keevon Jackson,Palestine Westwood,116.85,247.21,113.4,192.78,553.38,Single-ply,SBD,M
Boys,124.74,5,Colton Jordan,Madisonville,112.58,208.65,111.13,199.58,519.36,Single-ply,SBD,M
Boys,124.74,6,Q'Narius Butcher,Madisonville,121.93,188.24,92.99,185.97,467.2,Single-ply,SBD,M
Boys,124.74,7,Dontavious Robinson,Palestine Westwood,124.19,190.51,111.13,163.29,464.93,Single-ply,SBD,M
Boys,124.74,8,Ethan Patterson,Buffalo,124.47,142.88,136.08,167.83,446.79,Single-ply,SBD,M
Boys,124.74,9,Bryan DeLeon,Madisonville,116.85,142.88,104.33,158.76,405.97,Single-ply,SBD,M
Boys,124.74,10,Donaciano Duran,College Station A&M Cons,117.39,138.35,88.45,136.08,362.87,Single-ply,SBD,M
Boys,124.74+,1,Andrew Seaback,Anderson-Shiro,144.42,260.82,138.35,238.14,637.3,Single-ply,SBD,M
Boys,124.74+,2,Jakobe Nutall,Bryan Rudder,139.62,226.8,145.15,226.8,598.74,Single-ply,SBD,M
Boys,124.74+,3,Joey McIver,Madisonville,144.06,238.14,147.42,208.65,594.21,Single-ply,SBD,M
Boys,124.74+,4,Jakari Hackett,Mexia,127.91,192.78,149.69,192.78,535.24,Single-ply,SBD,M
Boys,124.74+,5,Chris Vasquez,Chilton,127.64,204.12,90.72,181.44,476.27,Single-ply,SBD,M
