Division,WeightClassKg,Place,Name,Team,BodyweightKg,Best3SquatKg,Best3BenchKg,Best3DeadliftKg,TotalKg,Equipment,Event,Sex
Girls,44.23,1,Taylor Kilgo,Vidor,43.05,79.38,38.56,102.06,219.99,Single-ply,SBD,F
Girls,44.23,2,Hope Brekel,Nederland,43.68,92.99,31.75,95.25,219.99,Single-ply,SBD,F
Girls,44.23,3,Venu Phan,Dickinson,42.77,65.77,29.48,65.77,161.03,Single-ply,SBD,F
Girls,44.23,4,Caitlyn Blackwell,Nederland,43.68,58.97,22.68,72.57,154.22,Single-ply,SBD,F
Girls,44.23,5,Liz Richardson,Nederland,44.13,58.97,24.95,70.31,154.22,Single-ply,SBD,F
Girls,44.23,6,Tracejah Hypolite,Port Arthur Memorial,42.91,52.16,22.68,74.84,149.69,Single-ply,SBD,F
Girls,44.23,DQ,Hannah Alexander,Lumberton,42.14,86.18,47.63,,,Single-ply,SBD,F
Girls,47.85,1,Hailey Alexander,Lumberton,46.67,92.99,52.16,106.59,251.74,Single-ply,SBD,F
Girls,47.85,2,Eugenie Raymond,Katy Mayde Creek,45.5,90.72,36.29,117.93,244.94,Single-ply,SBD,F
Girls,47.85,3,Hayley Kinard,Vidor,46.67,113.4,38.56,92.99,244.94,Single-ply,SBD,F
Girls,47.85,4,Analicia Perez,Alvin,46.99,90.72,40.82,90.72,222.26,Single-ply,SBD,F
Girls,47.85,5,Hallie Cappell,Nederland,45.5,77.11,31.75,95.25,204.12,Single-ply,SBD,F
Girls,47.85,6,Mykayla Sheffield,Nederland,47.72,77.11,34.02,92.99,204.12,Single-ply,SBD,F
Girls,47.85,7,Paloma Garcia,Alvin,47.04,74.84,34.02,83.91,192.78,Single-ply,SBD,F
Girls,47.85,8,Izamar Rico,Santa Fe,46.67,65.77,29.48,83.91,179.17,Single-ply,SBD,F
Girls,47.85,9,Cassie Fontenot,Nederland,46.54,63.5,22.68,81.65,167.83,Single-ply,SBD,F
Girls,51.94,1,Dani Willis,Port Arthur Memorial,50.85,111.13,54.43,138.35,303.91,Single-ply,SBD,F
Girls,51.94,2,Karli Brewer,Nederland,51.94,111.13,52.16,117.93,281.23,Single-ply,SBD,F
Girls,51.94,3,Joslynn Hall,Beaumont West Brook,51.39,104.33,54.43,104.33,263.08,Single-ply,SBD,F
Girls,51.94,4,Miranda Housman,New Caney Porter,51.3,95.25,47.63,108.86,251.74,Single-ply,SBD,F
Girls,51.94,5,Catarina Tran,Nederland,51.39,97.52,43.09,108.86,249.48,Single-ply,SBD,F
Girls,51.94,6,Alanna Huynh,Beaumont West Brook,48.99,81.65,36.29,97.52,215.46,Single-ply,SBD,F
Girls,51.94,DQ,Adile Leal,Clute Brazoswood,48.31,99.79,,,,Single-ply,SBD,F
Girls,51.94,DQ,Sarah Buffington,Santa Fe,51.39,,,,,Single-ply,SBD,F
Girls,51.94,DQ,Cassie Whitmire,Santa Fe,50.58,,,,,Single-ply,SBD,F
Girls,51.94,DQ,Kennadie Cochran,Montgomery,50.3,86.18,38.56,,,Single-ply,SBD,F
Girls,56.02,1,Magdalena Zavala,Alvin,54.2,127.01,45.36,142.88,315.25,Single-ply,SBD,F
Girls,56.02,2,Morgan McMahon,Katy Mayde Creek,54.48,131.54,49.9,127.01,308.44,Single-ply,SBD,F
Girls,56.02,3,Jenna Hoffman,Vidor,55.25,120.2,56.7,131.54,308.44,Single-ply,SBD,F
Girls,56.02,4,Chalonna Harris,Port Arthur Memorial,53.61,108.86,38.56,129.27,276.69,Single-ply,SBD,F
Girls,56.02,5,Tierra Mouton,Port Arthur Memorial,54.75,99.79,49.9,122.47,272.16,Single-ply,SBD,F
Girls,56.02,6,Ashley Rushing,Vidor,55.34,111.13,45.36,108.86,265.35,Single-ply,SBD,F
Girls,56.02,DQ,Kaelen Wycoff,Port Arthur Memorial,54.48,90.72,38.56,,,Single-ply,SBD,F
Girls,56.02,DQ,Megan Wilkinson,Lumberton,55.66,97.52,,,,Single-ply,SBD,F
Girls,56.02,DQ,Lafronia Batiste,Conroe Oak Ridge,54.34,113.4,,,,Single-ply,SBD,F
Girls,56.02,DQ,Makiya Thigpen,Beaumont West Brook,55.25,108.86,,,,Single-ply,SBD,F
Girls,60.1,1,Summer Harris,Dickinson,58.6,158.76,63.5,120.2,342.46,Single-ply,SBD,F
Girls,60.1,2,Bre Haesche,Conroe Caney Creek,59.1,129.27,58.97,147.42,335.66,Single-ply,SBD,F
Girls,60.1,3,Keioveon Sullivan,Beaumont West Brook,59.92,124.74,52.16,140.61,317.51,Single-ply,SBD,F
Girls,60.1,4,Jennifer Sanchez,Alvin,59.38,127.01,72.57,113.4,312.98,Single-ply,SBD,F
Girls,60.1,5,Rhianna Carabajal,Beaumont West Brook,58.65,127.01,49.9,120.2,297.1,Single-ply,SBD,F
Girls,60.1,6,Shelbie Swinhoe,New Caney Porter,59.69,111.13,47.63,124.74,283.5,Single-ply,SBD,F
Girls,60.1,7,Jillian Lamm,Alvin,58.01,99.79,52.16,127.01,278.96,Single-ply,SBD,F
Girls,60.1,8,Kitana Simpson,Beaumont West Brook,58.92,111.13,54.43,113.4,278.96,Single-ply,SBD,F
Girls,60.1,9,Sarah Shackelford,Conroe Woodlands College Park,59.47,104.33,49.9,120.2,274.42,Single-ply,SBD,F
Girls,60.1,10,Hope Pridgen,Vidor,58.24,117.93,43.09,111.13,272.16,Single-ply,SBD,F
Girls,67.36,1,Ashley Alvarez,Friendswood Clear Brook,65.36,165.56,95.25,145.15,405.97,Single-ply,SBD,F
Girls,67.36,2,Chasity Carter,Houston Westbury,66.54,131.54,79.38,145.15,356.07,Single-ply,SBD,F
Girls,67.36,3,Kassie Riley,Beaumont West Brook,65.68,140.61,68.04,145.15,353.8,Single-ply,SBD,F
Girls,67.36,4,Peyton Dumas,Beaumont West Brook,64.14,122.47,56.7,154.22,333.39,Single-ply,SBD,F
Girls,67.36,5,Ariana Horne,Pearland,65.23,131.54,61.23,131.54,324.32,Single-ply,SBD,F
Girls,67.36,6,Jazmin Lowrey,Alvin,65.14,136.08,68.04,117.93,322.05,Single-ply,SBD,F
Girls,67.36,7,Samantha Raines,Clute Brazoswood,63.14,122.47,63.5,124.74,310.71,Single-ply,SBD,F
Girls,67.36,8,Kyrsten Breaux,Alvin,65.59,127.01,54.43,122.47,303.91,Single-ply,SBD,F
Girls,67.36,9,Asia Brown,Port Arthur Memorial,62.14,122.47,45.36,133.81,301.64,Single-ply,SBD,F
Girls,67.36,10,Diamond Paul,Nederland,65.82,113.4,54.43,127.01,294.84,Single-ply,SBD,F
Girls,67.36,DQ,Skylar Thames,Willis,67.04,,,,,Single-ply,SBD,F
Girls,75.07,1,Jennifer Ramirez,Conroe Oak Ridge,71.58,151.95,90.72,165.56,408.23,Single-ply,SBD,F
Girls,75.07,2,Jessica Echegoyen,Manvel,70.94,163.29,70.31,161.03,394.63,Single-ply,SBD,F
Girls,75.07,3,Amy Frias,La Porte,71.62,158.76,56.7,147.42,362.87,Single-ply,SBD,F
Girls,75.07,4,Makaylah Laza,Santa Fe,73.35,147.42,68.04,120.2,335.66,Single-ply,SBD,F
Girls,75.07,5,Morgan Boody,Santa Fe,71.67,142.88,61.23,127.01,331.12,Single-ply,SBD,F
Girls,75.07,6,Madelynn Mahoney,Manvel,73.07,138.35,58.97,122.47,319.78,Single-ply,SBD,F
Girls,75.07,7,Ashley Gonzales,Lumberton,73.98,142.88,61.23,115.67,319.78,Single-ply,SBD,F
Girls,75.07,8,Tierra Turner,Beaumont West Brook,72.26,120.2,47.63,145.15,312.98,Single-ply,SBD,F
Girls,75.07,9,Hannah Marlow,Vidor,73.66,124.74,58.97,129.27,312.98,Single-ply,SBD,F
Girls,75.07,10,Gissel Perez,Channelview,73.53,129.27,45.36,129.27,303.91,Single-ply,SBD,F
Girls,82.33,1,Kimberlynn Patzold,New Caney Porter,80.47,163.29,102.06,172.37,437.72,Single-ply,SBD,F
Girls,82.33,2,De'Jeanna Payne,Channelview,76.75,156.49,72.57,179.17,408.23,Single-ply,SBD,F
Girls,82.33,3,CaSundra Roberts,Port Arthur Memorial,78.47,149.69,58.97,174.63,383.29,Single-ply,SBD,F
Girls,82.33,4,Jennifer Sierra,Channelview,76.2,158.76,58.97,140.61,358.34,Single-ply,SBD,F
Girls,82.33,5,Ashley Westbrooks,Beaumont West Brook,81.42,122.47,63.5,142.88,328.85,Single-ply,SBD,F
Girls,82.33,6,Ayannah Dailey,Port Arthur Memorial,79.56,117.93,49.9,136.08,303.91,Single-ply,SBD,F
Girls,82.33,DQ,Karenna Castro,Santa Fe,78.24,,,,,Single-ply,SBD,F
Girls,82.33,DQ,Jasmine Perry,Waller,79.79,,,,,Single-ply,SBD,F
Girls,82.33,DQ,Jayln Mansfield,Beaumont West Brook,80.24,124.74,,,,Single-ply,SBD,F
Girls,82.33,DQ,Deanna Edwards,New Caney,77.7,,,,,Single-ply,SBD,F
Girls,90.04,1,Marisa Crider,Conroe Caney Creek,82.87,149.69,63.5,163.29,376.48,Single-ply,SBD,F
Girls,90.04,2,Victoria Jenkins,Beaumont West Brook,84.14,156.49,61.23,154.22,371.95,Single-ply,SBD,F
Girls,90.04,3,Francisca Damian,Clute Brazoswood,86.18,147.42,72.57,127.01,347,Single-ply,SBD,F
Girls,90.04,4,Michelle Landry,Beaumont Ozen,84.37,131.54,70.31,124.74,326.59,Single-ply,SBD,F
Girls,90.04,5,Jalynn Flanagan,Beaumont West Brook,89.9,113.4,56.7,142.88,312.98,Single-ply,SBD,F
Girls,90.04,DQ,Doneasha Brown,Beaumont Ozen,84.41,122.47,,,,Single-ply,SBD,F
Girls,90.04,DQ,Sierra Gordon,Conroe,87.09,,,,,Single-ply,SBD,F
Girls,90.04,DQ,Lauren Taylor,Conroe Oak Ridge,88.04,,,,,Single-ply,SBD,F
Girls,90.04,DQ,Jasmine Factor,Pearland,82.42,131.54,,,,Single-ply,SBD,F
Girls,90.04,DQ,Raquel Reyes,Tomball,84.55,,,,,Single-ply,SBD,F
Girls,100.02,1,LaDazeja Charles,Channelview,95.3,167.83,77.11,181.44,426.38,Single-ply,SBD,F
Girls,100.02,2,Tiarra Moore,Conroe,97.11,165.56,68.04,142.88,376.48,Single-ply,SBD,F
Girls,100.02,3,Jasmine Gowdie,Beaumont West Brook,90.17,161.03,58.97,147.42,367.41,Single-ply,SBD,F
Girls,100.02,4,Jerrika McDonald,Clute Brazoswood,98.07,136.08,68.04,142.88,347,Single-ply,SBD,F
Girls,100.02,5,Hannah Havard,Willis,95.66,151.95,54.43,138.35,344.73,Single-ply,SBD,F
Girls,100.02,6,Rikiaya McClain,Beaumont Central,94.53,145.15,61.23,136.08,342.46,Single-ply,SBD,F
Girls,100.02,7,Tory Rogers,Conroe Caney Creek,93.08,154.22,74.84,106.59,335.66,Single-ply,SBD,F
Girls,100.02,8,Megan Landin,Waller,100.02,140.61,61.23,127.01,328.85,Single-ply,SBD,F
Girls,100.02,DQ,Zoe Christopherson,Vidor,90.63,,,,,Single-ply,SBD,F
Girls,100.02,DQ,Kyra Rost,Santa Fe,94.12,158.76,,,,Single-ply,SBD,F
Girls,100.02+,1,Daizya Adams,Beaumont West Brook,164.2,204.12,108.86,188.24,501.22,Single-ply,SBD,F
Girls,100.02+,2,Kaley Golnisch,Conroe Caney Creek,121.74,192.78,95.25,131.54,419.57,Single-ply,SBD,F
Girls,100.02+,3,Bayleigh Smith,Lumberton,112.81,172.37,77.11,165.56,415.04,Single-ply,SBD,F
Girls,100.02+,4,Krystal Gonzalez,Manvel,108.54,181.44,63.5,149.69,394.63,Single-ply,SBD,F
Girls,100.02+,5,Brianna Hermann,Alvin,130,149.69,86.18,138.35,374.21,Single-ply,SBD,F
Girls,100.02+,6,Alyssa Millan,Clute Brazoswood,101.92,158.76,77.11,136.08,371.95,Single-ply,SBD,F
Girls,100.02+,7,Brooke Beckham,Clute Brazoswood,101.51,149.69,63.5,120.2,333.39,Single-ply,SBD,F
Girls,100.02+,DQ,Joyce O'Neal,Conroe,104.87,,,,,Single-ply,SBD,F
Girls,100.02+,DQ,Charly Job,Waller,105.55,,,,,Single-ply,SBD,F
Girls,100.02+,DQ,Melanie McVay,Willis,124.1,174.63,,,,Single-ply,SBD,F
