Place,Sex,Name,CyrillicName,BodyweightKg,Squat1Kg,Squat2Kg,Squat3Kg,Best3SquatKg,Squat4Kg,Bench1Kg,Bench2Kg,Bench3Kg,Best3BenchKg,Bench4Kg,Deadlift1Kg,Deadlift2Kg,Deadlift3Kg,Best3DeadliftKg,Deadlift4Kg,TotalKg,WeightClassKg,Event,Equipment,Tested,Division,Age,BirthDate
1,F,Natalya Naumchik,Наталья Наумчик,53.3,65,75,80,80,,35,-42.5,-42.5,35,,65,72.5,77.5,77.5,82.5,192.5,56,SBD,Wraps,No,Amateur Open,21,1997-05-28
1,F,Svetlana Rudolf,Светлана Рудольф,63,80,85,95,95,-100,40,47.5,52.5,52.5,-57.5,70,80,90,90,97.5,237.5,67.5,SBD,Wraps,No,Amateur Open,30,1987-09-30
1,M,Aleksey Morev,Алексей Морев,74.5,145,160,-165,160,,105,112.5,115,115,,190,210,220,220,,495,75,SBD,Wraps,No,Amateur Open,36,1982-04-15
1,M,Ilya Goloshumov,Илья Голошумов,81.8,150,160,-180,160,,100,105,-110,105,,170,185,-190,185,,450,82.5,SBD,Wraps,No,Amateur Open,24,1993-11-18
DQ,M,Ilya Ermakov,Илья Ермаков,98.9,-140,-140,-140,,,,,,,,,,,,,,100,SBD,Wraps,No,Amateur Juniors,17,2000-11-17
1,M,Oleg Gorev,Олег Горев,123.4,300,315,-330,315,,205,215,-220,215,,320,-330,-330,320,,850,125,SBD,Wraps,No,Amateur Open,30,1988-03-31
2,M,Oleg Ploskikh,Олег Плоских,114.3,240,255,-270,255,,170,180,185,185,,240,260,-280,260,,700,125,SBD,Wraps,No,Amateur Open,26,1992-04-26
1,F,Mariya Kondratovich,Мария Кондратович,55.7,,,,,,57.5,65,67.5,67.5,70,,,,,,67.5,56,B,Raw,No,Amateur Open,21,1996-11-14
1,M,Yuriy Litvinenko,Юрий Литвиненко,58.1,,,,,,80,-90,90,90,-97.5,,,,,,90,60,B,Raw,No,Amateur Open,34,1984-01-29
2,M,Valeriy Chalkov,Валерий Чалков,60,,,,,,80,90,-92.5,90,,,,,,,90,60,B,Raw,No,Amateur Open,20,1998-04-13
1,M,Nikita Kislyak,Никита Кисляк,66.2,,,,,,105,-112.5,112.5,112.5,,,,,,,112.5,67.5,B,Raw,No,Amateur Juniors,17,2000-10-23
1,M,Mikhail Ivanov,Михаил Иванов,73.1,,,,,,90,-100,100,100,,,,,,,100,75,B,Raw,No,Amateur Open,22,1996-06-08
1,M,Dmitriy Shchetnikov,Дмитрий Щетников,73.7,,,,,,-85,85,-90,85,,,,,,,85,75,B,Raw,No,Amateur Juniors,19,1999-05-01
2,M,Daniil Kornev,Даниил Корнев,73.1,,,,,,80,-110,-110,80,,,,,,,80,75,B,Raw,No,Amateur Juniors,16,2001-07-24
1,M,Vasiliy Solovev,Василий Соловьев,77.6,,,,,,130,140,150,150,,,,,,,150,82.5,B,Raw,No,Amateur Open,19,1999-04-18
2,M,Sergey Shiryaev,Сергей Ширяев,80.9,,,,,,105,115,120,120,,,,,,,120,82.5,B,Raw,No,Amateur Open,21,1996-08-19
1,M,Aleksandr Petrov,Александр Петров,89.1,,,,,,-140,140,145,145,,,,,,,145,90,B,Raw,No,Amateur Open,37,1981-06-28
1,M,Sergey Tarasov,Сергей Тарасов,95.5,,,,,,165,175,180,180,-185,,,,,,180,100,B,Raw,No,Amateur Open,41,1976-10-02
2,M,Konstantin Chumilovich,Константин Чумилович,97.9,,,,,,170,175,-180,175,,,,,,,175,100,B,Raw,No,Amateur Open,30,1987-09-20
3,M,Igor Senognoev,Игорь Сеногноев,92.3,,,,,,-135,135,-140,135,,,,,,,135,100,B,Raw,No,Amateur Open,32,1986-04-10
DQ,M,Evgeniy Dronyaev,Евгений Дроняев,95.5,,,,,,-145,-145,-145,,,,,,,,,100,B,Raw,No,Amateur Open,41,1976-08-28
1,M,Gor Mkrtchyan,Гор Мкртчян,127.5,,,,,,145,155,165,165,-180,,,,,,165,140,B,Raw,No,Amateur Open,34,1984-06-26
1,F,Viktoriya Sharapova,Виктория Шарапова,55.6,,,,,,,,,,,65,75,80,80,87.5,80,56,D,Raw,No,Amateur Open,19,1998-09-13
1,F,Svetlana Rudolf,Светлана Рудольф,63,,,,,,,,,,,70,80,90,90,97.5,90,67.5,D,Raw,No,Amateur Open,30,1987-09-30
2,F,Alina Suvorova,Алина Суворова,63.3,,,,,,,,,,,-70,70,-80,70,,70,67.5,D,Raw,No,Amateur Open,21,1997-05-16
1,M,Aleksandr Kalinin,Александр Калинин,67.5,,,,,,,,,,,190,205,-210,205,,205,67.5,D,Raw,No,Amateur Open,20,1997-07-16
1,M,Aleksey Morev,Алексей Морев,74.5,,,,,,,,,,,190,210,220,220,,220,75,D,Raw,No,Amateur Open,36,1982-04-15
2,M,Grigoriy Popov,Григорий Попов,71.2,,,,,,,,,,,212.5,217.5,-220,217.5,,217.5,75,D,Raw,No,Amateur Open,37,1980-09-19
1,M,Sergey Shiryaev,Сергей Ширяев,80.9,,,,,,,,,,,-175,175,185,185,,185,82.5,D,Raw,No,Amateur Open,21,1996-08-19
2,M,Evgeniy Shchetnikov,Евгений Щетников,81.2,,,,,,,,,,,140,150,-160,150,,150,82.5,D,Raw,No,Amateur Open,22,1996-06-12
1,M,Ilya Ermakov,Илья Ермаков,98.9,,,,,,,,,,,165,170,177.5,177.5,,177.5,100,D,Raw,No,Amateur Juniors,17,2000-11-17
1,M,Ivan Kirilenko,Иван Кириленко,112.3,,,,,,,,,,,170,185,-190,185,,185,125,D,Raw,No,Amateur Juniors,18,1999-12-22
1,M,Gor Mkrtchyan,Гор Мкртчян,127.5,,,,,,,,,,,200,220,240,240,-250,240,140,D,Raw,No,Amateur Open,34,1984-06-26
