Division,WeightClassKg,Place,Name,Team,BodyweightKg,Best3SquatKg,Best3BenchKg,Best3DeadliftKg,TotalKg,Equipment,Event,Sex
Boys,55.79,1,Kain Gala,Hallsville,54.88,149.69,102.06,163.29,415.04,Single-ply,SBD,M
Boys,55.79,2,Jayden Prince,Waskom,55.79,117.93,79.38,149.69,347,Single-ply,SBD,M
Boys,55.79,3,Jalynn Washington,Waskom,55.34,115.67,74.84,138.35,328.85,Single-ply,SBD,M
Boys,55.79,4,Shemar Garrett,Carthage,54.43,117.93,74.84,131.54,324.32,Single-ply,SBD,M
Boys,59.87,1,Simon Shuler,Hallsville,59.42,165.56,111.13,172.37,449.06,Single-ply,SBD,M
Boys,59.87,2,Roshabrius Garrett,Carthage,59.42,147.42,102.06,163.29,412.77,Single-ply,SBD,M
Boys,59.87,3,Kaleb Kerns,White Oak,59.87,113.4,74.84,138.35,326.59,Single-ply,SBD,M
Boys,59.87,4,Dane Redman,White Oak,59.87,111.13,77.11,117.93,306.17,Single-ply,SBD,M
Boys,67.13,1,Dezmond Armstrong,Longview,63.96,163.29,97.52,158.76,419.57,Single-ply,SBD,M
Boys,67.13,2,Christian Holmes,Gladewater,66.68,149.69,74.84,167.83,392.36,Single-ply,SBD,M
Boys,67.13,3,Chase Phagan,Waskom,66.22,147.42,79.38,156.49,383.29,Single-ply,SBD,M
Boys,67.13,4,Kyas Moore,Longview,65.32,136.08,79.38,156.49,371.95,Single-ply,SBD,M
Boys,67.13,5,Camon Phillips,Waskom,64.41,129.27,56.7,145.15,331.12,Single-ply,SBD,M
Boys,67.13,6,Logan Smith,White Oak,67.13,106.59,70.31,117.93,294.84,Single-ply,SBD,M
Boys,67.13,DQ,Quavian Sheffield,Gladewater,65.32,,,,,Single-ply,SBD,M
Boys,67.13,DQ,Zach Cobb,White Oak,67.13,,,,,Single-ply,SBD,M
Boys,74.84,1,Dominique Felder,Hallsville,74.84,192.78,117.93,210.92,521.63,Single-ply,SBD,M
Boys,74.84,2,Dillan Shankles,Hallsville,73.94,172.37,104.33,176.9,453.59,Single-ply,SBD,M
Boys,74.84,3,Kace Adkinson,Gladewater,73.03,136.08,83.91,158.76,378.75,Single-ply,SBD,M
Boys,74.84,DQ,Tim Pugliese,Gladewater,68.95,,102.06,181.44,,Single-ply,SBD,M
Boys,82.1,1,Josh Cole,Waskom,81.65,210.92,111.13,219.99,542.04,Single-ply,SBD,M
Boys,82.1,2,Jalen Brooks,Carthage,78.02,188.24,97.52,208.65,494.42,Single-ply,SBD,M
Boys,82.1,3,Lakeithian Duffey,Longview,76.66,170.1,111.13,192.78,474,Single-ply,SBD,M
Boys,82.1,4,Kaden Meridith,Longview,77.11,183.7,104.33,185.97,474,Single-ply,SBD,M
Boys,82.1,5,AJ Harris,Gladewater,81.65,161.03,92.99,183.7,437.72,Single-ply,SBD,M
Boys,82.1,6,Juvarrs Lampkin,Longview,79.38,156.49,88.45,183.7,428.64,Single-ply,SBD,M
Boys,82.1,7,Juan Castro,Waskom,80.74,136.08,68.04,120.2,324.32,Single-ply,SBD,M
Boys,82.1,8,Dalton Bennett,Waskom,81.19,115.67,72.57,136.08,324.32,Single-ply,SBD,M
Boys,82.1,9,Chase Tucker,White Oak,82.1,122.47,70.31,129.27,322.05,Single-ply,SBD,M
Boys,89.81,1,Rashaud Johnson,Gladewater,89.36,215.46,129.27,226.8,571.53,Single-ply,SBD,M
Boys,89.81,2,Patrick Martinez,White Oak,88,219.99,106.59,222.26,548.85,Single-ply,SBD,M
Boys,89.81,3,Jadarrion Blakemore,Longview,86.64,192.78,108.86,226.8,528.44,Single-ply,SBD,M
Boys,89.81,4,Ja'Vontae Writt,Longview,84.37,204.12,86.18,226.8,517.1,Single-ply,SBD,M
Boys,89.81,5,Luis Acosta,Hallsville,87.09,188.24,108.86,210.92,508.02,Single-ply,SBD,M
Boys,89.81,6,Jakobe Ross,Longview,84.82,165.56,92.99,192.78,451.32,Single-ply,SBD,M
Boys,89.81,7,Quinton Brown,Carthage,87.54,149.69,83.91,170.1,403.7,Single-ply,SBD,M
Boys,89.81,DQ,Aaron Thomas,Waskom,88.45,,,,,Single-ply,SBD,M
Boys,99.79,1,Jaydyn James-Rollins,Longview,92.99,192.78,106.59,226.8,526.17,Single-ply,SBD,M
Boys,99.79,2,Garrett Hulen,Hallsville,95.25,158.76,120.2,185.97,464.93,Single-ply,SBD,M
Boys,99.79,3,Jacob Rodriguez,Gladewater,92.08,158.76,111.13,192.78,462.66,Single-ply,SBD,M
Boys,99.79,4,Jaylon Allen,Longview,96.62,183.7,90.72,188.24,462.66,Single-ply,SBD,M
Boys,99.79,5,Jt Romero,Carthage,93.89,170.1,81.65,176.9,428.64,Single-ply,SBD,M
Boys,99.79,6,Luke Ummel,White Oak,95.25,136.08,77.11,129.27,342.46,Single-ply,SBD,M
Boys,109.77,1,Logan Salles,White Oak,108.86,233.6,161.03,258.55,653.17,Single-ply,SBD,M
Boys,109.77,2,Dylan Russell,Hallsville,106.59,188.24,120.2,199.58,508.02,Single-ply,SBD,M
Boys,109.77,3,Sawyer Goram-Welch,Longview,109.77,181.44,92.99,204.12,478.54,Single-ply,SBD,M
Boys,109.77,4,Keston Wilson,Gladewater,100.24,174.63,106.59,188.24,469.47,Single-ply,SBD,M
Boys,109.77,5,Zack Tyeskie,Gladewater,109.32,181.44,102.06,176.9,460.4,Single-ply,SBD,M
Boys,109.77,6,Parker Cox,Longview,103.87,183.7,102.06,172.37,458.13,Single-ply,SBD,M
Boys,109.77,7,Charles Brickett,Waskom,101.6,154.22,99.79,165.56,419.57,Single-ply,SBD,M
Boys,109.77,8,Tookie Jimmerson,Waskom,106.14,147.42,83.91,147.42,378.75,Single-ply,SBD,M
Boys,124.74,1,Cecil Johnson,Hallsville,115.67,265.35,133.81,260.82,659.98,Single-ply,SBD,M
Boys,124.74,2,Antonio Ortiz,Hallsville,117.93,226.8,142.88,192.78,562.45,Single-ply,SBD,M
Boys,124.74,3,Jarred Reese,Longview,111.58,204.12,117.93,188.24,510.29,Single-ply,SBD,M
Boys,124.74,4,David Bohannon,Gladewater,111.13,181.44,111.13,192.78,485.34,Single-ply,SBD,M
Boys,124.74,5,Hunter Gauger,Carthage,120.2,170.1,106.59,204.12,480.81,Single-ply,SBD,M
Boys,124.74,6,Kaleb Bass,Waskom,123.38,154.22,90.72,185.97,430.91,Single-ply,SBD,M
Boys,124.74,7,Kevion Booty,Carthage,121.11,167.83,83.91,176.9,428.64,Single-ply,SBD,M
Boys,124.74,8,Reagan Bailey,Hallsville,120.66,151.95,104.33,165.56,421.84,Single-ply,SBD,M
Boys,124.74,DQ,Cade Johnson,Hallsville,112.04,,,,,Single-ply,SBD,M
Boys,124.74+,1,Blake Trainor,Hallsville,130.63,210.92,113.4,258.55,582.87,Single-ply,SBD,M
Boys,124.74+,2,Andrew Williams,Gladewater,131.54,219.99,142.88,210.92,573.79,Single-ply,SBD,M
Boys,124.74+,3,Gavin Roberts,Longview,137.44,204.12,136.08,226.8,566.99,Single-ply,SBD,M
Boys,124.74+,4,Hunter Hudson,Carthage,130.18,181.44,122.47,199.58,503.49,Single-ply,SBD,M
Boys,124.74+,5,Brandon Collier,Carthage,129.27,188.24,92.99,204.12,485.34,Single-ply,SBD,M
Boys,124.74+,6,Karsten Williams,Carthage,144.24,163.29,102.06,172.37,437.72,Single-ply,SBD,M
Boys,,NS,Tavious Kellum,Carthage,,,,,,Single-ply,SBD,M
