Name,WeightClassKg,Division,Sex,Best3SquatKg,Best3BenchKg,Best3DeadliftKg,TotalKg,Event,Equipment,Place
Philip Richard,75,M-E-Open,M,280,180,225,685,SBD,Single-ply,1
Dave Todd,75,M-E-U23,M,190,125,212.5,527.5,SBD,Single-ply,1
Dareen George,82.5,M-E-Open,M,230,150,220,600,SBD,Single-ply,1
Chris Davies,90,M-E-Open,M,225,152.5,230,607.5,SBD,Single-ply,1
Scott Murphy,90,M-E-U18,M,190,125,185,500,SBD,Single-ply,1
Rob Thomas,125+,M-E-Open,M,240,200,240,680,SBD,Single-ply,1
