Name,WeightClassKg,Division,Best3SquatKg,Best3BenchKg,Best3DeadliftKg,TotalKg,Event,Equipment,Sex,Place
M. Collins,52,Novice,115,60,122.5,297.5,SBD,Single-ply,M,1
C. Pardue,52,Novice,97.5,67.5,110,275,SBD,Single-ply,M,2
K. Roberts,52,Novice,95,60,105,260,SBD,Single-ply,M,3
B. Harris,52,Novice,72.5,35,105,212.5,SBD,Single-ply,M,4
B. Barton,56,Novice,110,67.5,130,307.5,SBD,Single-ply,M,1
P. Mahaffey,56,Novice,82.5,60,102.5,245,SBD,Single-ply,M,2
D. Hensley,60,Novice,160,115,192.5,467.5,SBD,Single-ply,M,1
H. Watford,60,Novice,115,85,162.5,362.5,SBD,Single-ply,M,2
K. Gravitt,60,Novice,127.5,67.5,137.5,332.5,SBD,Single-ply,M,3
M. Mcelrath,67.5,Novice,145,122.5,177.5,445,SBD,Single-ply,M,1
T. Pardue,67.5,Novice,147.5,117.5,172.5,437.5,SBD,Single-ply,M,2
M. Somar,67.5,Novice,150,87.5,192.5,430,SBD,Single-ply,M,3
D. Birchfield,67.5,Novice,135,112.5,167.5,415,SBD,Single-ply,M,4
E. Day,67.5,Novice,120,75,155,350,SBD,Single-ply,M,5
C. Baxley,67.5,Novice,90,47.5,90,227.5,SBD,Single-ply,M,6
A. Breen,75,Novice,195,132.5,220,547.5,SBD,Single-ply,M,1
C. Thompson,75,Novice,180,127.5,227.5,535,SBD,Single-ply,M,2
D. Rhodes,75,Novice,175,130,210,515,SBD,Single-ply,M,3
M. Ingle,75,Novice,185,127.5,192.5,505,SBD,Single-ply,M,4
R. Cox,75,Novice,182.5,135,180,497.5,SBD,Single-ply,M,5
R. Watts,75,Novice,152.5,125,210,487.5,SBD,Single-ply,M,6
T. Williams,75,Novice,182.5,92.5,210,485,SBD,Single-ply,M,7
D. Quinn,75,Novice,172.5,100,200,472.5,SBD,Single-ply,M,8
R. Pardue,75,Novice,162.5,125,182.5,470,SBD,Single-ply,M,9
S. Revis,75,Novice,150,117.5,192.5,460,SBD,Single-ply,M,10
J. Quten,75,Novice,165,110,182.5,457.5,SBD,Single-ply,M,11
D. Wofford,75,Novice,155,110,180,445,SBD,Single-ply,M,12
R. Walton,75,Novice,135,107,197.5,439.5,SBD,Single-ply,M,13
J. Hill,75,Novice,137.5,105,190,432.5,SBD,Single-ply,M,14
A. Trip,75,Novice,137.5,95,180,412.5,SBD,Single-ply,M,15
G. Dutton,75,Novice,110,77.5,165,352.5,SBD,Single-ply,M,16
M. Bove,75,Novice,,120,197.5,,SBD,Single-ply,M,DQ
S. Cosentino,75,Novice,87.5,165,,,SBD,Single-ply,M,DQ
C. Roach,82.5,Novice,215,142.5,210,567.5,SBD,Single-ply,M,1
N. Edwards,82.5,Novice,217.5,127.5,200,545,SBD,Single-ply,M,2
R. Quarrles,82.5,Novice,180,117.5,217.5,515,SBD,Single-ply,M,3
L. Robinson,82.5,Novice,195,120,200,515,SBD,Single-ply,M,4
J. McIntire,82.5,Novice,180,135,195,510,SBD,Single-ply,M,5
D. Johnson,82.5,Novice,157.5,137.5,170,465,SBD,Single-ply,M,6
B. Hopkins,82.5,Novice,147.5,122.5,175,445,SBD,Single-ply,M,7
J. Graham,82.5,Novice,147.5,140,147.5,435,SBD,Single-ply,M,8
W. Tucker,82.5,Novice,150,92.5,140,382.5,SBD,Single-ply,M,9
B. Neal,90,Novice,232.5,155,245,632.5,SBD,Single-ply,M,1
B. Eason,90,Novice,227.5,145,260,632.5,SBD,Single-ply,M,2
M. Lee,90,Novice,205,117.5,235,557.5,SBD,Single-ply,M,3
D. Player,90,Novice,205,122.5,222.5,550,SBD,Single-ply,M,4
M. Wiley,90,Novice,180,150,200,530,SBD,Single-ply,M,5
S. Gregory,90,Novice,180,127.5,220,527.5,SBD,Single-ply,M,6
R. Lawson,90,Novice,147.5,160,185,492.5,SBD,Single-ply,M,7
T. Thomas,90,Novice,162.5,140,182.5,485,SBD,Single-ply,M,8
R. Zimmerman,90,Novice,145,145,187.5,477.5,SBD,Single-ply,M,9
E. Redding,90,Novice,147.5,132.5,172.5,452.5,SBD,Single-ply,M,10
J. Pardue,90,Novice,175,95,180,450,SBD,Single-ply,M,11
R. Johnson,100,Novice,227.5,132.5,257.5,617.5,SBD,Single-ply,M,1
R. Beam,100,Novice,217.5,142.5,247.5,607.5,SBD,Single-ply,M,2
B. Baxley,100,Novice,227.5,150,227.5,605,SBD,Single-ply,M,3
K. Bray,100,Novice,215,160,227.5,602.5,SBD,Single-ply,M,4
J. Davidson,100,Novice,210,160,230,600,SBD,Single-ply,M,5
B. King,100,Novice,195,150,207.5,552.5,SBD,Single-ply,M,6
R. Donato,100,Novice,190,142.5,215,547.5,SBD,Single-ply,M,7
T. Moore,100,Novice,195,125,222.5,542.5,SBD,Single-ply,M,8
D. Strickland,100,Novice,192.5,127.5,220,540,SBD,Single-ply,M,9
B. Freeman,100,Novice,172.5,185,177.5,535,SBD,Single-ply,M,10
R. Sasser,100,Novice,192.5,107.5,215,515,SBD,Single-ply,M,11
M. Gossett,100,Novice,177.5,130,200,507.5,SBD,Single-ply,M,12
G. Sides,100,Novice,150,132.5,195,477.5,SBD,Single-ply,M,13
S. Anasto,100,Novice,147.5,,157.5,,SBD,Single-ply,M,DQ
D. Anderson,110,Novice,235,155,242.5,632.5,SBD,Single-ply,M,1
M. Gray,110,Novice,220,150,227.5,597.5,SBD,Single-ply,M,3
B. Cleveland,110,Novice,222.5,140,237.5,600,SBD,Single-ply,M,2
J. George,110,Novice,195,150,210,555,SBD,Single-ply,M,4
M. Mahaffee,110,Novice,162.5,152.5,195,510,SBD,Single-ply,M,5
P. Nixon,110,Novice,172.5,145,190,507.5,SBD,Single-ply,M,6
J. Howard,125,Novice,235,160,257.5,652.5,SBD,Single-ply,M,1
H. Terry,125,Novice,240,165,245,650,SBD,Single-ply,M,2
R. Flores,125,Novice,230,152.5,227.5,610,SBD,Single-ply,M,3
W. Harrell,125,Novice,205,137.5,220,562.5,SBD,Single-ply,M,4
N. Hall,125,Novice,157.5,175,217.5,550,SBD,Single-ply,M,5
J. Barnett,125+,Novice,220,170,217.5,607.5,SBD,Single-ply,M,1
I. Bruce,125+,Novice,250,112.5,180,542.5,SBD,Single-ply,M,2
M. Collins,52,Open,115,60,122.5,297.5,SBD,Single-ply,M,1
B. Haprell,52,Open,72.5,35,105,212.5,SBD,Single-ply,M,2
D. Shaw,56,Open,102.5,105,135,342.5,SBD,Single-ply,M,1
R. Jacobs,60,Open,175,115,195,485,SBD,Single-ply,M,1
J. Edenfield,60,Open,172.5,100,182.5,455,SBD,Single-ply,M,2
J. Bryant,60,Open,137.5,117.5,190,445,SBD,Single-ply,M,3
R. Pardue,60,Open,180,90,155,425,SBD,Single-ply,M,4
T. Nelms,60,Open,127.5,100,187.5,415,SBD,Single-ply,M,5
K. Gravitt,60,Open,127.5,67.5,137.5,332.5,SBD,Single-ply,M,6
Pokie Brunson,67.5,Open,227.5,115,272.5,615,SBD,Single-ply,M,1
D. Austin,67.5,Open,215,145,242.5,602.5,SBD,Single-ply,M,2
A. Mathis,67.5,Open,205,165,167.5,537.5,SBD,Single-ply,M,3
S. Pardue,67.5,Open,202.5,135,200,537.5,SBD,Single-ply,M,4
D. Head,67.5,Open,182.5,137.5,187.5,507.5,SBD,Single-ply,M,5
B. Bennett,67.5,Open,175,115,170,460,SBD,Single-ply,M,6
Gene Bell,75,Open,227.5,165,257.5,650,SBD,Single-ply,M,1
T. Horne,75,Open,202.5,170,207.5,580,SBD,Single-ply,M,2
C. Williams,75,Open,197.5,137.5,200,535,SBD,Single-ply,M,3
M. Branscom,75,Open,185,145,205,535,SBD,Single-ply,M,4
J. Outz,75,Open,182.5,125,215,522.5,SBD,Single-ply,M,5
B. Monroe,75,Open,182.5,112.5,,,SBD,Single-ply,M,DQ
J. Stewart,82.5,Open,217.5,155,260,632.5,SBD,Single-ply,M,1
D. Nichols,82.5,Open,230,162.5,227.5,620,SBD,Single-ply,M,2
C. Massey,82.5,Open,227.5,150,240,617.5,SBD,Single-ply,M,3
R. Harrell,82.5,Open,222.5,147.5,240,610,SBD,Single-ply,M,4
J. Rondinelli,82.5,Open,210,135,247.5,592.5,SBD,Single-ply,M,5
B. Benson,82.5,Open,205,120,227.5,552.5,SBD,Single-ply,M,6
G. Bradley,90,Open,260,175,262.5,697.5,SBD,Single-ply,M,1
D. Hubbard,90,Open,250,187.5,240,677.5,SBD,Single-ply,M,2
R. Tullis,90,Open,242.5,152.5,275,670,SBD,Single-ply,M,3
R. Latta,90,Open,240,177.5,252.5,670,SBD,Single-ply,M,4
J. Beckham,90,Open,245,137.5,260,642.5,SBD,Single-ply,M,5
R. Gravitt,90,Open,220,152.5,195,567.5,SBD,Single-ply,M,6
D. Player,90,Open,205,122.5,222.5,550,SBD,Single-ply,M,7
R. Silon,100,Open,287.5,180,275,742.5,SBD,Single-ply,M,1
R. Little,100,Open,240,165,277.5,682.5,SBD,Single-ply,M,2
J. Blalock,100,Open,235,140,257.5,632.5,SBD,Single-ply,M,3
D. Mikell,100,Open,245,132.5,237.5,615,SBD,Single-ply,M,4
B. Baxley,100,Open,227.5,150,227.5,605,SBD,Single-ply,M,5
T. Harrier,100,Open,207.5,165,227.5,600,SBD,Single-ply,M,6
D. Ricafrentes,110,Open,282.5,190,285,757.5,SBD,Single-ply,M,1
B. Edmonson,110,Open,250,165,297.5,712.5,SBD,Single-ply,M,2
Broadus Porter,125,Open,320,210,300,830,SBD,Single-ply,M,1
D. Simmons,125,Open,265,160,237.5,662.5,SBD,Single-ply,M,2
H. Terry,125,Open,240,165,245,650,SBD,Single-ply,M,3
N. Talarczyk,125,Open,222.5,142.5,257.5,622.5,SBD,Single-ply,M,4
B. McElveen,125+,Open,295,200,295,790,SBD,Single-ply,M,1
I. Brice,125+,Open,250,112.5,180,542.5,SBD,Single-ply,M,2
