Division,WeightClassKg,Place,Name,Team,BodyweightKg,Best3SquatKg,Best3BenchKg,Best3DeadliftKg,TotalKg,Equipment,Event,Sex
Boys,51.71,1,Coleman Hardin,Frankston,50.89,113.4,56.7,113.4,283.5,Single-ply,SBD,M
Boys,59.87,1,Kris Jordan,Trinity,59.87,147.42,83.91,142.88,374.21,Single-ply,SBD,M
Boys,59.87,2,Gerson Montano,Buffalo,58.88,147.42,74.84,142.88,365.14,Single-ply,SBD,M
Boys,59.87,3,Marcos Dominguez,Buffalo,58.15,142.88,72.57,133.81,349.27,Single-ply,SBD,M
Boys,59.87,4,Michael Rosales,Rusk,56.34,108.86,61.23,113.4,283.5,Single-ply,SBD,M
Boys,59.87,5,Kyle Kennerk,Cayuga,57.7,102.06,52.16,117.93,272.16,Single-ply,SBD,M
Boys,67.13,1,Leo Rosales,Rusk,66.32,195.04,104.33,197.31,496.68,Single-ply,SBD,M
Boys,67.13,2,Zach Morrow,Palestine Westwood,65.32,158.76,86.18,149.69,394.63,Single-ply,SBD,M
Boys,67.13,3,Dillon Beshears,Buffalo,65.14,147.42,86.18,142.88,376.48,Single-ply,SBD,M
Boys,67.13,4,Chris Soria,Buffalo,67.04,145.15,88.45,140.61,374.21,Single-ply,SBD,M
Boys,67.13,5,Joel Dees,Trinity,66.13,129.27,79.38,161.03,369.68,Single-ply,SBD,M
Boys,67.13,6,Jacob Smith,Palestine Westwood,61.42,124.74,70.31,147.42,342.46,Single-ply,SBD,M
Boys,67.13,7,Robert Buckely,Cayuga,64.5,124.74,70.31,136.08,331.12,Single-ply,SBD,M
Boys,67.13,8,Ivan Dominguez,Buffalo,60.15,129.27,68.04,131.54,328.85,Single-ply,SBD,M
Boys,67.13,9,Bryce Driver,Rusk,63.32,122.47,70.31,136.08,328.85,Single-ply,SBD,M
Boys,67.13,10,Zach Zea,Rusk,61.6,102.06,61.23,122.47,285.76,Single-ply,SBD,M
Boys,67.13,11,Jaycob Elliott,Grapeland,61.96,90.72,70.31,102.06,263.08,Single-ply,SBD,M
Boys,74.84,1,Michael Jones,Elkhart,68.76,181.44,113.4,195.04,489.88,Single-ply,SBD,M
Boys,74.84,2,Chason Churchman,Palestine Westwood,70.58,197.31,83.91,188.24,469.47,Single-ply,SBD,M
Boys,74.84,3,Parker Hay,Trinity,70.4,174.63,90.72,176.9,442.25,Single-ply,SBD,M
Boys,74.84,4,Joseph Oxford,Frankston,73.3,145.15,97.52,183.7,426.38,Single-ply,SBD,M
Boys,74.84,5,LA Bradford,Frankston,69.58,158.76,92.99,172.37,424.11,Single-ply,SBD,M
Boys,74.84,6,Ulices Guererro,Buffalo,70.58,165.56,83.91,156.49,405.97,Single-ply,SBD,M
Boys,74.84,7,Stephen Hawthorne,Palestine Westwood,70.03,115.67,63.5,127.01,306.17,Single-ply,SBD,M
Boys,74.84,8,John Underwood,Cayuga,70.22,102.06,72.57,111.13,285.76,Single-ply,SBD,M
Boys,74.84,9,Kevin Kennerk,Cayuga,73.21,92.99,52.16,102.06,247.21,Single-ply,SBD,M
Boys,82.1,1,Cameron Riess,Grapeland,80.92,226.8,124.74,204.12,555.65,Single-ply,SBD,M
Boys,82.1,2,Charles McMillen,Trinity,80.56,197.31,104.33,204.12,505.76,Single-ply,SBD,M
Boys,82.1,3,Orlando Gonzales,Palestine Westwood,81.28,208.65,108.86,188.24,505.76,Single-ply,SBD,M
Boys,82.1,4,Drew Lewis,Frankston,81.37,190.51,104.33,204.12,498.95,Single-ply,SBD,M
Boys,82.1,5,Hector Dominguez,Buffalo,78.93,197.31,102.06,192.78,492.15,Single-ply,SBD,M
Boys,82.1,6,Redhorse Warren,Palestine Westwood,76.93,192.78,108.86,183.7,485.34,Single-ply,SBD,M
Boys,82.1,7,Nate Bell,Elkhart,75.39,188.24,108.86,183.7,480.81,Single-ply,SBD,M
Boys,82.1,8,Sammy Cervantes,Buffalo,75.93,170.1,106.59,199.58,476.27,Single-ply,SBD,M
Boys,82.1,9,Mikey Agan,Elkhart,81.92,161.03,113.4,172.37,446.79,Single-ply,SBD,M
Boys,82.1,10,Javonte Oliphant,Trinity,77.38,142.88,97.52,183.7,424.11,Single-ply,SBD,M
Boys,82.1,11,Tremel Preston,Frankston,77.75,183.7,,204.12,387.82,Single-ply,SD,M
Boys,82.1,12,Travis Connor,Elkhart,78.02,136.08,92.99,147.42,376.48,Single-ply,SBD,M
Boys,82.1,13,Andy Garcia,Trinity,75.48,120.2,90.72,161.03,371.95,Single-ply,SBD,M
Boys,82.1,14,Zeke Ceron,Buffalo,79.65,136.08,79.38,131.54,347,Single-ply,SBD,M
Boys,82.1,15,Dylon Gilplin,Grapeland,78.56,113.4,63.5,131.54,308.44,Single-ply,SBD,M
Boys,82.1,16,LaJuan Davis,Palestine Westwood,76.84,,72.57,154.22,226.8,Single-ply,BD,M
Boys,89.81,1,Zack Gray,Elkhart,87.82,249.48,142.88,226.8,619.15,Single-ply,SBD,M
Boys,89.81,2,Scott Guldjord,Cayuga,89.36,156.49,108.86,167.83,433.18,Single-ply,SBD,M
Boys,89.81,3,Ashton Henry,Grapeland,87.18,170.1,77.11,181.44,428.64,Single-ply,SBD,M
Boys,89.81,4,Jesse Owen,Frankston,89.81,158.76,92.99,167.83,419.57,Single-ply,SBD,M
Boys,89.81,5,Mod Foreman,Rusk,87.27,154.22,102.06,151.95,408.23,Single-ply,SBD,M
Boys,89.81,6,Jonathan Rogers,Grapeland,86.82,156.49,,154.22,310.71,Single-ply,SD,M
Boys,99.79,1,Traylon Swanson,Elkhart,99.25,231.33,142.88,222.26,596.47,Single-ply,SBD,M
Boys,99.79,2,Andre Agan,Elkhart,94.44,226.8,149.69,215.46,591.94,Single-ply,SBD,M
Boys,99.79,3,Gavin DeFore,Elkhart,91.44,204.12,142.88,204.12,551.11,Single-ply,SBD,M
Boys,99.79,4,Patrick Ball,Rusk,98.25,163.29,111.13,170.1,444.52,Single-ply,SBD,M
Boys,99.79,5,Maurice Calhoun,Palestine Westwood,99.34,158.76,115.67,167.83,442.25,Single-ply,SBD,M
Boys,99.79,6,Jace Rogers,Rusk,91.08,138.35,79.38,170.1,387.82,Single-ply,SBD,M
Boys,99.79,7,Seth Hoffman,Rusk,99.25,151.95,83.91,149.69,385.55,Single-ply,SBD,M
Boys,99.79,8,Giovanni Rivas,Buffalo,90.99,108.86,70.31,104.33,283.5,Single-ply,SBD,M
Boys,109.77,1,TJ Jones,Elkhart,101.33,226.8,129.27,206.38,562.45,Single-ply,SBD,M
Boys,109.77,2,Glen Bonner,Trinity,102.69,190.51,129.27,197.31,517.1,Single-ply,SBD,M
Boys,109.77,3,Jayce Harris,Cayuga,104.69,167.83,127.01,192.78,487.61,Single-ply,SBD,M
Boys,109.77,4,Travis Pepin,Rusk,105.96,170.1,106.59,165.56,442.25,Single-ply,SBD,M
Boys,109.77,5,Jermaine Lewis,Rusk,105.69,163.29,83.91,185.97,433.18,Single-ply,SBD,M
Boys,109.77,6,Brenden Kinder,Frankston,104.78,127.01,83.91,170.1,381.02,Single-ply,SBD,M
Boys,109.77,7,Timothy Simpson,Buffalo,107.23,120.2,83.91,136.08,340.19,Single-ply,SBD,M
Boys,109.77,8,Michael Hanewald,Cayuga,107.23,106.59,90.72,117.93,315.25,Single-ply,SBD,M
Boys,109.77,9,Joe Ingram,Cayuga,108.5,,61.23,113.4,174.63,Single-ply,BD,M
Boys,109.77,10,Will Dehart,Elkhart,109.13,,133.81,,133.81,Single-ply,B,M
Boys,124.74,1,Malik Benson,Palestine Westwood,116.03,251.74,136.08,226.8,614.62,Single-ply,SBD,M
Boys,124.74,2,Josh Porter,Frankston,113.85,247.21,129.27,233.6,610.08,Single-ply,SBD,M
Boys,124.74,3,Benito Rivas,Buffalo,119.39,208.65,151.95,192.78,553.38,Single-ply,SBD,M
Boys,124.74,4,Brandon Philips,Trinity,118.57,185.97,115.67,174.63,476.27,Single-ply,SBD,M
Boys,124.74,5,Keeva Jackson,Palestine Westwood,120.84,156.49,61.23,145.15,362.87,Single-ply,SBD,M
Boys,124.74+,1,Joel Barbosa,Grapeland,125.83,204.12,117.93,206.38,528.44,Single-ply,SBD,M
Boys,124.74+,2,Kolby Cooper,Cayuga,139.53,147.42,142.88,204.12,494.42,Single-ply,SBD,M
Boys,124.74+,3,Adam Patterson,Rusk,128.37,149.69,83.91,154.22,387.82,Single-ply,SBD,M
