Name,Place,Division,Sex,Equipment,WeightClassKg,BodyweightKg,Age,Best3SquatKg,Best3BenchKg,Best3DeadliftKg,Deadlift4Kg,TotalKg,Event
Brandy Sonnemoser,1,Open,F,Wraps,48,47.36,27,67.5,45,92.5,,205,SBD
Shelly Antle,1,Open,F,Wraps,52,51.62,43,112.5,62.5,145,,320,SBD
Ashley Fitzgerald,1,Open,F,Wraps,67.5,67.13,25,127.5,65,137.5,,330,SBD
Shelly Antle,1,Masters 40-44,F,Wraps,52,51.62,43,112.5,62.5,145,,320,SBD
Amy Perry,1,Masters 45-49,F,Wraps,67.5,66.59,45,110,50,117.5,,277.5,SBD
Lori Dunn,1,Masters 50-54,F,Wraps,75,74.39,50,75,60,137.5,,272.5,SBD
Kate Walker,1,Masters 60-64,F,Wraps,75,71.21,64,75,45,107.5,,227.5,SBD
David Larsen,1,Juniors 20-23,M,Wraps,125,122.83,23,250,145,282.5,,677.5,SBD
Jared Baxter,2,Juniors 20-23,M,Wraps,125,117.39,21,227.5,125,247.5,,600,SBD
Jeremy Sonnemoser,1,Open,M,Wraps,82.5,81.01,30,190,140,192.5,,522.5,SBD
Zak Reneau,2,Open,M,Wraps,82.5,80.74,25,150,102.5,192.5,,445,SBD
Jimmy Daniel,1,Open,M,Wraps,90,89.90,23,227.5,152.5,215,,595,SBD
Chris Kessler,2,Open,M,Wraps,90,89.81,31,182.5,115,207.5,,505,SBD
Earnest Jackson,1,Open,M,Wraps,100,93.53,32,252.5,177.5,285,,715,SBD
Jon Holloway,2,Open,M,Wraps,100,98.34,26,185,142.5,242.5,,570,SBD
William Harris,DQ,Open,M,Wraps,100,98.97,30,185,,200,,,SBD
Brad Johnson,1,Open,M,Wraps,110,109.04,33,275,192.5,265,,732.5,SBD
Brett Wondra,2,Open,M,Wraps,110,108.86,33,310,155,262.5,,727.5,SBD
Doug Myers,3,Open,M,Wraps,110,107.68,30,210,155,230,,595,SBD
Justin Myer,4,Open,M,Wraps,110,102.69,26,177.5,132.5,220,,530,SBD
Dustin Phelps,1,Open,M,Wraps,125,122.56,29,330,165,315,,810,SBD
Shawn Jones,2,Open,M,Wraps,125,118.57,36,205,170,227.5,,602.5,SBD
Kent Fleming,1,Open,M,Wraps,140+,169.73,25,387.5,235,320,,942.5,SBD
Jeff Frank,2,Open,M,Wraps,140+,174.18,24,375,240,305,,920,SBD
Ben Moore,3,Open,M,Wraps,140+,151.50,35,330,195,310,,835,SBD
Jason Shepard,1,Submasters 35-39,M,Wraps,100,99.43,39,125,95,185,,405,SBD
Mark Duckworth,1,Masters 40-44,M,Wraps,100,99.43,41,177.5,137.5,222.5,,537.5,SBD
Steve Lillard,1,Masters 65-69,M,Wraps,100,98.61,66,165,85,215,,465,SBD
David Cook,1,Masters 45-49,M,Wraps,125,121.20,49,225,160,225,,610,SBD
Bill Duncan,1,Masters 50-54,M,Wraps,140+,177.99,54,255,140,220,,615,SBD
Tim Stokes,1,Juniors 18-19,M,Single-ply,90,88.90,18,270,162.5,245,,677.5,SBD
Michael Greeno,1,Open,M,Single-ply,100,99.61,30,290,250,275,,815,SBD
Mark Silivinski,2,Open,M,Single-ply,100,98.97,48,295,215,262.5,,772.5,SBD
Mark Silivinski,1,Masters 45-49,M,Single-ply,100,98.97,48,295,215,262.5,,772.5,SBD
Mandy Bennet,1,Open,F,Multi-ply,67.5,62.05,20,182.5,90,160,,432.5,SBD
Josh Wilson,1,Open,M,Multi-ply,75,73.71,36,262.5,155,215,,632.5,SBD
Mick Manley,1,Open,M,Multi-ply,90,88.54,28,272.5,215,340,347.5,827.5,SBD
Lupe Carrazco,1,Open,M,Multi-ply,100,99.70,20,387.5,262.5,295,,945,SBD
Greg Denny,2,Open,M,Multi-ply,100,97.61,30,342.5,205,245,,792.5,SBD
Matt Gottsch,3,Open,M,Multi-ply,100,99.97,28,257.5,195,240,,692.5,SBD
Drew Keyman,1,Open,M,Multi-ply,110,106.05,28,350,187.5,287.5,,825,SBD
Justin Graalfs,1,Open,M,Multi-ply,125,120.38,33,477.5,317.5,350,,1145,SBD
Cameron Richler,2,Open,M,Multi-ply,125,120.29,32,370,215,267.5,,852.5,SBD
Brian Lawson,3,Open,M,Multi-ply,125,122.47,25,340,212.5,290,,842.5,SBD
Mike Taylor,1,Masters 50-54,M,Multi-ply,110,109.04,51,332.5,272.5,272.5,100,877.5,SBD
